﻿#########################################################################
# Jordan - 1933
#########################################################################
1933.1.1 = {
	capital = 455
	#######################
	# Research
	#######################
	set_technology = {
		Small_Arms_1916 = 1
	}
	#######################
	# Politics
	#######################
	set_politics = {
		ruling_party = authoritarian
		last_election = "1933.1.1"
		election_frequency = 48
		elections_allowed = no
	}
	set_popularities = {
		fascist = 0
		authoritarian = 94
		democratic = 6
		socialist = 0
		communist = 0
	}
	add_ideas = {
		agrarian_economy
	}
	#######################
	# Leaders
	#######################
	# Authoritarianism
	create_country_leader = {
		name = "Abdullah I"
		desc = ""
		picture = "P_A_Abdullah_I.tga"
		expire = "1951.7.20"
		ideology = monarchism
		traits = { POSITION_Emir SUBIDEOLOGY_Monarchism HoS_Benevolent_Gentleman }
	}
	#######################
	# Generals
	#######################
}