﻿capital = 219

set_research_slots = 1


set_technology = {
	Small_Arms_1916 = 2
	Small_Arms_1935 = 2
	tech_mountaineers = 2
	tech_support = 1
	tech_recon = 1
	transport = 1
}

add_political_power = 0
set_convoys = 50

set_politics = {
	ruling_party = fascist
	last_election = "1935.6.9"
	election_frequency = 0
	elections_allowed = no
}
set_popularities = {
	fascist = 100
	authoritarian = 0
	democratic = 0
	socialist = 0
	communist = 0
}
	add_ideas = {
		volunteer_only
		export_focus
		war_economy
		GER_RK_repression
	}
####################################################
# RK Moscovy Leaders
####################################################
# National Socialism	
create_country_leader = {
	name = "Siegfried Kasche" 
	desc = "POLITICS_SIEGFRIED_KASCHE_DESC" 
	picture = "P_F_Siegfried_Kasche.tga" 
	expire = "1973.5.3" 
	ideology = national_socialism 
	traits = { }
}			

