autonomy_state = {
	id = autonomy_wtt_imperial_associate 
	
	is_puppet = yes
	
	min_freedom_level = 0.6
	
	rule = {
		can_not_declare_war = yes
		can_decline_call_to_war = no
	}
	
	modifier = {
		autonomy_manpower_share = 0.7
		can_master_build_for_us = 1
		extra_trade_to_overlord_factor = 0.6
		overlord_trade_cost_factor = -0.6
		cic_to_overlord_factor = 0.25
		autonomy_gain_global_factor = -0.3
	}
	
	ai_subject_wants_higher = {
		factor = 1.0
	}
	
	ai_overlord_wants_lower = {
		factor = 1.0
	}

	ai_overlord_wants_garrison = {
		always = no
	}

	allowed = {
		OR = {
			OVERLORD = { original_tag = JAP }
			OVERLORD = { original_tag = MAN }
		}
	}

	can_take_level = {
	}

	can_lose_level = {
		#trigger here
	}
}
