on_actions = {


	# Ace pilots
	# country, FROM = ace
	on_ace_promoted = {
		random_events = {
			100 = ace_promoted.1
			5 = ace_promoted.2
		}
	}

	# country, FROM = ace, PREV = enemy ace 
	# This event fires twice, once for each ace.
	on_aces_killed_each_other = {
		random_events = {
			100 = aces_killed_each_other.1
		}
	}
	
	# country, FROM = our ace, 
	# PREV = enemy ace, has killed FROM
	on_ace_killed_by_ace = {
		random_events = {
			100 = ace_killed_by_ace.1
		}
	}

	# country, FROM = our ace, 
	# PREV = enemy ace, killed by FROM
	on_ace_killed_other_ace = {
		random_events = {
			100 = ace_killed_other_ace.1
		}
	}

	# country, FROM = ace
	on_ace_killed = {
		random_events = {
			100 = ace_died.1
		}
	}

	# During justifying wargoals
	# triggered daily, so make sure there is a sink somewhere not firing events
	# country, FROM = target nation
	on_justifying_wargoal_pulse = {

		random_events = {
			100 = war_justification.1
			100 = war_justification.2
			100 = war_justification.3
			100 = war_justification.4
			100 = war_justification.5
			100 = war_justification.6
			100 = war_justification.7
			100 = war_justification.8
			100 = war_justification.9
			100 = war_justification.10
			100 = war_justification.11
			100 = war_justification.12
			100 = war_justification.13
			100 = war_justification.14
			100 = war_justification.15
			100 = war_justification.16
			100 = war_justification.17
			100 = war_justification.18
			100 = war_justification.19
			17000 = 0
			#Soviet demands
			1000 = soviet.30
			1000 = soviet.31
			1000 = soviet.32
			1000 = soviet.33
			1000 = soviet.34
		}
	}

	on_wargoal_expire = {
		random_events = {
			100 = war_justification.301
		}
	}

	on_nuke_drop = {

		effect = {
			if = {
				limit = { NOT = { has_country_flag = achievement_has_dropped_nuke } }
				goto_state = FROM
				set_country_flag = achievement_has_dropped_nuke
			}
			if = {
				limit = {
					FROM = { state = 378 }					
				}
				set_country_flag = achievement_has_nuked_california
			}
			if = {
				limit = {
					FROM = { is_core_of = AST }					
				}
				set_country_flag = achievement_AST_nuke_self
			}
			if = {
				limit = {
					tag = SWE
					FROM = {
						is_owned_by = DEN
						is_core_of = DEN
					}
				}
				set_country_flag = achievement_med_plutonium
			}
			news_event = { id = nuke_dropped.2 days = 1}
			news_event = { id = nuke_dropped.3 days = 1}
			news_event = { id = nuke_dropped.4 days = 1}
			news_event = { id = nuke_dropped.5 days = 1}
			news_event = { id = nuke_dropped.6 days = 1}
			news_event = { id = nuke_dropped.7 days = 1}
			news_event = { id = nuke_dropped.8 days = 1}
			news_event = { id = nuke_dropped.9 days = 1}
			news_event = { id = nuke_dropped.10 days = 1}
			news_event = { id = nuke_dropped.11 days = 1}
			news_event = { id = nuke_dropped.12 days = 1}
			news_event = { id = nuke_dropped.13 days = 1}
		}
		random_events = {
			100 = nuke_dropped.0
		}
	}

	# country random events
	#on_bi_yearly_pulse = {
	#
	#}

	#on_five_year_pulse = {
	#
	#}

	on_border_war_lost = {
		effect = {
			owner = {
				country_event = { id = china.14 }
				country_event = { id = china.16 }
			}
		}
	}
	
	on_leave_faction = {
		effect = {
			if = {
				limit = { 
					AND = {
						tag = CAN 	
						NOT = { has_dlc = "Together for Victory" }
					}
				}
				drop_cosmetic_tag = yes
			}
			FROM = {
				add_opinion_modifier = {
					modifier = faction_traitor
					target = ROOT
					days = 365
				}
			
				add_opinion_modifier = {
					modifier = faction_traitor_trade
					target = ROOT
					days = 365
				}
			}
		}
	}

	#FROM is the one that joins the faction
	on_create_faction = {
		effect = {
			# Sunset invasion check
			if = {
				limit = {
					FROM = { is_puppet = no }
					OR = {
						AND = {
							tag = MEX
							FROM = {
								capital_scope = {
									NOT = { is_on_continent = south_america }
								}
							}
						}
						AND = {
							FROM = {
								tag = MEX
							}
							capital_scope = {
								NOT = { is_on_continent = south_america }
							}
						}
					}
				}
				set_country_flag = achievement_failed_sunset_invasion
			}
		}
	}

	#FROM is country getting invited.
	on_offer_join_faction = {
		effect = {
			#Give achievement to nation joining a faction, but not in one from game start
			if = {
				limit = {
					date > 1936.01.02
				}
				FROM = {
					if = {
						limit = {
							is_faction_leader = no
						}
						set_country_flag = achievement_has_joined_faction
					}
				}
			}
			#Remove anti_soviet_pact if joining commie Soviet in faction
			if = {
				limit = {
					original_tag = SOV
					has_government = communist
					FROM = {
						has_idea = anti_soviet_pact 
					}
				}
				FROM = {
					remove_ideas = anti_soviet_pact
				}
			}
	
			# Sunset invasion check
			if = {
				limit = {
					is_puppet = no
					OR = {
						AND = {
							tag = MEX
							FROM = {
								capital_scope = {
									NOT = { is_on_continent = south_america }
								}
							}
						}
						AND = {
							FROM = {
								tag = MEX
							}
							capital_scope = {
								NOT = { is_on_continent = south_america }
							}
						}
					}
				}
				set_country_flag = achievement_failed_sunset_invasion
			}			
		}
	}

	#FROM is faction leader on join faction requests.
	on_join_faction = {
		effect = {
			set_country_flag = achievement_has_joined_faction
			#Remove anti_soviet_pact if joining commie Soviet in faction
			if = {
				limit = {
					has_idea = anti_soviet_pact 
					FROM = {
						original_tag = SOV
						has_government = communist
					}
				}
				remove_ideas = anti_soviet_pact
			}

			# Sunset invasion check
			if = {
				limit = {
					is_puppet = no
					OR = {
						AND = {
							tag = MEX
							FROM = {
								capital_scope = {
									NOT = { is_on_continent = south_america }
								}
							}
						}
						AND = {
							FROM = {
								tag = MEX
							}
							capital_scope = {
								NOT = { is_on_continent = south_america }
							}
						}
					}
				}
				set_country_flag = achievement_failed_sunset_invasion
			}
		}
	}

	#FROM is war target
	on_declare_war = {
		effect = {
			if = {
				limit = {
					FROM = {
						OR = {
							has_idea = american_protection_drift_democratic
							has_idea = american_protection_drift_communist
							has_idea = american_protection_drift_fascism
						}
					}
					NOT = { 
						tag = USA
						is_in_faction_with = USA # I guess USA will not go to war with someone they are in faction with
						has_war_with = USA
						#USA = { has_war_with = FROM } Should USA enforce peace in a nation it is already at war with?
					}
					OR = {
						has_idea = american_protection_drift_democratic
						has_idea = american_protection_drift_communist
						has_idea = american_protection_drift_fascism
					}
				}				
				FROM = { country_event = { id = usa.16 days = 1 } }
			}

			## Soviet defensive war while having purge penalty
			if = {
				limit = {
					FROM = {
						tag = SOV
						OR = {
							has_idea = officers_purged
							has_idea = officers_purged_2
							has_idea = officers_purged_3
							has_idea = officers_purged_4
							has_idea = officers_purged_5
							has_idea = officers_purged_6
							has_idea = officers_purged_7
							has_idea = officers_purged_8 
							has_idea = officers_purged_9
							has_idea = officers_purged_10
						}
						NOT = { has_idea = SOV_great_patriotic_war }
						NOT = { has_idea = SOV_great_patriotic_war_2 }
						NOT = { has_idea = SOV_great_patriotic_war_3 }
						NOT = { has_idea = SOV_great_patriotic_war_4 }
						NOT = { has_idea = SOV_great_patriotic_war_5 }
					}
					ROOT = { is_major = yes }
				}
				SOV = { country_event = { id = soviet.46 days = 2 } }
			}

			## Soviet war after purge
			if = {
				limit = {
					OR = {
						FROM = { tag = SOV }
						ROOT = { tag = SOV }
					}
					SOV = {
						NOT = { has_country_flag = SOV_war_since_purge }
						#has_completed_focus =SOV_Start_the_Great_Purge
					}
				}
				SOV = { set_country_flag = SOV_war_since_purge }
			}

			# Remove pact opinion modifiers if at war with Germany
			if = {
				limit = {
					tag = GER
					FROM = {
						OR = {
							has_opinion_modifier = anti_comintern_pact_opinion
							has_opinion_modifier = tripartite_pact_opinion
							has_idea = anti_soviet_pact
						}
					}
				}
				FROM = {
					remove_opinion_modifier = { target = GER modifier = anti_comintern_pact_opinion }
					remove_opinion_modifier = { target = GER modifier = tripartite_pact_opinion }
					remove_ideas = anti_soviet_pact
				}
			}
			#Germany has started a war - allies should try to contain Germany
			if = {
				limit = {
					ROOT = {
						TAG = GER
					}
					NOT = {
						has_global_flag = GER_has_started_war
					}
				}
				set_global_flag = GER_has_started_war
			}
			#Call Anti-Soviet pact members to war
			if = {
				limit = {
					ROOT = { tag = SOV }
					FROM = { has_idea = anti_soviet_pact }
				}
				FROM = {
					country_event = { id = germany.84 days = 1 }
				}
			}
			### Activate Unternehmen Barbarossa
			if = {
				limit = {
					OR = {
						AND = {
							tag = GER
							FROM = { tag = SOV }
						}
						AND = {
							tag = SOV
							FROM = { tag = GER }
						}
					}
				}
				hidden_effect = {
					GER = { 
						add_timed_idea = { idea = GER_barbarossa days = 180 }
						activate_mission = GER_Unternehmen_Barbarossa
					}
				}
			}
		}
	}
	
	# When a new faction is formed
	on_faction_formed = {
		effect = {
			news_event = { id = news.159 }
		}
	}
	
	# ROOT is capitulated country, FROM is winner
	on_capitulation = {
		effect = {
			news_event = { id = country_capitulated.0 days = 0 }
			if = {
				limit = { 
					original_tag = POL
					has_government = authoritarian
				}
				retire_country_leader = yes
			}
			if = {
				limit = {
					original_tag = YUG
				}
				remove_ideas = YUG_idea_economic_aid
			}
		}
	}

	# ROOT is previously capitualted country
	on_uncapitulation = {
		effect = {
			if = {
				limit = {
					original_tag = FRA
					is_democratic = yes
					is_puppet = no
				}
				drop_cosmetic_tag = yes
			}
		}
	}

	on_government_change = {
		effect = {			
			#Make sure Soviet can always create factions
			if = {
				limit = {
					original_tag = SOV
					is_communist = no
				}
				set_rule = { can_create_factions = yes }
			}
			if = {
				limit = { is_democratic = yes }
				if = {
					limit = { has_idea = democratic_opposition_voicing_protests }
					remove_ideas = democratic_opposition_voicing_protests
				}
				if = {
					limit = { has_idea = democratic_revolutionaries }
					remove_ideas = democratic_revolutionaries
				}
				if = {
					limit = { has_idea = reign_of_terror }
					remove_ideas = reign_of_terror
				}
			}
			if = {
				limit = { has_government = communist }
				if = {
					limit = { TAG = SAF }
					set_cosmetic_tag = SAF_COM
				}
				if = {
					limit = { has_idea = communist_partisans_recruiting }
					remove_ideas = communist_partisans_recruiting
				}
				if = {
					limit = { has_idea = communist_revolutionaries }
					remove_ideas = communist_revolutionaries
				}
				if = {
					limit = { has_idea = communism_defeated }
					remove_ideas = communism_defeated
				}

				#Remove anti_soviet_pact
				if = {
					limit = { has_idea = anti_soviet_pact }
					remove_ideas = anti_soviet_pact
				}
			}
			if = {
				limit = { has_government = fascist }
				if = {
					limit = { has_idea = fascist_assault_divisions }
					remove_ideas = fascist_assault_divisions
				}
				if = {
					limit = { has_idea = fascist_revolutionaries }
					remove_ideas = fascist_revolutionaries
				}
				if = {
					limit = { has_idea = fascism_defeated }
					remove_ideas = fascism_defeated
				}
				if = {
					limit = { has_idea = anti_nazi_coup }
					remove_ideas = anti_nazi_coup
				}
			}
		}
	}

	on_coup_succeeded = {
		effect = {
			#Turn elections on for democracies created from coup
			random_other_country = {
				limit = {
					is_democratic = yes
					original_tag = ROOT
				}
				set_politics = {
					elections_allowed = yes
				}
			}
		}
	}

	#ROOT is winner #FROM gets annexed - This will also fire on_annex
	on_civil_war_end = {
		effect = {

			#End of SCW
			if = {
				limit = {
					OR = {
						original_tag = SPR
						original_tag = SPA
					}			
				}
				add_timed_idea = { idea = SPA_recovering_from_civil_war days = 1825 }
			}
			if = {
				limit = {
					is_democratic = yes			
				}
				set_politics = {
					elections_allowed = yes
				}
			}
		}
	}

	#ROOT is winner #FROM gets annexed - For civil wars on_civil_war_end is also fired
	on_annex = {
		effect = {
			
		}
	}

	#Not run on a specific country.
	on_startup = {
		effect = {
			
		}
	}

	#ROOT is new controller #FROM is old controller #FROM.FROM is state ID
	on_state_control_changed = {
		effect = {

		}
	}
}
