on_actions = {
	on_startup = {
		effect = {
			random_country = {
				set_up_goals_and_achievements = yes
			}
			every_country = {
				set_up_own_goals_and_achievements = yes
				set_country_flag = set_up_own_goals_and_achievements
			}
		}
	}
	
	on_daily = {
		effect = {
			if = {
				limit = {
					is_ai = no
					NOT = { has_country_flag = dh_goals_and_achievements_alert_popup_gui_disabled }
					NOT = { check_variable = { show_dh_goals_and_achievements_gui > 0 } }
					NOT = { has_variable = show_dh_goals_and_achievements_alert_popup_gui }
					check_variable = { dh_goals_and_achievements_array^num > 0 }
					any_of = {
						array = dh_goals_and_achievements_array
						value = v
						set_temp_variable = { goal_or_achievement_id = v }
						meta_trigger = {
							text = {
								NOT = { has_country_flag = received_popup_alert_for_goal_or_achievement_[ID] }
							}
							ID = "[?goal_or_achievement_id]"
						}
						can_complete_goal_or_achievement = yes
					}
				}
				set_variable = { show_dh_goals_and_achievements_alert_popup_gui = 1 }
			}
		}
	}
}