################
#### SOVIET ####
################

SOV_industry_relocation = {
	
	allowed = {
		original_tag = SOV
	}

	available = {
		tag = SOV
	}

	visible = {
		has_war = yes
	}
}

SOV_great_patriotic_war = {
	allowed = {
		original_tag = SOV
	}
	visible = {
		has_war = yes
	}
		
}