ideas = {
#################################################
### Head of Government
#################################################
	Head_of_Government = {
	# Antranig Osanian
		ARM_HoG_Antranig_Osanian = {
			picture = Antranig_Osanian
			allowed = { tag = ARM }
			available = {
				date > 1933.1.1
				date < 1964.1.1
				F_Minister_Allowed = yes
				NOT = { has_country_flag = Antranig_Osanian_unavailable }
			}
			
			
			traits = { ideology_F HoG_Old_General }
		}
	# Hovhannes Kacharznuni
		ARM_HoG_Hovhannes_Kacharznuni = {
			picture = Hovhannes_Kacharznuni
			allowed = { tag = ARM }
			available = {
				date > 1914.1.1
				date < 1933.1.1
				A_Minister_Allowed = yes
				NOT = { has_country_flag = Hovhannes_Kacharznuni_unavailable }
			}
			
			
			traits = { ideology_A HoG_Flamboyant_Tough_Guy }
		}
	# Aleksandr I. Khatisyan
		ARM_HoG_Aleksandr_I_Khatisyan = {
			picture = Aleksandr_I_Khatisyan
			allowed = { tag = ARM }
			available = {
				date > 1919.1.1
				date < 1933.1.1
				A_Minister_Allowed = yes
				NOT = { has_country_flag = Aleksandr_I_Khatisyan_unavailable }
			}
			
			
			traits = { ideology_A HoG_Naive_Optimist }
		}
	# Hamazasp Ohandzhanyan
		ARM_HoG_Hamazasp_Ohandzhanyan = {
			picture = Hamazasp_Ohandzhanyan
			allowed = { tag = ARM }
			available = {
				date > 1920.1.1
				date < 1933.1.1
				A_Minister_Allowed = yes
				NOT = { has_country_flag = Hamazasp_Ohandzhanyan_unavailable }
			}
			
			
			traits = { ideology_A HoG_Silent_Workhorse }
		}
	# Simeon Vratsyan
		ARM_HoG_Simeon_Vratsyan = {
			picture = Simeon_Vratsyan
			allowed = { tag = ARM }
			available = {
				date > 1920.1.1
				date < 1933.1.1
				A_Minister_Allowed = yes
				NOT = { has_country_flag = Simeon_Vratsyan_unavailable }
			}
			
			
			traits = { ideology_A HoG_Backroom_Backstabber }
		}
	# Vazgen Manukyan
		ARM_HoG_Vazgen_Manukyan = {
			picture = Vazgen_Manukyan
			allowed = { tag = ARM }
			available = {
				date > 1990.1.1
				date < 2020.1.1
				D_Minister_Allowed = yes
				NOT = { has_country_flag = Vazgen_Manukyan_unavailable }
			}
			
			
			traits = { ideology_D HoG_Silent_Workhorse }
		}
	# Gagik Harutyunyan
		ARM_HoG_Gagik_Harutyunyan = {
			picture = Gagik_Harutyunyan
			allowed = { tag = ARM }
			available = {
				date > 1991.1.1
				date < 2020.1.1
				D_Minister_Allowed = yes
				NOT = { has_country_flag = Gagik_Harutyunyan_unavailable }
			}
			
			
			traits = { ideology_D HoG_Old_Airmarshal }
		}
	# Sargis Hambardzumian
		ARM_HoG_Sargis_Hambardzumian = {
			picture = Sargis_Hambardzumian
			allowed = { tag = ARM }
			available = {
				date > 1914.1.1
				date < 1933.1.1
				C_Minister_Allowed = yes
				NOT = { has_country_flag = Sargis_Hambardzumian_unavailable }
			}
			
			
			traits = { ideology_C HoG_Flamboyant_Tough_Guy }
		}
	# Badal Muradyan
		ARM_HoG_Badal_Muradyan = {
			picture = Badal_Muradyan
			allowed = { tag = ARM }
			available = {
				date > 1966.1.1
				date < 1973.1.1
				C_Minister_Allowed = yes
				NOT = { has_country_flag = Badal_Muradyan_unavailable }
			}
			
			
			traits = { ideology_C HoG_Ambitious_Union_Boss }
		}
	# Grigory Arzumanyan
		ARM_HoG_Grigory_Arzumanyan = {
			picture = Grigory_Arzumanyan
			allowed = { tag = ARM }
			available = {
				date > 1972.1.1
				date < 1977.1.1
				C_Minister_Allowed = yes
				NOT = { has_country_flag = Grigory_Arzumanyan_unavailable }
			}
			
			
			traits = { ideology_C HoG_Flamboyant_Tough_Guy }
		}
	# Fadey Sargsyan
		ARM_HoG_Fadey_Sargsyan = {
			picture = Fadey_Sargsyan
			allowed = { tag = ARM }
			available = {
				date > 1977.1.1
				date < 2011.1.1
				C_Minister_Allowed = yes
				NOT = { has_country_flag = Fadey_Sargsyan_unavailable }
			}
			
			
			traits = { ideology_C HoG_Flamboyant_Tough_Guy }
		}
	# Vladimir Markaryants
		ARM_HoG_Vladimir_Markaryants = {
			picture = Vladimir_Markaryants
			allowed = { tag = ARM }
			available = {
				date > 1989.1.1
				date < 2020.1.1
				C_Minister_Allowed = yes
				NOT = { has_country_flag = Vladimir_Markaryants_unavailable }
			}
			
			
			traits = { ideology_C HoG_Naive_Optimist }
		}
	# Sargis Hambardzumian
		ARM_HoG_Sargis_Hambardzumian_2 = {
			picture = Sargis_Hambardzumian_2
			allowed = { tag = ARM }
			available = {
				date > 1920.1.1
				date < 1933.1.1
				C_Minister_Allowed = yes
				NOT = { has_country_flag = Sargis_Hambardzumian_unavailable }
			}
			
			
			traits = { ideology_C HoG_Flamboyant_Tough_Guy }
		}
	# Sarkis Kasyan
		ARM_HoG_Sarkis_Kasyan = {
			picture = Sarkis_Kasyan
			allowed = { tag = ARM }
			available = {
				date > 1920.1.1
				date < 1933.1.1
				C_Minister_Allowed = yes
				NOT = { has_country_flag = Sarkis_Kasyan_unavailable }
			}
			
			
			traits = { ideology_C HoG_Silent_Workhorse }
		}
	# Aleksandr Miasnikyan
		ARM_HoG_Aleksandr_Miasnikyan = {
			picture = Aleksandr_Miasnikyan
			allowed = { tag = ARM }
			available = {
				date > 1921.1.1
				date < 1933.1.1
				C_Minister_Allowed = yes
				NOT = { has_country_flag = Aleksandr_Miasnikyan_unavailable }
			}
			
			
			traits = { ideology_C HoG_Flamboyant_Tough_Guy }
		}
	# Sarkis Ambartsumyan
		ARM_HoG_Sarkis_Ambartsumyan = {
			picture = Sarkis_Ambartsumyan
			allowed = { tag = ARM }
			available = {
				date > 1922.1.1
				date < 1933.1.1
				C_Minister_Allowed = yes
				NOT = { has_country_flag = Sarkis_Ambartsumyan_unavailable }
			}
			
			
			traits = { ideology_C HoG_Corporate_Suit }
		}
	# Abram Guloyan
		ARM_HoG_Abram_Guloyan = {
			picture = Abram_Guloyan
			allowed = { tag = ARM }
			available = {
				date > 1936.1.1
				date < 1964.1.1
				C_Minister_Allowed = yes
				NOT = { has_country_flag = Abram_Guloyan_unavailable }
			}
			
			
			traits = { ideology_C HoG_Flamboyant_Tough_Guy }
		}
	# Aram Piruzyan
		ARM_HoG_Aram_Piruzyan = {
			picture = Aram_Piruzyan
			allowed = { tag = ARM }
			available = {
				date > 1937.1.1
				date < 1964.1.1
				C_Minister_Allowed = yes
				NOT = { has_country_flag = Aram_Piruzyan_unavailable }
			}
			
			
			traits = { ideology_C HoG_Happy_Amateur }
		}
	# Agasi Sarkisyan
		ARM_HoG_Agasi_Sarkisyan = {
			picture = Agasi_Sarkisyan
			allowed = { tag = ARM }
			available = {
				date > 1943.1.1
				date < 1964.1.1
				C_Minister_Allowed = yes
				NOT = { has_country_flag = Agasi_Sarkisyan_unavailable }
			}
			
			
			traits = { ideology_C HoG_Naive_Optimist }
		}
	# Saak Karapetyan
		ARM_HoG_Saak_Karapetyan = {
			picture = Saak_Karapetyan
			allowed = { tag = ARM }
			available = {
				date > 1947.1.1
				date < 1964.1.1
				C_Minister_Allowed = yes
				NOT = { has_country_flag = Saak_Karapetyan_unavailable }
			}
			
			
			traits = { ideology_C HoG_Political_Protege }
		}
	# Anton Kochinyan
		ARM_HoG_Anton_Kochinyan = {
			picture = Anton_Kochinyan
			allowed = { tag = ARM }
			available = {
				date > 1952.1.1
				date < 1964.1.1
				C_Minister_Allowed = yes
				NOT = { has_country_flag = Anton_Kochinyan_unavailable }
			}
			
			
			traits = { ideology_C HoG_Smiling_Oilman }
		}
}
#################################################
### Foreign Minister
#################################################
	Foreign_Minister = {
	# Father Romanos
		ARM_FM_Father_Romanos = {
			picture = Father_Romanos
			allowed = { tag = ARM }
			available = {
				date > 1933.1.1
				date < 1964.1.1
				F_Minister_Allowed = yes
				NOT = { has_country_flag = Father_Romanos_unavailable }
			}
			
			
			traits = { ideology_F FM_Iron_Fisted_Brute }
		}
	# Boghas Nubar Pasha
		ARM_FM_Boghas_Nubar_Pasha = {
			picture = Boghas_Nubar_Pasha
			allowed = { tag = ARM }
			available = {
				date > 1933.1.1
				date < 1964.1.1
				F_Minister_Allowed = yes
				NOT = { has_country_flag = Boghas_Nubar_Pasha_unavailable }
			}
			
			
			traits = { ideology_F FM_Ideological_Crusader }
		}
	# Jivan Hamparsumian
		ARM_FM_Jivan_Hamparsumian = {
			picture = Jivan_Hamparsumian
			allowed = { tag = ARM }
			available = {
				date > 1933.1.1
				date < 1964.1.1
				F_Minister_Allowed = yes
				NOT = { has_country_flag = Jivan_Hamparsumian_unavailable }
			}
			
			
			traits = { ideology_F FM_The_Cloak_N_Dagger_Schemer }
		}
	# Yeghishe Ishkhanian
		ARM_FM_Yeghishe_Ishkhanian = {
			picture = Yeghishe_Ishkhanian
			allowed = { tag = ARM }
			available = {
				date > 1914.1.1
				date < 1933.1.1
				A_Minister_Allowed = yes
				NOT = { has_country_flag = Yeghishe_Ishkhanian_unavailable }
			}
			
			
			traits = { ideology_A FM_Great_Compromiser }
		}
	# Berch Keresteciyan
		ARM_FM_Berch_Keresteciyan = {
			picture = Berch_Keresteciyan
			allowed = { tag = ARM }
			available = {
				date > 1933.1.1
				date < 1964.1.1
				A_Minister_Allowed = yes
				NOT = { has_country_flag = Berch_Keresteciyan_unavailable }
			}
			
			
			traits = { ideology_A FM_Great_Compromiser }
		}
	# Armen Sargsyan
		ARM_FM_Armen_Sargsyan = {
			picture = Armen_Sargsyan
			allowed = { tag = ARM }
			available = {
				date > 1980.1.1
				date < 2013.1.1
				D_Minister_Allowed = yes
				NOT = { has_country_flag = Armen_Sargsyan_unavailable }
			}
			
			
			traits = { ideology_D FM_Great_Compromiser }
		}
}
#################################################
### Minister of Security
#################################################
	Minister_of_Security = {
	# Garegin Nzdek
		ARM_MoS_Garegin_Nzdek = {
			picture = Garegin_Nzdek
			allowed = { tag = ARM }
			available = {
				date > 1933.1.1
				date < 1964.1.1
				F_Minister_Allowed = yes
				NOT = { has_country_flag = Garegin_Nzdek_unavailable }
			}
			
			
			traits = { ideology_F MoS_Efficient_Sociopath }
		}
	# Father Hovhannes
		ARM_MoS_Father_Hovhannes = {
			picture = Father_Hovhannes
			allowed = { tag = ARM }
			available = {
				date > 1933.1.1
				date < 1964.1.1
				F_Minister_Allowed = yes
				NOT = { has_country_flag = Father_Hovhannes_unavailable }
			}
			
			
			traits = { ideology_F MoS_Crime_Fighter }
		}
	# Karek Pastermadjan
		ARM_MoS_Karek_Pastermadjan = {
			picture = Karek_Pastermadjan
			allowed = { tag = ARM }
			available = {
				date > 1933.1.1
				date < 1964.1.1
				F_Minister_Allowed = yes
				NOT = { has_country_flag = Karek_Pastermadjan_unavailable }
			}
			
			
			traits = { ideology_F MoS_Prince_Of_Terror }
		}
	# Aram Andonian
		ARM_MoS_Aram_Andonian = {
			picture = Aram_Andonian
			allowed = { tag = ARM }
			available = {
				date > 1933.1.1
				date < 1964.1.1
				F_Minister_Allowed = yes
				NOT = { has_country_flag = Aram_Andonian_unavailable }
			}
			
			
			traits = { ideology_F MoS_Compassionate_Gentleman }
		}
	# Aleksandr I. Khatisyan
		ARM_MoS_Aleksandr_I_Khatisyan = {
			picture = Aleksandr_I_Khatisyan
			allowed = { tag = ARM }
			available = {
				date > 1914.1.1
				date < 1933.1.1
				A_Minister_Allowed = yes
				NOT = { has_country_flag = Aleksandr_I_Khatisyan_unavailable }
			}
			
			
			traits = { ideology_A MoS_Man_Of_The_People }
		}
	# Abraham Gulkhandanian
		ARM_MoS_Abraham_Gulkhandanian = {
			picture = Abraham_Gulkhandanian
			allowed = { tag = ARM }
			available = {
				date > 1919.1.1
				date < 1933.1.1
				A_Minister_Allowed = yes
				NOT = { has_country_flag = Abraham_Gulkhandanian_unavailable }
			}
			
			
			traits = { ideology_A MoS_Silent_Lawyer }
		}
	# Ruben Ter-Minasian
		ARM_MoS_Ruben_TerMinasian = {
			picture = Ruben_TerMinasian
			allowed = { tag = ARM }
			available = {
				date > 1920.1.1
				date < 1933.1.1
				A_Minister_Allowed = yes
				NOT = { has_country_flag = Ruben_TerMinasian_unavailable }
			}
			
			
			traits = { ideology_A MoS_Crime_Fighter }
		}
	# Sargis Araratian
		ARM_MoS_Sargis_Araratian = {
			picture = Sargis_Araratian
			allowed = { tag = ARM }
			available = {
				date > 1920.1.1
				date < 1933.1.1
				A_Minister_Allowed = yes
				NOT = { has_country_flag = Sargis_Araratian_unavailable }
			}
			
			
			traits = { ideology_A MoS_Crime_Fighter }
		}
	# Simeon Vratsyan
		ARM_MoS_Simeon_Vratsyan = {
			picture = Simeon_Vratsyan
			allowed = { tag = ARM }
			available = {
				date > 1920.1.1
				date < 1933.1.1
				A_Minister_Allowed = yes
				NOT = { has_country_flag = Simeon_Vratsyan_unavailable }
			}
			
			
			traits = { ideology_A MoS_Back_Stabber }
		}
	# Patriarch Lalazar
		ARM_MoS_Patriarch_Lalazar = {
			picture = Patriarch_Lalazar
			allowed = { tag = ARM }
			available = {
				date > 1933.1.1
				date < 1964.1.1
				A_Minister_Allowed = yes
				NOT = { has_country_flag = Patriarch_Lalazar_unavailable }
			}
			
			
			traits = { ideology_A MoS_Man_Of_The_People }
		}
	# Serzh Sargsyan
		ARM_MoS_Serzh_Sargsyan = {
			picture = Serzh_Sargsyan
			allowed = { tag = ARM }
			available = {
				date > 1980.1.1
				date < 2013.1.1
				D_Minister_Allowed = yes
				NOT = { has_country_flag = Serzh_Sargsyan_unavailable }
			}
			
			
			traits = { ideology_D MoS_Crime_Fighter }
		}
}
#################################################
### Armaments Minister
#################################################
	Armaments_Minister = {
	# Arshag K. Schmavonian
		ARM_AM_Arshag_K_Schmavonian = {
			picture = Arshag_K_Schmavonian
			allowed = { tag = ARM }
			available = {
				date > 1933.1.1
				date < 1964.1.1
				F_Minister_Allowed = yes
				NOT = { has_country_flag = Arshag_K_Schmavonian_unavailable }
			}
			
			
			traits = { ideology_F AM_Resource_Industrialist }
		}
	# Hagop Andonian
		ARM_AM_Hagop_Andonian = {
			picture = Hagop_Andonian
			allowed = { tag = ARM }
			available = {
				date > 1933.1.1
				date < 1964.1.1
				F_Minister_Allowed = yes
				NOT = { has_country_flag = Hagop_Andonian_unavailable }
			}
			
			
			traits = { ideology_F AM_Military_Entrepreneur }
		}
	# Dikran Arafian
		ARM_AM_Dikran_Arafian = {
			picture = Dikran_Arafian
			allowed = { tag = ARM }
			available = {
				date > 1933.1.1
				date < 1964.1.1
				F_Minister_Allowed = yes
				NOT = { has_country_flag = Dikran_Arafian_unavailable }
			}
			
			
			traits = { ideology_F AM_Laissez-faire_Capitalist }
		}
	# General Nazarpekian
		ARM_AM_General_Nazarpekian = {
			picture = General_Nazarpekian
			allowed = { tag = ARM }
			available = {
				date > 1914.1.1
				date < 1933.1.1
				A_Minister_Allowed = yes
				NOT = { has_country_flag = General_Nazarpekian_unavailable }
			}
			
			
			traits = { ideology_A AM_Infantry_Proponent }
		}
	# Berch Keresteciyan
		ARM_AM_Berch_Keresteciyan = {
			picture = Berch_Keresteciyan
			allowed = { tag = ARM }
			available = {
				date > 1933.1.1
				date < 1964.1.1
				A_Minister_Allowed = yes
				NOT = { has_country_flag = Berch_Keresteciyan_unavailable }
			}
			
			
			traits = { ideology_A AM_Administrative_Genius }
		}
	# Vazgen Sargsyan
		ARM_AM_Vazgen_Sargsyan = {
			picture = Vazgen_Sargsyan
			allowed = { tag = ARM }
			available = {
				date > 1980.1.1
				date < 2013.1.1
				D_Minister_Allowed = yes
				NOT = { has_country_flag = Vazgen_Sargsyan_unavailable }
			}
			
			
			traits = { ideology_D AM_Military_Entrepreneur }
		}
}
#################################################
### Head of Intelligence
#################################################
	Head_of_Intelligence = {
	# Khint Osebian
		ARM_HoI_Khint_Osebian = {
			picture = Khint_Osebian
			allowed = { tag = ARM }
			available = {
				date > 1933.1.1
				date < 1964.1.1
				F_Minister_Allowed = yes
				NOT = { has_country_flag = Khint_Osebian_unavailable }
			}
			
			
			traits = { ideology_F HoI_Industrial_Specialist }
		}
	# Father Christapor
		ARM_HoI_Father_Christapor = {
			picture = Father_Christapor
			allowed = { tag = ARM }
			available = {
				date > 1933.1.1
				date < 1964.1.1
				F_Minister_Allowed = yes
				NOT = { has_country_flag = Father_Christapor_unavailable }
			}
			
			
			traits = { ideology_F HoI_Logistics_Specialist }
		}
	# General Siligian
		ARM_HoI_General_Siligian = {
			picture = General_Siligian
			allowed = { tag = ARM }
			available = {
				date > 1914.1.1
				date < 1933.1.1
				A_Minister_Allowed = yes
				NOT = { has_country_flag = General_Siligian_unavailable }
			}
			
			
			traits = { ideology_A HoI_Logistics_Specialist }
		}
	# Jack Agazarian
		ARM_HoI_Jack_Agazarian = {
			picture = Jack_Agazarian
			allowed = { tag = ARM }
			available = {
				date > 1933.1.1
				date < 1964.1.1
				A_Minister_Allowed = yes
				NOT = { has_country_flag = Jack_Agazarian_unavailable }
			}
			
			
			traits = { ideology_A HoI_Dismal_Enigma }
		}
	# Vartan Sharents
		ARM_HoI_Vartan_Sharents = {
			picture = Vartan_Sharents
			allowed = { tag = ARM }
			available = {
				date > 1933.1.1
				date < 1964.1.1
				A_Minister_Allowed = yes
				NOT = { has_country_flag = Vartan_Sharents_unavailable }
			}
			
			
			traits = { ideology_A HoI_Technical_Specialist }
		}
	# Vazgen Sargsyan
		ARM_HoI_Vazgen_Sargsyan = {
			picture = Vazgen_Sargsyan
			allowed = { tag = ARM }
			available = {
				date > 1980.1.1
				date < 2013.1.1
				D_Minister_Allowed = yes
				NOT = { has_country_flag = Vazgen_Sargsyan_unavailable }
			}
			
			
			traits = { ideology_D HoI_Logistics_Specialist }
		}
}
#################################################
### Chief of Staff
#################################################
	Chief_of_Staff = {
	# Paul Hoffmann
		ARM_CoStaff_Paul_Hoffmann = {
			picture = Paul_Hoffmann
			allowed = { tag = ARM }
			available = {
				date > 1933.1.1
				date < 1964.1.1
				F_Minister_Allowed = yes
				NOT = { has_country_flag = Paul_Hoffmann_unavailable }
			}
			
			
			traits = { ideology_F CoStaff_School_Of_Mass_Combat }
		}
	# Aram Manougian
		ARM_CoStaff_Aram_Manougian = {
			picture = Aram_Manougian
			allowed = { tag = ARM }
			available = {
				date > 1914.1.1
				date < 1933.1.1
				A_Minister_Allowed = yes
				NOT = { has_country_flag = Aram_Manougian_unavailable }
			}
			
			
			traits = { ideology_A CoStaff_School_Of_Defence }
		}
	# Arkady Ter-Tadevosyan
		ARM_CoStaff_Arkady_TerTadevosyan = {
			picture = Arkady_TerTadevosyan
			allowed = { tag = ARM }
			available = {
				date > 1980.1.1
				date < 2013.1.1
				D_Minister_Allowed = yes
				NOT = { has_country_flag = Arkady_TerTadevosyan_unavailable }
			}
			
			
			traits = { ideology_D CoStaff_School_Of_Psychology }
		}
}
#################################################
### Chief of Army
#################################################
	Chief_of_Army = {
	# Drastamat Kanyan
		ARM_CoArmy_Drastamat_Kanyan = {
			picture = Drastamat_Kanyan
			allowed = { tag = ARM }
			available = {
				date > 1933.1.1
				date < 1964.1.1
				F_Minister_Allowed = yes
				NOT = { has_country_flag = Drastamat_Kanyan_unavailable }
			}
			
			
			traits = { ideology_F CoArmy_Elastic_Defence_Doctrine }
		}
	# Antranig Osanian
		ARM_CoArmy_Antranig_Osanian = {
			picture = Antranig_Osanian
			allowed = { tag = ARM }
			available = {
				date > 1933.1.1
				date < 1964.1.1
				F_Minister_Allowed = yes
				NOT = { has_country_flag = Antranig_Osanian_unavailable }
			}
			
			
			traits = { ideology_F CoArmy_Guns_And_Butter_Doctrine }
		}
	# Misak Babajanian
		ARM_CoArmy_Misak_Babajanian = {
			picture = Misak_Babajanian
			allowed = { tag = ARM }
			available = {
				date > 1933.1.1
				date < 1964.1.1
				F_Minister_Allowed = yes
				NOT = { has_country_flag = Misak_Babajanian_unavailable }
			}
			
			
			traits = { ideology_F CoArmy_Armoured_Spearhead_Doctrine }
		}
	# Aram Manougian
		ARM_CoArmy_Aram_Manougian = {
			picture = Aram_Manougian
			allowed = { tag = ARM }
			available = {
				date > 1914.1.1
				date < 1933.1.1
				A_Minister_Allowed = yes
				NOT = { has_country_flag = Aram_Manougian_unavailable }
			}
			
			
			traits = { ideology_A CoArmy_Static_Defence_Doctrine }
		}
	# Arkady Ter-Tadevosyan
		ARM_CoArmy_Arkady_TerTadevosyan = {
			picture = Arkady_TerTadevosyan
			allowed = { tag = ARM }
			available = {
				date > 1980.1.1
				date < 2013.1.1
				D_Minister_Allowed = yes
				NOT = { has_country_flag = Arkady_TerTadevosyan_unavailable }
			}
			
			
			traits = { ideology_D CoArmy_Guns_And_Butter_Doctrine }
		}
}
#################################################
### Chief of Navy
#################################################
	Chief_of_Navy = {
	# Wilhelm Betche
		ARM_CoNavy_Wilhelm_Betche = {
			picture = Wilhelm_Betche
			allowed = { tag = ARM }
			available = {
				date > 1933.1.1
				date < 1964.1.1
				F_Minister_Allowed = yes
				NOT = { has_country_flag = Wilhelm_Betche_unavailable }
			}
			
			
			traits = { ideology_F CoNavy_Indirect_Approach_Doctrine }
		}
	# Berj Isahakian
		ARM_CoNavy_Berj_Isahakian = {
			picture = Berj_Isahakian
			allowed = { tag = ARM }
			available = {
				date > 1933.1.1
				date < 1964.1.1
				F_Minister_Allowed = yes
				NOT = { has_country_flag = Berj_Isahakian_unavailable }
			}
			
			
			traits = { ideology_F CoNavy_Decisive_Naval_Battle_Doctrine }
		}
	# Arkady Ter-Tadevosyan
		ARM_CoNavy_Arkady_TerTadevosyan = {
			picture = Arkady_TerTadevosyan
			allowed = { tag = ARM }
			available = {
				date > 1980.1.1
				date < 2013.1.1
				D_Minister_Allowed = yes
				NOT = { has_country_flag = Arkady_TerTadevosyan_unavailable }
			}
			
			
			traits = { ideology_D CoNavy_Indirect_Approach_Doctrine }
		}
}
#################################################
### Chief of Airforce
#################################################
	Chief_of_Airforce = {
	# Hans Klein
		ARM_CoAir_Hans_Klein = {
			picture = Hans_Klein
			allowed = { tag = ARM }
			available = {
				date > 1933.1.1
				date < 1964.1.1
				F_Minister_Allowed = yes
				NOT = { has_country_flag = Hans_Klein_unavailable }
			}
			
			
			traits = { ideology_F CoAir_Army_Aviation_Doctrine }
		}
	# Sarkis Petrikian
		ARM_CoAir_Sarkis_Petrikian = {
			picture = Sarkis_Petrikian
			allowed = { tag = ARM }
			available = {
				date > 1933.1.1
				date < 1964.1.1
				F_Minister_Allowed = yes
				NOT = { has_country_flag = Sarkis_Petrikian_unavailable }
			}
			
			
			traits = { ideology_F CoAir_Air_Superiority_Doctrine }
		}
	# Garabed Arafian
		ARM_CoAir_Garabed_Arafian = {
			picture = Garabed_Arafian
			allowed = { tag = ARM }
			available = {
				date > 1933.1.1
				date < 1964.1.1
				A_Minister_Allowed = yes
				NOT = { has_country_flag = Garabed_Arafian_unavailable }
			}
			
			
			traits = { ideology_A CoAir_Vertical_Envelopment_Doctrine }
		}
	# Arkady Ter-Tadevosyan
		ARM_CoAir_Arkady_TerTadevosyan = {
			picture = Arkady_TerTadevosyan
			allowed = { tag = ARM }
			available = {
				date > 1980.1.1
				date < 2013.1.1
				D_Minister_Allowed = yes
				NOT = { has_country_flag = Arkady_TerTadevosyan_unavailable }
			}
			
			
			traits = { ideology_D CoAir_Army_Aviation_Doctrine }
		}
	}
}
