ideas = {
#################################################
### Head of Government
#################################################
	Head_of_Government = {
	# Antônio Carlos Ribeiro de Andrada
		BRA_HoG_Antonio_Carlos_Ribeiro_de_Andrada = {
			picture = Antonio_Carlos_Ribeiro_de_Andrada
			allowed = { tag = BRA }
			available = {
				date > 1917.1.1
				date < 1940.1.1
				A_Minister_Allowed = yes
				NOT = { has_country_flag = Antonio_Carlos_Ribeiro_de_Andrada_unavailable }
			}
			
			
			traits = { ideology_A AM_Military_Entrepreneur POSITION_President_Chamber_Deputies }
		}
	#Troika
		BRA_HoG_Troika = {
			picture = Troika
			allowed = { tag = BRA }
			available = {
				date > 1917.1.1
				date < 1940.1.1
				A_Minister_Allowed = yes
				NOT = { has_country_flag = Troika_unavailable }
			}
			
			
			traits = { ideology_A }
		}
	# Plinio Salgado
		BRA_HoG_Plinio_Salgado = {
			picture = Plinio_Salgado
			allowed = { tag = BRA }
			available = {
				date > 1933.1.1
				date < 1964.1.1
				F_Minister_Allowed = yes
				NOT = { has_country_flag = Plinio_Salgado_unavailable }
			}
			
			
			traits = { ideology_F HoG_Backroom_Backstabber }
		}
	# Getulio Vargas
		BRA_HoG_Getulio_Vargas = {
			picture = Getulio_Vargas
			allowed = { tag = BRA }
			available = {
				date > 1933.1.1
				date < 1964.1.1
				A_Minister_Allowed = yes
				NOT = { has_country_flag = Getulio_Vargas_unavailable }
			}
			
			
			traits = { ideology_A HoG_Naive_Optimist }
		}
	# Eurico Gaspar Dutra
		BRA_HoG_Eurico_Gaspar_Dutra = {
			picture = Eurico_Gaspar_Dutra
			allowed = { tag = BRA }
			available = {
				date > 1945.1.1
				date < 1964.1.1
				A_Minister_Allowed = yes
				NOT = { has_country_flag = Eurico_Gaspar_Dutra_unavailable }
			}
			
			
			traits = { ideology_A HoG_Old_General }
		}
	# José Maria Alkmin
		BRA_HoG_Jose_Maria_Alkmin = {
			picture = Jose_Maria_Alkmin
			allowed = { tag = BRA }
			available = {
				date > 1964.1.1
				date < 1975.1.1
				A_Minister_Allowed = yes
				NOT = { has_country_flag = Jose_Maria_Alkmin_unavailable }
			}
			
			
			traits = { ideology_A HoG_Political_Protege }
		}
	# Pedro Aleixo
		BRA_HoG_Pedro_Aleixo = {
			picture = Pedro_Aleixo
			allowed = { tag = BRA }
			available = {
				date > 1967.1.1
				date < 1976.1.1
				A_Minister_Allowed = yes
				NOT = { has_country_flag = Pedro_Aleixo_unavailable }
			}
			
			
			traits = { ideology_A HoG_Old_General }
		}
	# Augusto Rademaker
		BRA_HoG_Augusto_Rademaker = {
			picture = Augusto_Rademaker
			allowed = { tag = BRA }
			available = {
				date > 1969.1.1
				date < 1986.1.1
				A_Minister_Allowed = yes
				NOT = { has_country_flag = Augusto_Rademaker_unavailable }
			}
			
			
			traits = { ideology_A HoG_Smiling_Oilman }
		}
	# Adalberto Pereira dos Santos
		BRA_HoG_Adalberto_Pereira_dos_Santos = {
			picture = Adalberto_Pereira_dos_Santos
			allowed = { tag = BRA }
			available = {
				date > 1974.1.1
				date < 1985.1.1
				A_Minister_Allowed = yes
				NOT = { has_country_flag = Adalberto_Pereira_dos_Santos_unavailable }
			}
			
			
			traits = { ideology_A HoG_Backroom_Backstabber }
		}
	# Aureliano Chaves
		BRA_HoG_Aureliano_Chaves = {
			picture = Aureliano_Chaves
			allowed = { tag = BRA }
			available = {
				date > 1979.1.1
				date < 2004.1.1
				A_Minister_Allowed = yes
				NOT = { has_country_flag = Aureliano_Chaves_unavailable }
			}
			
			
			traits = { ideology_A HoG_Political_Protege }
		}
	# João Figueiredo
		BRA_HoG_Joao_Figueiredo = {
			picture = Joao_Figueiredo
			allowed = { tag = BRA }
			available = {
				date > 1980.1.1
				date < 2000.1.1
				A_Minister_Allowed = yes
				NOT = { has_country_flag = Joao_Figueiredo_unavailable }
			}
			
			
			traits = { ideology_A HoG_Naive_Optimist }
		}
	# José Sarney
		BRA_HoG_Jose_Sarney_2 = {
			picture = Jose_Sarney_2
			allowed = { tag = BRA }
			available = {
				date > 1985.1.1
				date < 2020.1.1
				A_Minister_Allowed = yes
				NOT = { has_country_flag = Jose_Sarney_unavailable }
			}
			
			
			traits = { ideology_A HoG_Corporate_Suit }
		}
	# Nilo Procópio Peçanha
		BRA_HoG_Nilo_Procopio_Pecanha = {
			picture = Nilo_Procopio_Pecanha
			allowed = { tag = BRA }
			available = {
				date > 1906.1.1
				date < 1910.1.1
				D_Minister_Allowed = yes
				NOT = { has_country_flag = Nilo_Procopio_Pecanha_unavailable }
			}
			
			
			traits = { ideology_D HoG_Flamboyant_Tough_Guy }
		}
	# Venceslau Brás Pereira Gomes
		BRA_HoG_Venceslau_Bras_Pereira_Gomes = {
			picture = Venceslau_Bras_Pereira_Gomes
			allowed = { tag = BRA }
			available = {
				date > 1910.1.1
				date < 1914.1.1
				D_Minister_Allowed = yes
				NOT = { has_country_flag = Venceslau_Bras_Pereira_Gomes_unavailable }
			}
			
			
			traits = { ideology_D HoG_Ambitious_Union_Boss }
		}
	# Urbano Santos da Costa Araújo
		BRA_HoG_Urbano_Santos_da_Costa_Araujo = {
			picture = Urbano_Santos_da_Costa_Araujo
			allowed = { tag = BRA }
			available = {
				date > 1914.1.1
				date < 1918.1.1
				D_Minister_Allowed = yes
				NOT = { has_country_flag = Urbano_Santos_da_Costa_Araujo_unavailable }
			}
			
			
			traits = { ideology_D HoG_Backroom_Backstabber }
		}
	# Delfim Moreira da Costa Ribeiro
		BRA_HoG_Delfim_Moreira_da_Costa_Ribeiro = {
			picture = Delfim_Moreira_da_Costa_Ribeiro
			allowed = { tag = BRA }
			available = {
				date > 1918.1.1
				date < 1920.1.1
				D_Minister_Allowed = yes
				NOT = { has_country_flag = Delfim_Moreira_da_Costa_Ribeiro_unavailable }
			}
			
			
			traits = { ideology_D HoG_Naive_Optimist }
		}
	# Francisco Álvaro Bueno de Paiva
		BRA_HoG_Francisco_Alvaro_Bueno_de_Paiva = {
			picture = Francisco_Alvaro_Bueno_de_Paiva
			allowed = { tag = BRA }
			available = {
				date > 1920.1.1
				date < 1922.1.1
				D_Minister_Allowed = yes
				NOT = { has_country_flag = Francisco_Alvaro_Bueno_de_Paiva_unavailable }
			}
			
			
			traits = { ideology_D HoG_Smiling_Oilman }
		}
	# Estácio de Albuquerque Coimbra
		BRA_HoG_Estacio_de_Albuquerque_Coimbra = {
			picture = Estacio_de_Albuquerque_Coimbra
			allowed = { tag = BRA }
			available = {
				date > 1922.1.1
				date < 1926.1.1
				D_Minister_Allowed = yes
				NOT = { has_country_flag = Estacio_de_Albuquerque_Coimbra_unavailable }
			}
			
			
			traits = { ideology_D HoG_Political_Protege }
		}
	# Washington Luis Pereira
		BRA_HoG_Washington_Luis_Pereira = {
			picture = Washington_Luis_Pereira
			allowed = { tag = BRA }
			available = {
				date > 1943.1.1
				date < 1964.1.1
				D_Minister_Allowed = yes
				NOT = { has_country_flag = Washington_Luis_Pereira_unavailable }
			}
			
			
			traits = { ideology_D HoG_Naive_Optimist }
		}
	# Nereu de Oliveira Ramos
		BRA_HoG_Nereu_de_Oliveira_Ramos = {
			picture = Nereu_de_Oliveira_Ramos
			allowed = { tag = BRA }
			available = {
				date > 1946.1.1
				date < 1964.1.1
				D_Minister_Allowed = yes
				NOT = { has_country_flag = Nereu_de_Oliveira_Ramos_unavailable }
			}
			
			
			traits = { ideology_D HoG_Silent_Workhorse }
		}
	# Joao Café Filho
		BRA_HoG_Joao_Cafe_Filho = {
			picture = Joao_Cafe_Filho
			allowed = { tag = BRA }
			available = {
				date > 1951.1.1
				date < 1964.1.1
				D_Minister_Allowed = yes
				NOT = { has_country_flag = Joao_Cafe_Filho_unavailable }
			}
			
			
			traits = { ideology_D HoG_Silent_Workhorse }
		}
	# Adhemar de Barros
		BRA_HoG_Adhemar_de_Barros = {
			picture = Adhemar_de_Barros
			allowed = { tag = BRA }
			available = {
				date > 1956.1.1
				date < 1970.1.1
				D_Minister_Allowed = yes
				NOT = { has_country_flag = Adhemar_de_Barros_unavailable }
			}
			
			
			traits = { ideology_D HoG_Ambitious_Union_Boss }
		}
	# Milton Campos
		BRA_HoG_Milton_Campos = {
			picture = Milton_Campos
			allowed = { tag = BRA }
			available = {
				date > 1961.1.1
				date < 1964.1.1
				D_Minister_Allowed = yes
				NOT = { has_country_flag = Milton_Campos_unavailable }
			}
			
			
			traits = { ideology_D HoG_Backroom_Backstabber }
		}
	# José Sarney
		BRA_HoG_Jose_Sarney = {
			picture = Jose_Sarney
			allowed = { tag = BRA }
			available = {
				date > 1985.1.1
				date < 2020.1.1
				D_Minister_Allowed = yes
				NOT = { has_country_flag = Jose_Sarney_unavailable }
			}
			
			
			traits = { ideology_D HoG_Naive_Optimist }
		}
	# Paulo Maluf
		BRA_HoG_Paulo_Maluf = {
			picture = Paulo_Maluf
			allowed = { tag = BRA }
			available = {
				date > 1985.1.1
				date < 2000.1.1
				D_Minister_Allowed = yes
				NOT = { has_country_flag = Paulo_Maluf_unavailable }
			}
			
			
			traits = { ideology_D HoG_Naive_Optimist }
		}
	# Itamar Franco
		BRA_HoG_Itamar_Franco = {
			picture = Itamar_Franco
			allowed = { tag = BRA }
			available = {
				date > 1990.1.1
				date < 2012.1.1
				D_Minister_Allowed = yes
				NOT = { has_country_flag = Itamar_Franco_unavailable }
			}
			
			
			traits = { ideology_D HoG_Old_Admiral }
		}
	# Eduardo Gomes
		BRA_HoG_Eduardo_Gomes = {
			picture = Eduardo_Gomes
			allowed = { tag = BRA }
			available = {
				date > 1937.1.1
				date < 1964.1.1
				D_Minister_Allowed = yes
				NOT = { has_country_flag = Eduardo_Gomes_unavailable }
			}
			
			
			traits = { ideology_D HoG_Flamboyant_Tough_Guy }
		}
	# José Paulo Bisol
		BRA_HoG_Jose_Paulo_Bisol = {
			picture = Jose_Paulo_Bisol
			allowed = { tag = BRA }
			available = {
				date > 1990.1.1
				date < 2020.1.1
				D_Minister_Allowed = yes
				NOT = { has_country_flag = Jose_Paulo_Bisol_unavailable }
			}
			
			
			traits = { ideology_D HoG_Political_Protege }
		}
	# Nero Fiuza de Castro
		BRA_HoG_Nero_Fiuza_de_Castro = {
			picture = Nero_Fiuza_de_Castro
			allowed = { tag = BRA }
			available = {
				date > 1945.1.1
				date < 1964.1.1
				D_Minister_Allowed = yes
				NOT = { has_country_flag = Nero_Fiuza_de_Castro_unavailable }
			}
			
			
			traits = { ideology_D HoG_Naive_Optimist }
		}
	# Afranio de Mello Franco
		BRA_HoG_Afranio_de_Mello_Franco = {
			picture = Afranio_de_Mello_Franco
			allowed = { tag = BRA }
			available = {
				date > 1951.1.1
				date < 1964.1.1
				D_Minister_Allowed = yes
				NOT = { has_country_flag = Afranio_de_Mello_Franco_unavailable }
			}
			
			
			traits = { ideology_D HoG_Naive_Optimist }
		}
	# Joao Goulart
		BRA_HoG_Joao_Goulart = {
			picture = Joao_Goulart
			allowed = { tag = BRA }
			available = {
				date > 1956.1.1
				date < 1977.1.1
				D_Minister_Allowed = yes
				NOT = { has_country_flag = Joao_Goulart_unavailable }
			}
			
			
			traits = { ideology_D HoG_Corporate_Suit }
		}
	# Flavio Portela Marcilio
		BRA_HoG_Flavio_Portela_Marcilio = {
			picture = Flavio_Portela_Marcilio
			allowed = { tag = BRA }
			available = {
				date > 1985.1.1
				date < 1993.1.1
				D_Minister_Allowed = yes
				NOT = { has_country_flag = Flavio_Portela_Marcilio_unavailable }
			}
			
			
			traits = { ideology_D HoG_Backroom_Backstabber }
		}
	# Silvério Fontes
		BRA_HoG_Silverio_Fontes = {
			picture = Silverio_Fontes
			allowed = { tag = BRA }
			available = {
				date > 1902.1.1
				date < 1914.1.1
				S_Minister_Allowed = yes
				NOT = { has_country_flag = Silverio_Fontes_unavailable }
			}
			
			
			traits = { ideology_S HoG_Ambitious_Union_Boss }
		}
	# Astrojildo Pereira
		BRA_HoG_Astrojildo_Pereira = {
			picture = Astrojildo_Pereira
			allowed = { tag = BRA }
			available = {
				date > 1914.1.1
				date < 1932.1.1
				S_Minister_Allowed = yes
				NOT = { has_country_flag = Astrojildo_Pereira_unavailable }
			}
			
			
			traits = { ideology_S HoG_Silent_Workhorse }
		}
	# Abílio de Nequete
		BRA_HoG_Abilio_de_Nequete = {
			picture = Abilio_de_Nequete
			allowed = { tag = BRA }
			available = {
				date > 1918.1.1
				date < 1932.1.1
				S_Minister_Allowed = yes
				NOT = { has_country_flag = Abilio_de_Nequete_unavailable }
			}
			
			
			traits = { ideology_S HoG_Naive_Optimist }
		}
	# Getulio Vargas
		BRA_HoG_Getulio_Vargas_2 = {
			picture = Getulio_Vargas_2
			allowed = { tag = BRA }
			available = {
				date > 1933.1.1
				date < 1954.1.1
				S_Minister_Allowed = yes
				NOT = { has_country_flag = Getulio_Vargas_unavailable }
			}
			
			
			traits = { ideology_S HoG_Naive_Optimist }
		}
	# Luis Carlos Prestes
		BRA_HoG_Luis_Carlos_Prestes = {
			picture = Luis_Carlos_Prestes
			allowed = { tag = BRA }
			available = {
				date > 1933.1.1
				date < 1964.1.1
				C_Minister_Allowed = yes
				NOT = { has_country_flag = Luis_Carlos_Prestes_unavailable }
			}
			
			
			traits = { ideology_C HoG_Smiling_Oilman }
		}
}
#################################################
### Foreign Minister
#################################################
	Foreign_Minister = {
	# Miguel Costas
		BRA_FM_Miguel_Costas = {
			picture = Miguel_Costas
			allowed = { tag = BRA }
			available = {
				date > 1937.1.1
				date < 1964.1.1
				F_Minister_Allowed = yes
				NOT = { has_country_flag = Miguel_Costas_unavailable }
			}
			
			
			traits = { ideology_F FM_Iron_Fisted_Brute }
		}
	# Plinio Salgado
		BRA_FM_Plinio_Salgado = {
			picture = Plinio_Salgado
			allowed = { tag = BRA }
			available = {
				date > 1942.1.1
				date < 1964.1.1
				F_Minister_Allowed = yes
				NOT = { has_country_flag = Plinio_Salgado_unavailable }
			}
			
			
			traits = { ideology_F FM_Apologetic_Clerk }
		}
	# Newton Cavalcanti
		BRA_FM_Newton_Cavalcanti = {
			picture = Newton_Cavalcanti
			allowed = { tag = BRA }
			available = {
				date > 1944.1.1
				date < 1964.1.1
				F_Minister_Allowed = yes
				NOT = { has_country_flag = Newton_Cavalcanti_unavailable }
			}
			
			
			traits = { ideology_F FM_General_Staffer }
		}
	# José de Macedo Soares
		BRA_FM_Jose_de_Macedo_Soares = {
			picture = Jose_de_Macedo_Soares
			allowed = { tag = BRA }
			available = {
				date > 1933.1.1
				date < 1964.1.1
				A_Minister_Allowed = yes
				NOT = { has_country_flag = Jose_de_Macedo_Soares_unavailable }
			}
			
			
			traits = { ideology_A FM_Iron_Fisted_Brute }
		}
	# Aureliano Chaves
		BRA_FM_Aureliano_Chaves = {
			picture = Aureliano_Chaves
			allowed = { tag = BRA }
			available = {
				date > 1983.1.1
				date < 2004.1.1
				A_Minister_Allowed = yes
				NOT = { has_country_flag = Aureliano_Chaves_unavailable }
			}
			
			
			traits = { ideology_A FM_Apologetic_Clerk }
		}
	# José Maria da Silva Paranhos Júnior
		BRA_FM_Jose_Maria_da_Silva_Paranhos_Junior = {
			picture = Jose_Maria_da_Silva_Paranhos_Junior
			allowed = { tag = BRA }
			available = {
				date > 1906.1.1
				date < 1912.1.1
				D_Minister_Allowed = yes
				NOT = { has_country_flag = Jose_Maria_da_Silva_Paranhos_Junior_unavailable }
			}
			
			
			traits = { ideology_D FM_Ideological_Crusader }
		}
	# Enéas Martins
		BRA_FM_Eneas_Martins = {
			picture = Eneas_Martins
			allowed = { tag = BRA }
			available = {
				date > 1912.1.1
				date < 1919.1.1
				D_Minister_Allowed = yes
				NOT = { has_country_flag = Eneas_Martins_unavailable }
			}
			
			
			traits = { ideology_D FM_Biased_Intellectual }
		}
	# Lauro Severiano Müller
		BRA_FM_Lauro_Severiano_Muller = {
			picture = Lauro_Severiano_Muller
			allowed = { tag = BRA }
			available = {
				date > 1912.1.1
				date < 1926.1.1
				D_Minister_Allowed = yes
				NOT = { has_country_flag = Lauro_Severiano_Muller_unavailable }
			}
			
			
			traits = { ideology_D FM_Great_Compromiser }
		}
	# Nilo Procópio Peçanha
		BRA_FM_Nilo_Procopio_Pecanha = {
			picture = Nilo_Procopio_Pecanha
			allowed = { tag = BRA }
			available = {
				date > 1917.1.1
				date < 1924.1.1
				D_Minister_Allowed = yes
				NOT = { has_country_flag = Nilo_Procopio_Pecanha_unavailable }
			}
			
			
			traits = { ideology_D FM_Ideological_Crusader }
		}
	# Domício da Gama
		BRA_FM_Domicio_da_Gama = {
			picture = Domicio_da_Gama
			allowed = { tag = BRA }
			available = {
				date > 1918.1.1
				date < 1925.1.1
				D_Minister_Allowed = yes
				NOT = { has_country_flag = Domicio_da_Gama_unavailable }
			}
			
			
			traits = { ideology_D FM_General_Staffer }
		}
	# Augusto Cochrane de Alencar
		BRA_FM_Augusto_Cochrane_de_Alencar = {
			picture = Augusto_Cochrane_de_Alencar
			allowed = { tag = BRA }
			available = {
				date > 1919.1.1
				date < 1927.1.1
				D_Minister_Allowed = yes
				NOT = { has_country_flag = Augusto_Cochrane_de_Alencar_unavailable }
			}
			
			
			traits = { ideology_D FM_Apologetic_Clerk }
		}
	# José Manuel de Azevedo Marques
		BRA_FM_Jose_Manuel_de_Azevedo_Marques = {
			picture = Jose_Manuel_de_Azevedo_Marques
			allowed = { tag = BRA }
			available = {
				date > 1919.1.1
				date < 1932.1.1
				D_Minister_Allowed = yes
				NOT = { has_country_flag = Jose_Manuel_de_Azevedo_Marques_unavailable }
			}
			
			
			traits = { ideology_D FM_The_Cloak_N_Dagger_Schemer }
		}
	# José Félix Alves Pacheco
		BRA_FM_Jose_Felix_Alves_Pacheco = {
			picture = Jose_Felix_Alves_Pacheco
			allowed = { tag = BRA }
			available = {
				date > 1922.1.1
				date < 1932.1.1
				D_Minister_Allowed = yes
				NOT = { has_country_flag = Jose_Felix_Alves_Pacheco_unavailable }
			}
			
			
			traits = { ideology_D FM_Iron_Fisted_Brute }
		}
	# Raoul Fernandes
		BRA_FM_Raoul_Fernandes = {
			picture = Raoul_Fernandes
			allowed = { tag = BRA }
			available = {
				date > 1933.1.1
				date < 1964.1.1
				D_Minister_Allowed = yes
				NOT = { has_country_flag = Raoul_Fernandes_unavailable }
			}
			
			
			traits = { ideology_D FM_Great_Compromiser }
		}
	# Paso Fernandes Morã
		BRA_FM_Paso_Fernandes_Mora = {
			picture = Paso_Fernandes_Mora
			allowed = { tag = BRA }
			available = {
				date > 1943.1.1
				date < 1964.1.1
				D_Minister_Allowed = yes
				NOT = { has_country_flag = Paso_Fernandes_Mora_unavailable }
			}
			
			
			traits = { ideology_D FM_Ideological_Crusader }
		}
	# Joao Neves da Fontoura
		BRA_FM_Joao_Neves_da_Fontoura = {
			picture = Joao_Neves_da_Fontoura
			allowed = { tag = BRA }
			available = {
				date > 1945.1.1
				date < 1964.1.1
				D_Minister_Allowed = yes
				NOT = { has_country_flag = Joao_Neves_da_Fontoura_unavailable }
			}
			
			
			traits = { ideology_D FM_General_Staffer }
		}
	# S. de Sousa Leão Gracíe
		BRA_FM_S_de_Sousa_Leao_Gracie = {
			picture = S_de_Sousa_Leao_Gracie
			allowed = { tag = BRA }
			available = {
				date > 1946.1.1
				date < 1964.1.1
				D_Minister_Allowed = yes
				NOT = { has_country_flag = S_de_Sousa_Leao_Gracie_unavailable }
			}
			
			
			traits = { ideology_D FM_Biased_Intellectual }
		}
	# Raul Fernandes
		BRA_FM_Raul_Fernandes = {
			picture = Raul_Fernandes
			allowed = { tag = BRA }
			available = {
				date > 1947.1.1
				date < 1964.1.1
				D_Minister_Allowed = yes
				NOT = { has_country_flag = Raul_Fernandes_unavailable }
			}
			
			
			traits = { ideology_D FM_Great_Compromiser }
		}
	# Ramiro Guerreiro
		BRA_FM_Ramiro_Guerreiro = {
			picture = Ramiro_Guerreiro
			allowed = { tag = BRA }
			available = {
				date > 1980.1.1
				date < 2011.1.1
				D_Minister_Allowed = yes
				NOT = { has_country_flag = Ramiro_Guerreiro_unavailable }
			}
			
			
			traits = { ideology_D FM_Iron_Fisted_Brute }
		}
	# Otavio Mangabeira
		BRA_FM_Otavio_Mangabeira_2 = {
			picture = Otavio_Mangabeira_2
			allowed = { tag = BRA }
			available = {
				date > 1937.1.1
				date < 1964.1.1
				D_Minister_Allowed = yes
				NOT = { has_country_flag = Otavio_Mangabeira_unavailable }
			}
			
			
			traits = { ideology_D FM_The_Cloak_N_Dagger_Schemer }
		}
	# Afranio de Mello Franco
		BRA_FM_Afranio_de_Mello_Franco = {
			picture = Afranio_de_Mello_Franco
			allowed = { tag = BRA }
			available = {
				date > 1939.1.1
				date < 1964.1.1
				D_Minister_Allowed = yes
				NOT = { has_country_flag = Afranio_de_Mello_Franco_unavailable }
			}
			
			
			traits = { ideology_D FM_Great_Compromiser }
		}
	# Acyr de Nascimento Paes
		BRA_FM_Acyr_de_Nascimento_Paes = {
			picture = Acyr_de_Nascimento_Paes
			allowed = { tag = BRA }
			available = {
				date > 1943.1.1
				date < 1964.1.1
				D_Minister_Allowed = yes
				NOT = { has_country_flag = Acyr_de_Nascimento_Paes_unavailable }
			}
			
			
			traits = { ideology_D FM_Biased_Intellectual }
		}
	# Mario Pimentel Brandão
		BRA_FM_Mario_Pimentel_Brandao = {
			picture = Mario_Pimentel_Brandao
			allowed = { tag = BRA }
			available = {
				date > 1937.1.1
				date < 1964.1.1
				D_Minister_Allowed = yes
				NOT = { has_country_flag = Mario_Pimentel_Brandao_unavailable }
			}
			
			
			traits = { ideology_D FM_The_Cloak_N_Dagger_Schemer }
		}
	# Otavio Mangabeira
		BRA_FM_Otavio_Mangabeira = {
			picture = Otavio_Mangabeira
			allowed = { tag = BRA }
			available = {
				date > 1945.1.1
				date < 1964.1.1
				D_Minister_Allowed = yes
				NOT = { has_country_flag = Otavio_Mangabeira_unavailable }
			}
			
			
			traits = { ideology_D FM_Great_Compromiser }
		}
	# Manuel A. Venâncio
		BRA_FM_Manuel_A_Venancio = {
			picture = Manuel_A_Venancio
			allowed = { tag = BRA }
			available = {
				date > 1951.1.1
				date < 1964.1.1
				D_Minister_Allowed = yes
				NOT = { has_country_flag = Manuel_A_Venancio_unavailable }
			}
			
			
			traits = { ideology_D FM_Biased_Intellectual }
		}
	# Álvaro Palmeira
		BRA_FM_Alvaro_Palmeira = {
			picture = Alvaro_Palmeira
			allowed = { tag = BRA }
			available = {
				date > 1902.1.1
				date < 1918.1.1
				S_Minister_Allowed = yes
				NOT = { has_country_flag = Alvaro_Palmeira_unavailable }
			}
			
			
			traits = { ideology_S FM_Ideological_Crusader }
		}
	# Silvério Fontes
		BRA_FM_Silverio_Fontes = {
			picture = Silverio_Fontes
			allowed = { tag = BRA }
			available = {
				date > 1902.1.1
				date < 1928.1.1
				S_Minister_Allowed = yes
				NOT = { has_country_flag = Silverio_Fontes_unavailable }
			}
			
			
			traits = { ideology_S FM_Great_Compromiser }
		}
	# Manuel Bomfim
		BRA_FM_Manuel_Bomfim = {
			picture = Manuel_Bomfim
			allowed = { tag = BRA }
			available = {
				date > 1902.1.1
				date < 1932.1.1
				S_Minister_Allowed = yes
				NOT = { has_country_flag = Manuel_Bomfim_unavailable }
			}
			
			
			traits = { ideology_S FM_Apologetic_Clerk }
		}
	# Francisco Cavalcanti Pontes de Miranda
		BRA_FM_Francisco_Cavalcanti_Pontes_de_Miranda = {
			picture = Francisco_Cavalcanti_Pontes_de_Miranda
			allowed = { tag = BRA }
			available = {
				date > 1918.1.1
				date < 1932.1.1
				S_Minister_Allowed = yes
				NOT = { has_country_flag = Francisco_Cavalcanti_Pontes_de_Miranda_unavailable }
			}
			
			
			traits = { ideology_S FM_Biased_Intellectual }
		}
	# Oswaldo Aranha
		BRA_FM_Oswaldo_Aranha = {
			picture = Oswaldo_Aranha
			allowed = { tag = BRA }
			available = {
				date > 1938.1.1
				date < 1964.1.1
				S_Minister_Allowed = yes
				NOT = { has_country_flag = Oswaldo_Aranha_unavailable }
			}
			
			
			traits = { ideology_S FM_Biased_Intellectual }
		}
	# Pedro Leão Veloso
		BRA_FM_Pedro_Leao_Veloso = {
			picture = Pedro_Leao_Veloso
			allowed = { tag = BRA }
			available = {
				date > 1944.1.1
				date < 1964.1.1
				S_Minister_Allowed = yes
				NOT = { has_country_flag = Pedro_Leao_Veloso_unavailable }
			}
			
			
			traits = { ideology_S FM_Great_Compromiser }
		}
	# Oscar Weinschenck
		BRA_FM_Oscar_Weinschenck = {
			picture = Oscar_Weinschenck
			allowed = { tag = BRA }
			available = {
				date > 1942.1.1
				date < 1964.1.1
				C_Minister_Allowed = yes
				NOT = { has_country_flag = Oscar_Weinschenck_unavailable }
			}
			
			
			traits = { ideology_C FM_The_Cloak_N_Dagger_Schemer }
		}
	# Henry Berger
		BRA_FM_Henry_Berger = {
			picture = Henry_Berger
			allowed = { tag = BRA }
			available = {
				date > 1939.1.1
				date < 1964.1.1
				C_Minister_Allowed = yes
				NOT = { has_country_flag = Henry_Berger_unavailable }
			}
			
			
			traits = { ideology_C FM_Ideological_Crusader }
		}
}
#################################################
### Minister of Security
#################################################
	Minister_of_Security = {
	# Riccardo Cassiano
		BRA_MoS_Riccardo_Cassiano = {
			picture = Riccardo_Cassiano
			allowed = { tag = BRA }
			available = {
				date > 1937.1.1
				date < 1964.1.1
				F_Minister_Allowed = yes
				NOT = { has_country_flag = Riccardo_Cassiano_unavailable }
			}
			
			
			traits = { ideology_F MoS_Efficient_Sociopath }
		}
	# Carlos Ferreira de Camargo
		BRA_MoS_Carlos_Ferreira_de_Camargo = {
			picture = Carlos_Ferreira_de_Camargo
			allowed = { tag = BRA }
			available = {
				date > 1940.1.1
				date < 1964.1.1
				F_Minister_Allowed = yes
				NOT = { has_country_flag = Carlos_Ferreira_de_Camargo_unavailable }
			}
			
			
			traits = { ideology_F MoS_Prince_Of_Terror }
		}
	# Carlos Almeida Neto
		BRA_MoS_Carlos_Almeida_Neto_2 = {
			picture = Carlos_Almeida_Neto_2
			allowed = { tag = BRA }
			available = {
				date > 1943.1.1
				date < 1964.1.1
				F_Minister_Allowed = yes
				NOT = { has_country_flag = Carlos_Almeida_Neto_unavailable }
			}
			
			
			traits = { ideology_F MoS_Back_Stabber }
		}
	# Octávio de Medeiros
		BRA_MoS_Octavio_de_Medeiros = {
			picture = Octavio_de_Medeiros
			allowed = { tag = BRA }
			available = {
				date > 1980.1.1
				date < 2006.1.1
				A_Minister_Allowed = yes
				NOT = { has_country_flag = Octavio_de_Medeiros_unavailable }
			}
			
			
			traits = { ideology_A MoS_Crime_Fighter }
		}
	# Augusto Tavares de Lira
		BRA_MoS_Augusto_Tavares_de_Lira = {
			picture = Augusto_Tavares_de_Lira
			allowed = { tag = BRA }
			available = {
				date > 1906.1.1
				date < 1932.1.1
				D_Minister_Allowed = yes
				NOT = { has_country_flag = Augusto_Tavares_de_Lira_unavailable }
			}
			
			
			traits = { ideology_D MoS_Compassionate_Gentleman }
		}
	# Esmeraldino Olímpio Torres Bandeira
		BRA_MoS_Esmeraldino_Olimpio_Torres_Bandeira = {
			picture = Esmeraldino_Olimpio_Torres_Bandeira
			allowed = { tag = BRA }
			available = {
				date > 1909.1.1
				date < 1928.1.1
				D_Minister_Allowed = yes
				NOT = { has_country_flag = Esmeraldino_Olimpio_Torres_Bandeira_unavailable }
			}
			
			
			traits = { ideology_D MoS_Prince_Of_Terror }
		}
	# Rivadávia da Cunha Correia
		BRA_MoS_Rivadavia_da_Cunha_Correia = {
			picture = Rivadavia_da_Cunha_Correia
			allowed = { tag = BRA }
			available = {
				date > 1910.1.1
				date < 1920.1.1
				D_Minister_Allowed = yes
				NOT = { has_country_flag = Rivadavia_da_Cunha_Correia_unavailable }
			}
			
			
			traits = { ideology_D MoS_Man_Of_The_People }
		}
	# Uladislau Herculano de Freitas Guimarães
		BRA_MoS_Uladislau_Herculano_de_Freitas_Guimaraes = {
			picture = Uladislau_Herculano_de_Freitas_Guimaraes
			allowed = { tag = BRA }
			available = {
				date > 1913.1.1
				date < 1926.1.1
				D_Minister_Allowed = yes
				NOT = { has_country_flag = Uladislau_Herculano_de_Freitas_Guimaraes_unavailable }
			}
			
			
			traits = { ideology_D MoS_Crime_Fighter }
		}
	# Carlos Maximiliano Pereira dos Santos
		BRA_MoS_Carlos_Maximiliano_Pereira_dos_Santos = {
			picture = Carlos_Maximiliano_Pereira_dos_Santos
			allowed = { tag = BRA }
			available = {
				date > 1914.1.1
				date < 1932.1.1
				D_Minister_Allowed = yes
				NOT = { has_country_flag = Carlos_Maximiliano_Pereira_dos_Santos_unavailable }
			}
			
			
			traits = { ideology_D MoS_Compassionate_Gentleman }
		}
	# Amaro Cavalcanti Soares de Brito
		BRA_MoS_Amaro_Cavalcanti_Soares_de_Brito = {
			picture = Amaro_Cavalcanti_Soares_de_Brito
			allowed = { tag = BRA }
			available = {
				date > 1918.1.1
				date < 1922.1.1
				D_Minister_Allowed = yes
				NOT = { has_country_flag = Amaro_Cavalcanti_Soares_de_Brito_unavailable }
			}
			
			
			traits = { ideology_D MoS_Silent_Lawyer }
		}
	# Urbano Santos da Costa Araújo
		BRA_MoS_Urbano_Santos_da_Costa_Araujo = {
			picture = Urbano_Santos_da_Costa_Araujo
			allowed = { tag = BRA }
			available = {
				date > 1918.1.1
				date < 1922.1.1
				D_Minister_Allowed = yes
				NOT = { has_country_flag = Urbano_Santos_da_Costa_Araujo_unavailable }
			}
			
			
			traits = { ideology_D MoS_Efficient_Sociopath }
		}
	# Alfredo Pinto Vieira de Melo
		BRA_MoS_Alfredo_Pinto_Vieira_de_Melo = {
			picture = Alfredo_Pinto_Vieira_de_Melo
			allowed = { tag = BRA }
			available = {
				date > 1919.1.1
				date < 1923.1.1
				D_Minister_Allowed = yes
				NOT = { has_country_flag = Alfredo_Pinto_Vieira_de_Melo_unavailable }
			}
			
			
			traits = { ideology_D MoS_Back_Stabber }
		}
	# Joaquim Ferreira Chaves Filho
		BRA_MoS_Joaquim_Ferreira_Chaves_Filho = {
			picture = Joaquim_Ferreira_Chaves_Filho
			allowed = { tag = BRA }
			available = {
				date > 1921.1.1
				date < 1932.1.1
				D_Minister_Allowed = yes
				NOT = { has_country_flag = Joaquim_Ferreira_Chaves_Filho_unavailable }
			}
			
			
			traits = { ideology_D MoS_Man_Of_The_People }
		}
	# João Luís Alves
		BRA_MoS_Joao_Luis_Alves = {
			picture = Joao_Luis_Alves
			allowed = { tag = BRA }
			available = {
				date > 1922.1.1
				date < 1925.1.1
				D_Minister_Allowed = yes
				NOT = { has_country_flag = Joao_Luis_Alves_unavailable }
			}
			
			
			traits = { ideology_D MoS_Prince_Of_Terror }
		}
	# Raul Fernandes
		BRA_MoS_Raul_Fernandes = {
			picture = Raul_Fernandes
			allowed = { tag = BRA }
			available = {
				date > 1943.1.1
				date < 1964.1.1
				D_Minister_Allowed = yes
				NOT = { has_country_flag = Raul_Fernandes_unavailable }
			}
			
			
			traits = { ideology_D MoS_Back_Stabber }
		}
	# Epitacio da Silva Pessoa
		BRA_MoS_Epitacio_da_Silva_Pessoa = {
			picture = Epitacio_da_Silva_Pessoa
			allowed = { tag = BRA }
			available = {
				date > 1945.1.1
				date < 1964.1.1
				D_Minister_Allowed = yes
				NOT = { has_country_flag = Epitacio_da_Silva_Pessoa_unavailable }
			}
			
			
			traits = { ideology_D MoS_Crime_Fighter }
		}
	# Teotonio da Fonseca
		BRA_MoS_Teotonio_da_Fonseca_2 = {
			picture = Teotonio_da_Fonseca_2
			allowed = { tag = BRA }
			available = {
				date > 1946.1.1
				date < 1964.1.1
				D_Minister_Allowed = yes
				NOT = { has_country_flag = Teotonio_da_Fonseca_unavailable }
			}
			
			
			traits = { ideology_D MoS_Prince_Of_Terror }
		}
	# Carlos Almeida Neto
		BRA_MoS_Carlos_Almeida_Neto = {
			picture = Carlos_Almeida_Neto
			allowed = { tag = BRA }
			available = {
				date > 1947.1.1
				date < 1964.1.1
				D_Minister_Allowed = yes
				NOT = { has_country_flag = Carlos_Almeida_Neto_unavailable }
			}
			
			
			traits = { ideology_D MoS_Efficient_Sociopath }
		}
	# José de Macedo Soares
		BRA_MoS_Jose_de_Macedo_Soares = {
			picture = Jose_de_Macedo_Soares
			allowed = { tag = BRA }
			available = {
				date > 1951.1.1
				date < 1964.1.1
				D_Minister_Allowed = yes
				NOT = { has_country_flag = Jose_de_Macedo_Soares_unavailable }
			}
			
			
			traits = { ideology_D MoS_Compassionate_Gentleman }
		}
	# João de Abreu
		BRA_MoS_Joao_de_Abreu = {
			picture = Joao_de_Abreu
			allowed = { tag = BRA }
			available = {
				date > 1980.1.1
				date < 2000.1.1
				D_Minister_Allowed = yes
				NOT = { has_country_flag = Joao_de_Abreu_unavailable }
			}
			
			
			traits = { ideology_D MoS_Crime_Fighter }
		}
	# Costa Neto
		BRA_MoS_Costa_Neto = {
			picture = Costa_Neto
			allowed = { tag = BRA }
			available = {
				date > 1937.1.1
				date < 1964.1.1
				D_Minister_Allowed = yes
				NOT = { has_country_flag = Costa_Neto_unavailable }
			}
			
			
			traits = { ideology_D MoS_Compassionate_Gentleman }
		}
	# Mesquito da Costa
		BRA_MoS_Mesquito_da_Costa = {
			picture = Mesquito_da_Costa
			allowed = { tag = BRA }
			available = {
				date > 1939.1.1
				date < 1964.1.1
				D_Minister_Allowed = yes
				NOT = { has_country_flag = Mesquito_da_Costa_unavailable }
			}
			
			
			traits = { ideology_D MoS_Silent_Lawyer }
		}
	# Teotonio da Fonseca
		BRA_MoS_Teotonio_da_Fonseca = {
			picture = Teotonio_da_Fonseca
			allowed = { tag = BRA }
			available = {
				date > 1943.1.1
				date < 1964.1.1
				D_Minister_Allowed = yes
				NOT = { has_country_flag = Teotonio_da_Fonseca_unavailable }
			}
			
			
			traits = { ideology_D MoS_Prince_Of_Terror }
		}
	# Marcondes Filho
		BRA_MoS_Marcondes_Filho = {
			picture = Marcondes_Filho
			allowed = { tag = BRA }
			available = {
				date > 1933.1.1
				date < 1964.1.1
				D_Minister_Allowed = yes
				NOT = { has_country_flag = Marcondes_Filho_unavailable }
			}
			
			
			traits = { ideology_D MoS_Crime_Fighter }
		}
	# Guilherme Guinlé de Silvio
		BRA_MoS_Guilherme_Guinle_de_Silvio = {
			picture = Guilherme_Guinle_de_Silvio
			allowed = { tag = BRA }
			available = {
				date > 1939.1.1
				date < 1964.1.1
				D_Minister_Allowed = yes
				NOT = { has_country_flag = Guilherme_Guinle_de_Silvio_unavailable }
			}
			
			
			traits = { ideology_D MoS_Efficient_Sociopath }
		}
	# Oscar Weinschenck
		BRA_MoS_Oscar_Weinschenck = {
			picture = Oscar_Weinschenck
			allowed = { tag = BRA }
			available = {
				date > 1941.1.1
				date < 1964.1.1
				D_Minister_Allowed = yes
				NOT = { has_country_flag = Oscar_Weinschenck_unavailable }
			}
			
			
			traits = { ideology_D MoS_Silent_Lawyer }
		}
	# Carlos Abguar Bastos
		BRA_MoS_Carlos_Abguar_Bastos_2 = {
			picture = Carlos_Abguar_Bastos_2
			allowed = { tag = BRA }
			available = {
				date > 1945.1.1
				date < 1964.1.1
				D_Minister_Allowed = yes
				NOT = { has_country_flag = Carlos_Abguar_Bastos_unavailable }
			}
			
			
			traits = { ideology_D MoS_Back_Stabber }
		}
	# Horacio Lafér
		BRA_MoS_Horacio_Lafer = {
			picture = Horacio_Lafer
			allowed = { tag = BRA }
			available = {
				date > 1951.1.1
				date < 1964.1.1
				D_Minister_Allowed = yes
				NOT = { has_country_flag = Horacio_Lafer_unavailable }
			}
			
			
			traits = { ideology_D MoS_Crime_Fighter }
		}
	# José Francisco da Rocha Pombo
		BRA_MoS_Jose_Francisco_da_Rocha_Pombo = {
			picture = Jose_Francisco_da_Rocha_Pombo
			allowed = { tag = BRA }
			available = {
				date > 1902.1.1
				date < 1932.1.1
				S_Minister_Allowed = yes
				NOT = { has_country_flag = Jose_Francisco_da_Rocha_Pombo_unavailable }
			}
			
			
			traits = { ideology_S MoS_Prince_Of_Terror }
		}
	# José Veríssimo Dias de Matos
		BRA_MoS_Jose_Verissimo_Dias_de_Matos = {
			picture = Jose_Verissimo_Dias_de_Matos
			allowed = { tag = BRA }
			available = {
				date > 1902.1.1
				date < 1916.1.1
				S_Minister_Allowed = yes
				NOT = { has_country_flag = Jose_Verissimo_Dias_de_Matos_unavailable }
			}
			
			
			traits = { ideology_S MoS_Man_Of_The_People }
		}
	# Manuel Bomfim
		BRA_MoS_Manuel_Bomfim = {
			picture = Manuel_Bomfim
			allowed = { tag = BRA }
			available = {
				date > 1902.1.1
				date < 1932.1.1
				S_Minister_Allowed = yes
				NOT = { has_country_flag = Manuel_Bomfim_unavailable }
			}
			
			
			traits = { ideology_S MoS_Compassionate_Gentleman }
		}
	# Cruz Júnior
		BRA_MoS_Cruz_Junior = {
			picture = Cruz_Junior
			allowed = { tag = BRA }
			available = {
				date > 1918.1.1
				date < 1932.1.1
				S_Minister_Allowed = yes
				NOT = { has_country_flag = Cruz_Junior_unavailable }
			}
			
			
			traits = { ideology_S MoS_Efficient_Sociopath }
		}
	# Pedro Leão Veloso
		BRA_MoS_Pedro_Leao_Veloso = {
			picture = Pedro_Leao_Veloso
			allowed = { tag = BRA }
			available = {
				date > 1937.1.1
				date < 1964.1.1
				S_Minister_Allowed = yes
				NOT = { has_country_flag = Pedro_Leao_Veloso_unavailable }
			}
			
			
			traits = { ideology_S MoS_Compassionate_Gentleman }
		}
	# Manuel A. Venâncio
		BRA_MoS_Manuel_A_Venancio = {
			picture = Manuel_A_Venancio
			allowed = { tag = BRA }
			available = {
				date > 1940.1.1
				date < 1964.1.1
				S_Minister_Allowed = yes
				NOT = { has_country_flag = Manuel_A_Venancio_unavailable }
			}
			
			
			traits = { ideology_S MoS_Man_Of_The_People }
		}
	# Mario Pimentel Brandão
		BRA_MoS_Mario_Pimentel_Brandao = {
			picture = Mario_Pimentel_Brandao
			allowed = { tag = BRA }
			available = {
				date > 1943.1.1
				date < 1964.1.1
				S_Minister_Allowed = yes
				NOT = { has_country_flag = Mario_Pimentel_Brandao_unavailable }
			}
			
			
			traits = { ideology_S MoS_Crooked_Kleptocrat }
		}
	# Carlos Abguar Bastos
		BRA_MoS_Carlos_Abguar_Bastos = {
			picture = Carlos_Abguar_Bastos
			allowed = { tag = BRA }
			available = {
				date > 1939.1.1
				date < 1964.1.1
				C_Minister_Allowed = yes
				NOT = { has_country_flag = Carlos_Abguar_Bastos_unavailable }
			}
			
			
			traits = { ideology_C MoS_Prince_Of_Terror }
		}
	# Ademar de Carvalho Gomes
		BRA_MoS_Ademar_de_Carvalho_Gomes = {
			picture = Ademar_de_Carvalho_Gomes
			allowed = { tag = BRA }
			available = {
				date > 1944.1.1
				date < 1964.1.1
				C_Minister_Allowed = yes
				NOT = { has_country_flag = Ademar_de_Carvalho_Gomes_unavailable }
			}
			
			
			traits = { ideology_C MoS_Man_Of_The_People }
		}
}
#################################################
### Armaments Minister
#################################################
	Armaments_Minister = {
	# Gustavo Barroso
		BRA_AM_Gustavo_Barroso_2 = {
			picture = Gustavo_Barroso_2
			allowed = { tag = BRA }
			available = {
				date > 1937.1.1
				date < 1964.1.1
				F_Minister_Allowed = yes
				NOT = { has_country_flag = Gustavo_Barroso_unavailable }
			}
			
			
			traits = { ideology_F AM_Military_Entrepreneur }
		}
	# Waldemar Costa Neto
		BRA_AM_Waldemar_Costa_Neto = {
			picture = Waldemar_Costa_Neto
			allowed = { tag = BRA }
			available = {
				date > 1941.1.1
				date < 1964.1.1
				F_Minister_Allowed = yes
				NOT = { has_country_flag = Waldemar_Costa_Neto_unavailable }
			}
			
			
			traits = { ideology_F AM_Infantry_Proponent }
		}
	# Carlos Ferreira de Camargo
		BRA_AM_Carlos_Ferreira_de_Camargo = {
			picture = Carlos_Ferreira_de_Camargo
			allowed = { tag = BRA }
			available = {
				date > 1943.1.1
				date < 1964.1.1
				F_Minister_Allowed = yes
				NOT = { has_country_flag = Carlos_Ferreira_de_Camargo_unavailable }
			}
			
			
			traits = { ideology_F AM_Laissez-faire_Capitalist }
		}
	# Fernando Collor
		BRA_AM_Fernando_Collor = {
			picture = Fernando_Collor
			allowed = { tag = BRA }
			available = {
				date > 1990.1.1
				date < 2020.1.1
				A_Minister_Allowed = yes
				NOT = { has_country_flag = Fernando_Collor_unavailable }
			}
			
			
			traits = { ideology_A AM_Laissez-faire_Capitalist }
		}
	# David Morethson Campista
		BRA_AM_David_Morethson_Campista = {
			picture = David_Morethson_Campista
			allowed = { tag = BRA }
			available = {
				date > 1906.1.1
				date < 1911.1.1
				D_Minister_Allowed = yes
				NOT = { has_country_flag = David_Morethson_Campista_unavailable }
			}
			
			
			traits = { ideology_D AM_Laissez-faire_Capitalist }
		}
	# José Leopoldo de Bulhões Jardim
		BRA_AM_Jose_Leopoldo_de_Bulhoes_Jardim = {
			picture = Jose_Leopoldo_de_Bulhoes_Jardim
			allowed = { tag = BRA }
			available = {
				date > 1909.1.1
				date < 1928.1.1
				D_Minister_Allowed = yes
				NOT = { has_country_flag = Jose_Leopoldo_de_Bulhoes_Jardim_unavailable }
			}
			
			
			traits = { ideology_D AM_Corrupt_Kleptocrat }
		}
	# Francisco Antônio de Sales
		BRA_AM_Francisco_Antonio_de_Sales = {
			picture = Francisco_Antonio_de_Sales
			allowed = { tag = BRA }
			available = {
				date > 1910.1.1
				date < 1932.1.1
				D_Minister_Allowed = yes
				NOT = { has_country_flag = Francisco_Antonio_de_Sales_unavailable }
			}
			
			
			traits = { ideology_D AM_Air_To_Sea_Proponent }
		}
	# Rivadávia da Cunha Correia
		BRA_AM_Rivadavia_da_Cunha_Correia = {
			picture = Rivadavia_da_Cunha_Correia
			allowed = { tag = BRA }
			available = {
				date > 1913.1.1
				date < 1920.1.1
				D_Minister_Allowed = yes
				NOT = { has_country_flag = Rivadavia_da_Cunha_Correia_unavailable }
			}
			
			
			traits = { ideology_D AM_Air_To_Ground_Proponent }
		}
	# Sabino Alves Barroso Júnior
		BRA_AM_Sabino_Alves_Barroso_Junior = {
			picture = Sabino_Alves_Barroso_Junior
			allowed = { tag = BRA }
			available = {
				date > 1914.1.1
				date < 1919.1.1
				D_Minister_Allowed = yes
				NOT = { has_country_flag = Sabino_Alves_Barroso_Junior_unavailable }
			}
			
			
			traits = { ideology_D AM_Theoretical_Scientist }
		}
	# João Pandiá Calógeras
		BRA_AM_Joao_Pandia_Calogeras = {
			picture = Joao_Pandia_Calogeras
			allowed = { tag = BRA }
			available = {
				date > 1915.1.1
				date < 1932.1.1
				D_Minister_Allowed = yes
				NOT = { has_country_flag = Joao_Pandia_Calogeras_unavailable }
			}
			
			
			traits = { ideology_D AM_Battle_Fleet_Proponent }
		}
	# Augusto Tavares de Lira
		BRA_AM_Augusto_Tavares_de_Lira = {
			picture = Augusto_Tavares_de_Lira
			allowed = { tag = BRA }
			available = {
				date > 1916.1.1
				date < 1932.1.1
				D_Minister_Allowed = yes
				NOT = { has_country_flag = Augusto_Tavares_de_Lira_unavailable }
			}
			
			
			traits = { ideology_D AM_Submarine_Proponent }
		}
	# Antônio Carlos Ribeiro de Andrada
		BRA_AM_Antonio_Carlos_Ribeiro_de_Andrada = {
			picture = Antonio_Carlos_Ribeiro_de_Andrada
			allowed = { tag = BRA }
			available = {
				date > 1917.1.1
				date < 1932.1.1
				D_Minister_Allowed = yes
				NOT = { has_country_flag = Antonio_Carlos_Ribeiro_de_Andrada_unavailable }
			}
			
			
			traits = { ideology_D AM_Military_Entrepreneur }
		}
	# Amaro Bezerra Cavalcanti de Albuquerque
		BRA_AM_Amaro_Bezerra_Cavalcanti_de_Albuquerque = {
			picture = Amaro_Bezerra_Cavalcanti_de_Albuquerque
			allowed = { tag = BRA }
			available = {
				date > 1918.1.1
				date < 1922.1.1
				D_Minister_Allowed = yes
				NOT = { has_country_flag = Amaro_Bezerra_Cavalcanti_de_Albuquerque_unavailable }
			}
			
			
			traits = { ideology_D AM_Air_Superiority_Proponent }
		}
	# João Ribeiro de Oliveira e Sousa
		BRA_AM_Joao_Ribeiro_de_Oliveira_e_Sousa = {
			picture = Joao_Ribeiro_de_Oliveira_e_Sousa
			allowed = { tag = BRA }
			available = {
				date > 1919.1.1
				date < 1932.1.1
				D_Minister_Allowed = yes
				NOT = { has_country_flag = Joao_Ribeiro_de_Oliveira_e_Sousa_unavailable }
			}
			
			
			traits = { ideology_D AM_Administrative_Genius }
		}
	# Homero Batista
		BRA_AM_Homero_Batista = {
			picture = Homero_Batista
			allowed = { tag = BRA }
			available = {
				date > 1919.1.1
				date < 1924.1.1
				D_Minister_Allowed = yes
				NOT = { has_country_flag = Homero_Batista_unavailable }
			}
			
			
			traits = { ideology_D AM_Infantry_Proponent }
		}
	# Rafael de Abreu Sampaio Vidal
		BRA_AM_Rafael_de_Abreu_Sampaio_Vidal = {
			picture = Rafael_de_Abreu_Sampaio_Vidal
			allowed = { tag = BRA }
			available = {
				date > 1922.1.1
				date < 1932.1.1
				D_Minister_Allowed = yes
				NOT = { has_country_flag = Rafael_de_Abreu_Sampaio_Vidal_unavailable }
			}
			
			
			traits = { ideology_D AM_Resource_Industrialist }
		}
	# Afranio de Mello Franco
		BRA_AM_Afranio_de_Mello_Franco = {
			picture = Afranio_de_Mello_Franco
			allowed = { tag = BRA }
			available = {
				date > 1942.1.1
				date < 1964.1.1
				D_Minister_Allowed = yes
				NOT = { has_country_flag = Afranio_de_Mello_Franco_unavailable }
			}
			
			
			traits = { ideology_D AM_Battle_Fleet_Proponent }
		}
	# Washington Luis Pereira
		BRA_AM_Washington_Luis_Pereira = {
			picture = Washington_Luis_Pereira
			allowed = { tag = BRA }
			available = {
				date > 1943.1.1
				date < 1964.1.1
				D_Minister_Allowed = yes
				NOT = { has_country_flag = Washington_Luis_Pereira_unavailable }
			}
			
			
			traits = { ideology_D AM_Administrative_Genius }
		}
	# Gastão Vidigal
		BRA_AM_Gastao_Vidigal = {
			picture = Gastao_Vidigal
			allowed = { tag = BRA }
			available = {
				date > 1945.1.1
				date < 1964.1.1
				D_Minister_Allowed = yes
				NOT = { has_country_flag = Gastao_Vidigal_unavailable }
			}
			
			
			traits = { ideology_D AM_Resource_Industrialist }
		}
	# Gustavo Barroso
		BRA_AM_Gustavo_Barroso = {
			picture = Gustavo_Barroso
			allowed = { tag = BRA }
			available = {
				date > 1946.1.1
				date < 1964.1.1
				D_Minister_Allowed = yes
				NOT = { has_country_flag = Gustavo_Barroso_unavailable }
			}
			
			
			traits = { ideology_D AM_Submarine_Proponent }
		}
	# Vicente Raõ
		BRA_AM_Vicente_Rao = {
			picture = Vicente_Rao
			allowed = { tag = BRA }
			available = {
				date > 1951.1.1
				date < 1964.1.1
				D_Minister_Allowed = yes
				NOT = { has_country_flag = Vicente_Rao_unavailable }
			}
			
			
			traits = { ideology_D AM_Laissez-faire_Capitalist }
		}
	# Ernane Galvêas
		BRA_AM_Ernane_Galveas = {
			picture = Ernane_Galveas
			allowed = { tag = BRA }
			available = {
				date > 1980.1.1
				date < 2020.1.1
				D_Minister_Allowed = yes
				NOT = { has_country_flag = Ernane_Galveas_unavailable }
			}
			
			
			traits = { ideology_D AM_Military_Entrepreneur }
		}
	# Americo de Almeida
		BRA_AM_Americo_de_Almeida = {
			picture = Americo_de_Almeida
			allowed = { tag = BRA }
			available = {
				date > 1937.1.1
				date < 1964.1.1
				D_Minister_Allowed = yes
				NOT = { has_country_flag = Americo_de_Almeida_unavailable }
			}
			
			
			traits = { ideology_D AM_Resource_Industrialist }
		}
	# Gastão da Cunha Bahiana
		BRA_AM_Gastao_da_Cunha_Bahiana = {
			picture = Gastao_da_Cunha_Bahiana
			allowed = { tag = BRA }
			available = {
				date > 1939.1.1
				date < 1964.1.1
				D_Minister_Allowed = yes
				NOT = { has_country_flag = Gastao_da_Cunha_Bahiana_unavailable }
			}
			
			
			traits = { ideology_D AM_Theoretical_Scientist }
		}
	# José Linhares Filho
		BRA_AM_Jose_Linhares_Filho = {
			picture = Jose_Linhares_Filho
			allowed = { tag = BRA }
			available = {
				date > 1940.1.1
				date < 1964.1.1
				D_Minister_Allowed = yes
				NOT = { has_country_flag = Jose_Linhares_Filho_unavailable }
			}
			
			
			traits = { ideology_D AM_Laissez-faire_Capitalist }
		}
	# Eduardo Gomes
		BRA_AM_Eduardo_Gomes = {
			picture = Eduardo_Gomes
			allowed = { tag = BRA }
			available = {
				date > 1943.1.1
				date < 1964.1.1
				D_Minister_Allowed = yes
				NOT = { has_country_flag = Eduardo_Gomes_unavailable }
			}
			
			
			traits = { ideology_D AM_Air_To_Ground_Proponent }
		}
	# Elyseu F. de Montarroyos
		BRA_AM_Elyseu_F_de_Montarroyos = {
			picture = Elyseu_F_de_Montarroyos
			allowed = { tag = BRA }
			available = {
				date > 1945.1.1
				date < 1964.1.1
				D_Minister_Allowed = yes
				NOT = { has_country_flag = Elyseu_F_de_Montarroyos_unavailable }
			}
			
			
			traits = { ideology_D AM_Air_Superiority_Proponent }
		}
	# Joao Café Filho
		BRA_AM_Joao_Cafe_Filho = {
			picture = Joao_Cafe_Filho
			allowed = { tag = BRA }
			available = {
				date > 1933.1.1
				date < 1964.1.1
				D_Minister_Allowed = yes
				NOT = { has_country_flag = Joao_Cafe_Filho_unavailable }
			}
			
			
			traits = { ideology_D AM_Military_Entrepreneur }
		}
	# Luis Carlos Prestes
		BRA_AM_Luis_Carlos_Prestes = {
			picture = Luis_Carlos_Prestes
			allowed = { tag = BRA }
			available = {
				date > 1945.1.1
				date < 1964.1.1
				D_Minister_Allowed = yes
				NOT = { has_country_flag = Luis_Carlos_Prestes_unavailable }
			}
			
			
			traits = { ideology_D AM_Strategic_Air_Proponent }
		}
	# S. Rauliono de Oliviera
		BRA_AM_S_Rauliono_de_Oliviera = {
			picture = S_Rauliono_de_Oliviera
			allowed = { tag = BRA }
			available = {
				date > 1951.1.1
				date < 1964.1.1
				D_Minister_Allowed = yes
				NOT = { has_country_flag = S_Rauliono_de_Oliviera_unavailable }
			}
			
			
			traits = { ideology_D AM_Resource_Industrialist }
		}
	# José Rodrigues Leite e Oiticica
		BRA_AM_Jose_Rodrigues_Leite_e_Oiticica = {
			picture = Jose_Rodrigues_Leite_e_Oiticica
			allowed = { tag = BRA }
			available = {
				date > 1902.1.1
				date < 1932.1.1
				S_Minister_Allowed = yes
				NOT = { has_country_flag = Jose_Rodrigues_Leite_e_Oiticica_unavailable }
			}
			
			
			traits = { ideology_S AM_Resource_Industrialist }
		}
	# Agripino Nazaré
		BRA_AM_Agripino_Nazare = {
			picture = Agripino_Nazare
			allowed = { tag = BRA }
			available = {
				date > 1902.1.1
				date < 1918.1.1
				S_Minister_Allowed = yes
				NOT = { has_country_flag = Agripino_Nazare_unavailable }
			}
			
			
			traits = { ideology_S AM_Military_Entrepreneur }
		}
	# Maurício Paiva de Lacerda
		BRA_AM_Mauricio_Paiva_de_Lacerda = {
			picture = Mauricio_Paiva_de_Lacerda
			allowed = { tag = BRA }
			available = {
				date > 1918.1.1
				date < 1932.1.1
				S_Minister_Allowed = yes
				NOT = { has_country_flag = Mauricio_Paiva_de_Lacerda_unavailable }
			}
			
			
			traits = { ideology_S AM_Corrupt_Kleptocrat }
		}
	# Januario Coelho Neto
		BRA_AM_Januario_Coelho_Neto = {
			picture = Januario_Coelho_Neto
			allowed = { tag = BRA }
			available = {
				date > 1937.1.1
				date < 1964.1.1
				S_Minister_Allowed = yes
				NOT = { has_country_flag = Januario_Coelho_Neto_unavailable }
			}
			
			
			traits = { ideology_S AM_Tank_Proponent }
		}
	# José de Macedo Soares
		BRA_AM_Jose_de_Macedo_Soares = {
			picture = Jose_de_Macedo_Soares
			allowed = { tag = BRA }
			available = {
				date > 1939.1.1
				date < 1964.1.1
				S_Minister_Allowed = yes
				NOT = { has_country_flag = Jose_de_Macedo_Soares_unavailable }
			}
			
			
			traits = { ideology_S AM_Laissez-faire_Capitalist }
		}
	# Getulio Vargas
		BRA_AM_Getulio_Vargas = {
			picture = Getulio_Vargas
			allowed = { tag = BRA }
			available = {
				date > 1941.1.1
				date < 1964.1.1
				S_Minister_Allowed = yes
				NOT = { has_country_flag = Getulio_Vargas_unavailable }
			}
			
			
			traits = { ideology_S AM_Administrative_Genius }
		}
	# Agustin Juarez Folhã
		BRA_AM_Agustin_Juarez_Folha = {
			picture = Agustin_Juarez_Folha
			allowed = { tag = BRA }
			available = {
				date > 1943.1.1
				date < 1964.1.1
				S_Minister_Allowed = yes
				NOT = { has_country_flag = Agustin_Juarez_Folha_unavailable }
			}
			
			
			traits = { ideology_S AM_Corrupt_Kleptocrat }
		}
	# Henry Berger
		BRA_AM_Henry_Berger = {
			picture = Henry_Berger
			allowed = { tag = BRA }
			available = {
				date > 1941.1.1
				date < 1964.1.1
				C_Minister_Allowed = yes
				NOT = { has_country_flag = Henry_Berger_unavailable }
			}
			
			
			traits = { ideology_C AM_Air_Superiority_Proponent }
		}
}
#################################################
### Head of Intelligence
#################################################
	Head_of_Intelligence = {
	# Riccardo Cassiano
		BRA_HoI_Riccardo_Cassiano = {
			picture = Riccardo_Cassiano
			allowed = { tag = BRA }
			available = {
				date > 1937.1.1
				date < 1964.1.1
				F_Minister_Allowed = yes
				NOT = { has_country_flag = Riccardo_Cassiano_unavailable }
			}
			
			
			traits = { ideology_F HoI_Political_Specialist }
		}
	# Carlos Almeida Neto
		BRA_HoI_Carlos_Almeida_Neto = {
			picture = Carlos_Almeida_Neto
			allowed = { tag = BRA }
			available = {
				date > 1944.1.1
				date < 1964.1.1
				F_Minister_Allowed = yes
				NOT = { has_country_flag = Carlos_Almeida_Neto_unavailable }
			}
			
			
			traits = { ideology_F HoI_Logistics_Specialist }
		}
	# Octávio de Medeiros
		BRA_HoI_Octavio_de_Medeiros = {
			picture = Octavio_de_Medeiros
			allowed = { tag = BRA }
			available = {
				date > 1980.1.1
				date < 2006.1.1
				A_Minister_Allowed = yes
				NOT = { has_country_flag = Octavio_de_Medeiros_unavailable }
			}
			
			
			traits = { ideology_A HoI_Political_Specialist }
		}
	# Pedro Perotti
		BRA_HoI_Pedro_Perotti = {
			picture = Pedro_Perotti
			allowed = { tag = BRA }
			available = {
				date > 1943.1.1
				date < 1964.1.1
				D_Minister_Allowed = yes
				NOT = { has_country_flag = Pedro_Perotti_unavailable }
			}
			
			
			traits = { ideology_D HoI_Dismal_Enigma }
		}
	# Raoul Fernandes
		BRA_HoI_Raoul_Fernandes = {
			picture = Raoul_Fernandes
			allowed = { tag = BRA }
			available = {
				date > 1951.1.1
				date < 1964.1.1
				D_Minister_Allowed = yes
				NOT = { has_country_flag = Raoul_Fernandes_unavailable }
			}
			
			
			traits = { ideology_D HoI_Political_Specialist }
		}
	# Costa Neto
		BRA_HoI_Costa_Neto = {
			picture = Costa_Neto
			allowed = { tag = BRA }
			available = {
				date > 1937.1.1
				date < 1964.1.1
				D_Minister_Allowed = yes
				NOT = { has_country_flag = Costa_Neto_unavailable }
			}
			
			
			traits = { ideology_D HoI_Naval_Intelligence_Specialist }
		}
	# Mesquito da Costa
		BRA_HoI_Mesquito_da_Costa = {
			picture = Mesquito_da_Costa
			allowed = { tag = BRA }
			available = {
				date > 1939.1.1
				date < 1964.1.1
				D_Minister_Allowed = yes
				NOT = { has_country_flag = Mesquito_da_Costa_unavailable }
			}
			
			
			traits = { ideology_D HoI_Dismal_Enigma }
		}
	# Rodrigo Octavio
		BRA_HoI_Rodrigo_Octavio = {
			picture = Rodrigo_Octavio
			allowed = { tag = BRA }
			available = {
				date > 1945.1.1
				date < 1964.1.1
				D_Minister_Allowed = yes
				NOT = { has_country_flag = Rodrigo_Octavio_unavailable }
			}
			
			
			traits = { ideology_D HoI_Political_Specialist }
		}
	# Filinto Muller
		BRA_HoI_Filinto_Muller = {
			picture = Filinto_Muller
			allowed = { tag = BRA }
			available = {
				date > 1933.1.1
				date < 1964.1.1
				D_Minister_Allowed = yes
				NOT = { has_country_flag = Filinto_Muller_unavailable }
			}
			
			
			traits = { ideology_D HoI_Political_Specialist }
		}
	# Manuel A. Venâncio
		BRA_HoI_Manuel_A_Venancio = {
			picture = Manuel_A_Venancio
			allowed = { tag = BRA }
			available = {
				date > 1945.1.1
				date < 1964.1.1
				D_Minister_Allowed = yes
				NOT = { has_country_flag = Manuel_A_Venancio_unavailable }
			}
			
			
			traits = { ideology_D HoI_Technical_Specialist }
		}
	# Horacio Lafér
		BRA_HoI_Horacio_Lafer = {
			picture = Horacio_Lafer
			allowed = { tag = BRA }
			available = {
				date > 1951.1.1
				date < 1964.1.1
				D_Minister_Allowed = yes
				NOT = { has_country_flag = Horacio_Lafer_unavailable }
			}
			
			
			traits = { ideology_D HoI_Dismal_Enigma }
		}
	# Raulinho Volta Redondo
		BRA_HoI_Raulinho_Volta_Redondo = {
			picture = Raulinho_Volta_Redondo
			allowed = { tag = BRA }
			available = {
				date > 1939.1.1
				date < 1964.1.1
				S_Minister_Allowed = yes
				NOT = { has_country_flag = Raulinho_Volta_Redondo_unavailable }
			}
			
			
			traits = { ideology_S HoI_Logistics_Specialist }
		}
	# Ahusto de Souza e Silva
		BRA_HoI_Ahusto_de_Souza_e_Silva = {
			picture = Ahusto_de_Souza_e_Silva
			allowed = { tag = BRA }
			available = {
				date > 1943.1.1
				date < 1964.1.1
				S_Minister_Allowed = yes
				NOT = { has_country_flag = Ahusto_de_Souza_e_Silva_unavailable }
			}
			
			
			traits = { ideology_S HoI_Political_Specialist }
		}
	# Ademar de Carvalho Gomes
		BRA_HoI_Ademar_de_Carvalho_Gomes = {
			picture = Ademar_de_Carvalho_Gomes
			allowed = { tag = BRA }
			available = {
				date > 1943.1.1
				date < 1964.1.1
				C_Minister_Allowed = yes
				NOT = { has_country_flag = Ademar_de_Carvalho_Gomes_unavailable }
			}
			
			
			traits = { ideology_C HoI_Naval_Intelligence_Specialist }
		}
}
#################################################
### Chief of Staff
#################################################
	Chief_of_Staff = {
	# Newton Cavalcanti
		BRA_CoStaff_Newton_Cavalcanti = {
			picture = Newton_Cavalcanti
			allowed = { tag = BRA }
			available = {
				date > 1937.1.1
				date < 1964.1.1
				F_Minister_Allowed = yes
				NOT = { has_country_flag = Newton_Cavalcanti_unavailable }
			}
			
			
			traits = { ideology_F CoStaff_School_Of_Psychology }
		}
	# Tomas Sebistao de Mendonca
		BRA_CoStaff_Tomas_Sebistao_de_Mendonca = {
			picture = Tomas_Sebistao_de_Mendonca
			allowed = { tag = BRA }
			available = {
				date > 1943.1.1
				date < 1964.1.1
				F_Minister_Allowed = yes
				NOT = { has_country_flag = Tomas_Sebistao_de_Mendonca_unavailable }
			}
			
			
			traits = { ideology_F CoStaff_School_Of_Mass_Combat }
		}
	# Eurico Gaspar Dutra
		BRA_CoStaff_Eurico_Gaspar_Dutra = {
			picture = Eurico_Gaspar_Dutra
			allowed = { tag = BRA }
			available = {
				date > 1933.1.1
				date < 1964.1.1
				A_Minister_Allowed = yes
				NOT = { has_country_flag = Eurico_Gaspar_Dutra_unavailable }
			}
			
			
			traits = { ideology_A CoStaff_School_Of_Defence }
		}
	# João Figueiredo
		BRA_CoStaff_Joao_Figueiredo = {
			picture = Joao_Figueiredo
			allowed = { tag = BRA }
			available = {
				date > 1980.1.1
				date < 2000.1.1
				A_Minister_Allowed = yes
				NOT = { has_country_flag = Joao_Figueiredo_unavailable }
			}
			
			
			traits = { ideology_A CoStaff_School_Of_Defence }
		}
	# Hermes Rodrigues da Fonseca
		BRA_CoStaff_Hermes_Rodrigues_da_Fonseca = {
			picture = Hermes_Rodrigues_da_Fonseca
			allowed = { tag = BRA }
			available = {
				date > 1906.1.1
				date < 1923.1.1
				D_Minister_Allowed = yes
				NOT = { has_country_flag = Hermes_Rodrigues_da_Fonseca_unavailable }
			}
			
			
			traits = { ideology_D CoStaff_School_Of_Manoeuvre }
		}
	# Luís Mendes de Morais
		BRA_CoStaff_Luis_Mendes_de_Morais = {
			picture = Luis_Mendes_de_Morais
			allowed = { tag = BRA }
			available = {
				date > 1908.1.1
				date < 1914.1.1
				D_Minister_Allowed = yes
				NOT = { has_country_flag = Luis_Mendes_de_Morais_unavailable }
			}
			
			
			traits = { ideology_D CoStaff_School_Of_Fire_Support }
		}
	# Carlos Eugênio de Andrade Guimarães
		BRA_CoStaff_Carlos_Eugenio_de_Andrade_Guimaraes = {
			picture = Carlos_Eugenio_de_Andrade_Guimaraes
			allowed = { tag = BRA }
			available = {
				date > 1909.1.1
				date < 1920.1.1
				D_Minister_Allowed = yes
				NOT = { has_country_flag = Carlos_Eugenio_de_Andrade_Guimaraes_unavailable }
			}
			
			
			traits = { ideology_D CoStaff_School_Of_Mass_Combat }
		}
	# José Bernardino Bormann
		BRA_CoStaff_Jose_Bernardino_Bormann = {
			picture = Jose_Bernardino_Bormann
			allowed = { tag = BRA }
			available = {
				date > 1909.1.1
				date < 1919.1.1
				D_Minister_Allowed = yes
				NOT = { has_country_flag = Jose_Bernardino_Bormann_unavailable }
			}
			
			
			traits = { ideology_D CoStaff_School_Of_Defence }
		}
	# Emídio Dantas Barreto
		BRA_CoStaff_Emidio_Dantas_Barreto = {
			picture = Emidio_Dantas_Barreto
			allowed = { tag = BRA }
			available = {
				date > 1910.1.1
				date < 1932.1.1
				D_Minister_Allowed = yes
				NOT = { has_country_flag = Emidio_Dantas_Barreto_unavailable }
			}
			
			
			traits = { ideology_D CoStaff_School_Of_Psychology }
		}
	# Antônio Adolfo da Fontoura Mena Barreto
		BRA_CoStaff_Antonio_Adolfo_da_Fontoura_Mena_Barreto = {
			picture = Antonio_Adolfo_da_Fontoura_Mena_Barreto
			allowed = { tag = BRA }
			available = {
				date > 1911.1.1
				date < 1923.1.1
				D_Minister_Allowed = yes
				NOT = { has_country_flag = Antonio_Adolfo_da_Fontoura_Mena_Barreto_unavailable }
			}
			
			
			traits = { ideology_D CoStaff_School_Of_Defence }
		}
	# Vespasiano Gonçalves de Albuquerque e Silva
		BRA_CoStaff_Vespasiano_Goncalves_de_Albuquerque_e_Silva = {
			picture = Vespasiano_Goncalves_de_Albuquerque_e_Silva
			allowed = { tag = BRA }
			available = {
				date > 1912.1.1
				date < 1924.1.1
				D_Minister_Allowed = yes
				NOT = { has_country_flag = Vespasiano_Goncalves_de_Albuquerque_e_Silva_unavailable }
			}
			
			
			traits = { ideology_D CoStaff_School_Of_Fire_Support }
		}
	# José Caetano de Faria
		BRA_CoStaff_Jose_Caetano_de_Faria = {
			picture = Jose_Caetano_de_Faria
			allowed = { tag = BRA }
			available = {
				date > 1914.1.1
				date < 1920.1.1
				D_Minister_Allowed = yes
				NOT = { has_country_flag = Jose_Caetano_de_Faria_unavailable }
			}
			
			
			traits = { ideology_D CoStaff_School_Of_Mass_Combat }
		}
	# Alberto Cardoso de Aguiar
		BRA_CoStaff_Alberto_Cardoso_de_Aguiar = {
			picture = Alberto_Cardoso_de_Aguiar
			allowed = { tag = BRA }
			available = {
				date > 1918.1.1
				date < 1932.1.1
				D_Minister_Allowed = yes
				NOT = { has_country_flag = Alberto_Cardoso_de_Aguiar_unavailable }
			}
			
			
			traits = { ideology_D CoStaff_School_Of_Psychology }
		}
	# João Pandiá Calógeras
		BRA_CoStaff_Joao_Pandia_Calogeras = {
			picture = Joao_Pandia_Calogeras
			allowed = { tag = BRA }
			available = {
				date > 1919.1.1
				date < 1932.1.1
				D_Minister_Allowed = yes
				NOT = { has_country_flag = Joao_Pandia_Calogeras_unavailable }
			}
			
			
			traits = { ideology_D CoStaff_School_Of_Manoeuvre }
		}
	# Fernando Setembrino de Carvalho
		BRA_CoStaff_Fernando_Setembrino_de_Carvalho = {
			picture = Fernando_Setembrino_de_Carvalho
			allowed = { tag = BRA }
			available = {
				date > 1922.1.1
				date < 1932.1.1
				D_Minister_Allowed = yes
				NOT = { has_country_flag = Fernando_Setembrino_de_Carvalho_unavailable }
			}
			
			
			traits = { ideology_D CoStaff_School_Of_Defence }
		}
	# Eurico Gaspar Dutra
		BRA_CoStaff_Eurico_Gaspar_Dutra_2 = {
			picture = Eurico_Gaspar_Dutra_2
			allowed = { tag = BRA }
			available = {
				date > 1943.1.1
				date < 1964.1.1
				D_Minister_Allowed = yes
				NOT = { has_country_flag = Eurico_Gaspar_Dutra_unavailable }
			}
			
			
			traits = { ideology_D CoStaff_School_Of_Mass_Combat }
		}
	# Joao Neves da Fontoura
		BRA_CoStaff_Joao_Neves_da_Fontoura = {
			picture = Joao_Neves_da_Fontoura
			allowed = { tag = BRA }
			available = {
				date > 1945.1.1
				date < 1964.1.1
				D_Minister_Allowed = yes
				NOT = { has_country_flag = Joao_Neves_da_Fontoura_unavailable }
			}
			
			
			traits = { ideology_D CoStaff_School_Of_Defence }
		}
	# Amaury Kruel
		BRA_CoStaff_Amaury_Kruel = {
			picture = Amaury_Kruel
			allowed = { tag = BRA }
			available = {
				date > 1951.1.1
				date < 1964.1.1
				D_Minister_Allowed = yes
				NOT = { has_country_flag = Amaury_Kruel_unavailable }
			}
			
			
			traits = { ideology_D CoStaff_School_Of_Manoeuvre }
		}
	# Henrique Teixeira Lott
		BRA_CoStaff_Henrique_Teixeira_Lott = {
			picture = Henrique_Teixeira_Lott
			allowed = { tag = BRA }
			available = {
				date > 1937.1.1
				date < 1964.1.1
				D_Minister_Allowed = yes
				NOT = { has_country_flag = Henrique_Teixeira_Lott_unavailable }
			}
			
			
			traits = { ideology_D CoStaff_School_Of_Fire_Support }
		}
	# Argemiro Assis
		BRA_CoStaff_Argemiro_Assis = {
			picture = Argemiro_Assis
			allowed = { tag = BRA }
			available = {
				date > 1939.1.1
				date < 1964.1.1
				D_Minister_Allowed = yes
				NOT = { has_country_flag = Argemiro_Assis_unavailable }
			}
			
			
			traits = { ideology_D CoStaff_School_Of_Defence }
		}
	# Augusto da Gama Leiros
		BRA_CoStaff_Augusto_da_Gama_Leiros = {
			picture = Augusto_da_Gama_Leiros
			allowed = { tag = BRA }
			available = {
				date > 1943.1.1
				date < 1964.1.1
				D_Minister_Allowed = yes
				NOT = { has_country_flag = Augusto_da_Gama_Leiros_unavailable }
			}
			
			
			traits = { ideology_D CoStaff_School_Of_Manoeuvre }
		}
	# Mesquito da Costa
		BRA_CoStaff_Mesquito_da_Costa = {
			picture = Mesquito_da_Costa
			allowed = { tag = BRA }
			available = {
				date > 1945.1.1
				date < 1964.1.1
				D_Minister_Allowed = yes
				NOT = { has_country_flag = Mesquito_da_Costa_unavailable }
			}
			
			
			traits = { ideology_D CoStaff_School_Of_Mass_Combat }
		}
	# Nero Fiuza de Castro
		BRA_CoStaff_Nero_Fiuza_de_Castro = {
			picture = Nero_Fiuza_de_Castro
			allowed = { tag = BRA }
			available = {
				date > 1945.1.1
				date < 1964.1.1
				D_Minister_Allowed = yes
				NOT = { has_country_flag = Nero_Fiuza_de_Castro_unavailable }
			}
			
			
			traits = { ideology_D CoStaff_School_Of_Mass_Combat }
		}
	# Magalhães Barata de Azevedo
		BRA_CoStaff_Magalhaes_Barata_de_Azevedo = {
			picture = Magalhaes_Barata_de_Azevedo
			allowed = { tag = BRA }
			available = {
				date > 1943.1.1
				date < 1964.1.1
				S_Minister_Allowed = yes
				NOT = { has_country_flag = Magalhaes_Barata_de_Azevedo_unavailable }
			}
			
			
			traits = { ideology_S CoStaff_School_Of_Manoeuvre }
		}
	# Luis Carlos Prestes
		BRA_CoStaff_Luis_Carlos_Prestes = {
			picture = Luis_Carlos_Prestes
			allowed = { tag = BRA }
			available = {
				date > 1939.1.1
				date < 1964.1.1
				C_Minister_Allowed = yes
				NOT = { has_country_flag = Luis_Carlos_Prestes_unavailable }
			}
			
			
			traits = { ideology_C CoStaff_School_Of_Mass_Combat }
		}
}
#################################################
### Chief of Army
#################################################
	Chief_of_Army = {
	# Tomas Sebistao de Mendonca
		BRA_CoArmy_Tomas_Sebistao_de_Mendonca = {
			picture = Tomas_Sebistao_de_Mendonca
			allowed = { tag = BRA }
			available = {
				date > 1937.1.1
				date < 1964.1.1
				F_Minister_Allowed = yes
				NOT = { has_country_flag = Tomas_Sebistao_de_Mendonca_unavailable }
			}
			
			
			traits = { ideology_F CoArmy_Guns_And_Butter_Doctrine }
		}
	# Newton Cavalcanti
		BRA_CoArmy_Newton_Cavalcanti = {
			picture = Newton_Cavalcanti
			allowed = { tag = BRA }
			available = {
				date > 1943.1.1
				date < 1964.1.1
				F_Minister_Allowed = yes
				NOT = { has_country_flag = Newton_Cavalcanti_unavailable }
			}
			
			
			traits = { ideology_F CoArmy_Decisive_Battle_Doctrine }
		}
	# Walter Pires
		BRA_CoArmy_Walter_Pires = {
			picture = Walter_Pires
			allowed = { tag = BRA }
			available = {
				date > 1980.1.1
				date < 1991.1.1
				F_Minister_Allowed = yes
				NOT = { has_country_flag = Walter_Pires_unavailable }
			}
			
			
			traits = { ideology_F CoArmy_Static_Defence_Doctrine }
		}
	# Joao Neves da Fontoura
		BRA_CoArmy_Joao_Neves_da_Fontoura = {
			picture = Joao_Neves_da_Fontoura
			allowed = { tag = BRA }
			available = {
				date > 1933.1.1
				date < 1964.1.1
				A_Minister_Allowed = yes
				NOT = { has_country_flag = Joao_Neves_da_Fontoura_unavailable }
			}
			
			
			traits = { ideology_A CoArmy_Static_Defence_Doctrine }
		}
	# João Figueiredo
		BRA_CoArmy_Joao_Figueiredo = {
			picture = Joao_Figueiredo
			allowed = { tag = BRA }
			available = {
				date > 1980.1.1
				date < 2000.1.1
				A_Minister_Allowed = yes
				NOT = { has_country_flag = Joao_Figueiredo_unavailable }
			}
			
			
			traits = { ideology_A CoArmy_Guns_And_Butter_Doctrine }
		}
	# Hermes Rodrigues da Fonseca
		BRA_CoArmy_Hermes_Rodrigues_da_Fonseca = {
			picture = Hermes_Rodrigues_da_Fonseca
			allowed = { tag = BRA }
			available = {
				date > 1906.1.1
				date < 1923.1.1
				D_Minister_Allowed = yes
				NOT = { has_country_flag = Hermes_Rodrigues_da_Fonseca_unavailable }
			}
			
			
			traits = { ideology_D CoArmy_Armoured_Spearhead_Doctrine }
		}
	# Luís Mendes de Morais
		BRA_CoArmy_Luis_Mendes_de_Morais = {
			picture = Luis_Mendes_de_Morais
			allowed = { tag = BRA }
			available = {
				date > 1908.1.1
				date < 1914.1.1
				D_Minister_Allowed = yes
				NOT = { has_country_flag = Luis_Mendes_de_Morais_unavailable }
			}
			
			
			traits = { ideology_D CoArmy_Guns_And_Butter_Doctrine }
		}
	# Carlos Eugênio de Andrade Guimarães
		BRA_CoArmy_Carlos_Eugenio_de_Andrade_Guimaraes = {
			picture = Carlos_Eugenio_de_Andrade_Guimaraes
			allowed = { tag = BRA }
			available = {
				date > 1909.1.1
				date < 1920.1.1
				D_Minister_Allowed = yes
				NOT = { has_country_flag = Carlos_Eugenio_de_Andrade_Guimaraes_unavailable }
			}
			
			
			traits = { ideology_D CoArmy_Static_Defence_Doctrine }
		}
	# José Bernardino Bormann
		BRA_CoArmy_Jose_Bernardino_Bormann = {
			picture = Jose_Bernardino_Bormann
			allowed = { tag = BRA }
			available = {
				date > 1909.1.1
				date < 1919.1.1
				D_Minister_Allowed = yes
				NOT = { has_country_flag = Jose_Bernardino_Bormann_unavailable }
			}
			
			
			traits = { ideology_D CoArmy_Decisive_Battle_Doctrine }
		}
	# Emídio Dantas Barreto
		BRA_CoArmy_Emidio_Dantas_Barreto = {
			picture = Emidio_Dantas_Barreto
			allowed = { tag = BRA }
			available = {
				date > 1910.1.1
				date < 1932.1.1
				D_Minister_Allowed = yes
				NOT = { has_country_flag = Emidio_Dantas_Barreto_unavailable }
			}
			
			
			traits = { ideology_D CoArmy_Elastic_Defence_Doctrine }
		}
	# Antônio Adolfo da Fontoura Mena Barreto
		BRA_CoArmy_Antonio_Adolfo_da_Fontoura_Mena_Barreto = {
			picture = Antonio_Adolfo_da_Fontoura_Mena_Barreto
			allowed = { tag = BRA }
			available = {
				date > 1911.1.1
				date < 1923.1.1
				D_Minister_Allowed = yes
				NOT = { has_country_flag = Antonio_Adolfo_da_Fontoura_Mena_Barreto_unavailable }
			}
			
			
			traits = { ideology_D CoArmy_Static_Defence_Doctrine }
		}
	# Vespasiano Gonçalves de Albuquerque e Silva
		BRA_CoArmy_Vespasiano_Goncalves_de_Albuquerque_e_Silva = {
			picture = Vespasiano_Goncalves_de_Albuquerque_e_Silva
			allowed = { tag = BRA }
			available = {
				date > 1912.1.1
				date < 1924.1.1
				D_Minister_Allowed = yes
				NOT = { has_country_flag = Vespasiano_Goncalves_de_Albuquerque_e_Silva_unavailable }
			}
			
			
			traits = { ideology_D CoArmy_Guns_And_Butter_Doctrine }
		}
	# José Caetano de Faria
		BRA_CoArmy_Jose_Caetano_de_Faria = {
			picture = Jose_Caetano_de_Faria
			allowed = { tag = BRA }
			available = {
				date > 1914.1.1
				date < 1920.1.1
				D_Minister_Allowed = yes
				NOT = { has_country_flag = Jose_Caetano_de_Faria_unavailable }
			}
			
			
			traits = { ideology_D CoArmy_Elastic_Defence_Doctrine }
		}
	# Alberto Cardoso de Aguiar
		BRA_CoArmy_Alberto_Cardoso_de_Aguiar = {
			picture = Alberto_Cardoso_de_Aguiar
			allowed = { tag = BRA }
			available = {
				date > 1918.1.1
				date < 1932.1.1
				D_Minister_Allowed = yes
				NOT = { has_country_flag = Alberto_Cardoso_de_Aguiar_unavailable }
			}
			
			
			traits = { ideology_D CoArmy_Decisive_Battle_Doctrine }
		}
	# João Pandiá Calógeras
		BRA_CoArmy_Joao_Pandia_Calogeras = {
			picture = Joao_Pandia_Calogeras
			allowed = { tag = BRA }
			available = {
				date > 1919.1.1
				date < 1932.1.1
				D_Minister_Allowed = yes
				NOT = { has_country_flag = Joao_Pandia_Calogeras_unavailable }
			}
			
			
			traits = { ideology_D CoArmy_Static_Defence_Doctrine }
		}
	# Fernando Setembrino de Carvalho
		BRA_CoArmy_Fernando_Setembrino_de_Carvalho = {
			picture = Fernando_Setembrino_de_Carvalho
			allowed = { tag = BRA }
			available = {
				date > 1922.1.1
				date < 1932.1.1
				D_Minister_Allowed = yes
				NOT = { has_country_flag = Fernando_Setembrino_de_Carvalho_unavailable }
			}
			
			
			traits = { ideology_D CoArmy_Armoured_Spearhead_Doctrine }
		}
	# Goes Monteiro
		BRA_CoArmy_Goes_Monteiro = {
			picture = Goes_Monteiro
			allowed = { tag = BRA }
			available = {
				date > 1943.1.1
				date < 1964.1.1
				D_Minister_Allowed = yes
				NOT = { has_country_flag = Goes_Monteiro_unavailable }
			}
			
			
			traits = { ideology_D CoArmy_Guns_And_Butter_Doctrine }
		}
	# Eurico Gaspar Dutra
		BRA_CoArmy_Eurico_Gaspar_Dutra_2 = {
			picture = Eurico_Gaspar_Dutra_2
			allowed = { tag = BRA }
			available = {
				date > 1945.1.1
				date < 1964.1.1
				D_Minister_Allowed = yes
				NOT = { has_country_flag = Eurico_Gaspar_Dutra_unavailable }
			}
			
			
			traits = { ideology_D CoArmy_Static_Defence_Doctrine }
		}
	# Artur da Costa é Silva
		BRA_CoArmy_Artur_da_Costa_e_Silva = {
			picture = Artur_da_Costa_e_Silva
			allowed = { tag = BRA }
			available = {
				date > 1951.1.1
				date < 1964.1.1
				D_Minister_Allowed = yes
				NOT = { has_country_flag = Artur_da_Costa_e_Silva_unavailable }
			}
			
			
			traits = { ideology_D CoArmy_Decisive_Battle_Doctrine }
		}
	# Henrique Teixeira Lott
		BRA_CoArmy_Henrique_Teixeira_Lott = {
			picture = Henrique_Teixeira_Lott
			allowed = { tag = BRA }
			available = {
				date > 1937.1.1
				date < 1964.1.1
				D_Minister_Allowed = yes
				NOT = { has_country_flag = Henrique_Teixeira_Lott_unavailable }
			}
			
			
			traits = { ideology_D CoArmy_Decisive_Battle_Doctrine }
		}
	# Argemiro Assis
		BRA_CoArmy_Argemiro_Assis = {
			picture = Argemiro_Assis
			allowed = { tag = BRA }
			available = {
				date > 1939.1.1
				date < 1964.1.1
				D_Minister_Allowed = yes
				NOT = { has_country_flag = Argemiro_Assis_unavailable }
			}
			
			
			traits = { ideology_D CoArmy_Static_Defence_Doctrine }
		}
	# Augusto da Gama Leiros
		BRA_CoArmy_Augusto_da_Gama_Leiros = {
			picture = Augusto_da_Gama_Leiros
			allowed = { tag = BRA }
			available = {
				date > 1943.1.1
				date < 1964.1.1
				D_Minister_Allowed = yes
				NOT = { has_country_flag = Augusto_da_Gama_Leiros_unavailable }
			}
			
			
			traits = { ideology_D CoArmy_Armoured_Spearhead_Doctrine }
		}
	# Mesquito da Costa
		BRA_CoArmy_Mesquito_da_Costa = {
			picture = Mesquito_da_Costa
			allowed = { tag = BRA }
			available = {
				date > 1945.1.1
				date < 1964.1.1
				D_Minister_Allowed = yes
				NOT = { has_country_flag = Mesquito_da_Costa_unavailable }
			}
			
			
			traits = { ideology_D CoArmy_Elastic_Defence_Doctrine }
		}
	# Magalhães Barata de Azevedo
		BRA_CoArmy_Magalhaes_Barata_de_Azevedo = {
			picture = Magalhaes_Barata_de_Azevedo
			allowed = { tag = BRA }
			available = {
				date > 1939.1.1
				date < 1964.1.1
				D_Minister_Allowed = yes
				NOT = { has_country_flag = Magalhaes_Barata_de_Azevedo_unavailable }
			}
			
			
			traits = { ideology_D CoArmy_Armoured_Spearhead_Doctrine }
		}
	# Nero Fiuza de Castro
		BRA_CoArmy_Nero_Fiuza_de_Castro = {
			picture = Nero_Fiuza_de_Castro
			allowed = { tag = BRA }
			available = {
				date > 1945.1.1
				date < 1964.1.1
				D_Minister_Allowed = yes
				NOT = { has_country_flag = Nero_Fiuza_de_Castro_unavailable }
			}
			
			
			traits = { ideology_D CoArmy_Elastic_Defence_Doctrine }
		}
	# Eurico Gaspar Dutra
		BRA_CoArmy_Eurico_Gaspar_Dutra = {
			picture = Eurico_Gaspar_Dutra
			allowed = { tag = BRA }
			available = {
				date > 1937.1.1
				date < 1964.1.1
				S_Minister_Allowed = yes
				NOT = { has_country_flag = Eurico_Gaspar_Dutra_unavailable }
			}
			
			
			traits = { ideology_S CoArmy_Static_Defence_Doctrine }
		}
	# Silo Meireles
		BRA_CoArmy_Silo_Meireles = {
			picture = Silo_Meireles
			allowed = { tag = BRA }
			available = {
				date > 1943.1.1
				date < 1964.1.1
				S_Minister_Allowed = yes
				NOT = { has_country_flag = Silo_Meireles_unavailable }
			}
			
			
			traits = { ideology_S CoArmy_Elastic_Defence_Doctrine }
		}
	# Mario da Silva Camargo
		BRA_CoArmy_Mario_da_Silva_Camargo = {
			picture = Mario_da_Silva_Camargo
			allowed = { tag = BRA }
			available = {
				date > 1941.1.1
				date < 1964.1.1
				C_Minister_Allowed = yes
				NOT = { has_country_flag = Mario_da_Silva_Camargo_unavailable }
			}
			
			
			traits = { ideology_C CoArmy_Guns_And_Butter_Doctrine }
		}
}
#################################################
### Chief of Navy
#################################################
	Chief_of_Navy = {
	# Tarcisio Padilha
		BRA_CoNavy_Tarcisio_Padilha = {
			picture = Tarcisio_Padilha
			allowed = { tag = BRA }
			available = {
				date > 1937.1.1
				date < 1964.1.1
				F_Minister_Allowed = yes
				NOT = { has_country_flag = Tarcisio_Padilha_unavailable }
			}
			
			
			traits = { ideology_F CoNavy_Decisive_Naval_Battle_Doctrine }
		}
	# Alfredo Karam
		BRA_CoNavy_Alfredo_Karam = {
			picture = Alfredo_Karam
			allowed = { tag = BRA }
			available = {
				date > 1980.1.1
				date < 2020.1.1
				A_Minister_Allowed = yes
				NOT = { has_country_flag = Alfredo_Karam_unavailable }
			}
			
			
			traits = { ideology_A CoNavy_Open_Seas_Doctrine }
		}
	# Alexandrino Faria de Alencar
		BRA_CoNavy_Alexandrino_Faria_de_Alencar = {
			picture = Alexandrino_Faria_de_Alencar
			allowed = { tag = BRA }
			available = {
				date > 1906.1.1
				date < 1926.1.1
				D_Minister_Allowed = yes
				NOT = { has_country_flag = Alexandrino_Faria_de_Alencar_unavailable }
			}
			
			
			traits = { ideology_D CoNavy_Decisive_Naval_Battle_Doctrine }
		}
	# Joaquim Marques Batista de Leão
		BRA_CoNavy_Joaquim_Marques_Batista_de_Leao = {
			picture = Joaquim_Marques_Batista_de_Leao
			allowed = { tag = BRA }
			available = {
				date > 1910.1.1
				date < 1913.1.1
				D_Minister_Allowed = yes
				NOT = { has_country_flag = Joaquim_Marques_Batista_de_Leao_unavailable }
			}
			
			
			traits = { ideology_D CoNavy_Base_Control_Doctrine }
		}
	# Manuel Inácio Belfort Vieira
		BRA_CoNavy_Manuel_Inacio_Belfort_Vieira = {
			picture = Manuel_Inacio_Belfort_Vieira
			allowed = { tag = BRA }
			available = {
				date > 1912.1.1
				date < 1913.1.1
				D_Minister_Allowed = yes
				NOT = { has_country_flag = Manuel_Inacio_Belfort_Vieira_unavailable }
			}
			
			
			traits = { ideology_D CoNavy_Power_Projection_Doctrine }
		}
	# Vespasiano Gonçalves de Albuquerque e Silva
		BRA_CoNavy_Vespasiano_Goncalves_de_Albuquerque_e_Silva = {
			picture = Vespasiano_Goncalves_de_Albuquerque_e_Silva
			allowed = { tag = BRA }
			available = {
				date > 1913.1.1
				date < 1924.1.1
				D_Minister_Allowed = yes
				NOT = { has_country_flag = Vespasiano_Goncalves_de_Albuquerque_e_Silva_unavailable }
			}
			
			
			traits = { ideology_D CoNavy_Open_Seas_Doctrine }
		}
	# Antônio Coutinho Gomes Pereira
		BRA_CoNavy_Antonio_Coutinho_Gomes_Pereira = {
			picture = Antonio_Coutinho_Gomes_Pereira
			allowed = { tag = BRA }
			available = {
				date > 1918.1.1
				date < 1926.1.1
				D_Minister_Allowed = yes
				NOT = { has_country_flag = Antonio_Coutinho_Gomes_Pereira_unavailable }
			}
			
			
			traits = { ideology_D CoNavy_Decisive_Naval_Battle_Doctrine }
		}
	# Raul Soares de Moura
		BRA_CoNavy_Raul_Soares_de_Moura = {
			picture = Raul_Soares_de_Moura
			allowed = { tag = BRA }
			available = {
				date > 1919.1.1
				date < 1924.1.1
				D_Minister_Allowed = yes
				NOT = { has_country_flag = Raul_Soares_de_Moura_unavailable }
			}
			
			
			traits = { ideology_D CoNavy_Base_Control_Doctrine }
		}
	# Joaquim Ferreira Chaves Filho
		BRA_CoNavy_Joaquim_Ferreira_Chaves_Filho = {
			picture = Joaquim_Ferreira_Chaves_Filho
			allowed = { tag = BRA }
			available = {
				date > 1920.1.1
				date < 1932.1.1
				D_Minister_Allowed = yes
				NOT = { has_country_flag = Joaquim_Ferreira_Chaves_Filho_unavailable }
			}
			
			
			traits = { ideology_D CoNavy_Indirect_Approach_Doctrine }
		}
	# João Pedro da Veiga Miranda
		BRA_CoNavy_Joao_Pedro_da_Veiga_Miranda = {
			picture = Joao_Pedro_da_Veiga_Miranda
			allowed = { tag = BRA }
			available = {
				date > 1921.1.1
				date < 1932.1.1
				D_Minister_Allowed = yes
				NOT = { has_country_flag = Joao_Pedro_da_Veiga_Miranda_unavailable }
			}
			
			
			traits = { ideology_D CoNavy_Open_Seas_Doctrine }
		}
	# Sylvio de Noronha
		BRA_CoNavy_Sylvio_de_Noronha = {
			picture = Sylvio_de_Noronha
			allowed = { tag = BRA }
			available = {
				date > 1943.1.1
				date < 1964.1.1
				D_Minister_Allowed = yes
				NOT = { has_country_flag = Sylvio_de_Noronha_unavailable }
			}
			
			
			traits = { ideology_D CoNavy_Open_Seas_Doctrine }
		}
	# Floriano Peixoto
		BRA_CoNavy_Floriano_Peixoto = {
			picture = Floriano_Peixoto
			allowed = { tag = BRA }
			available = {
				date > 1945.1.1
				date < 1964.1.1
				D_Minister_Allowed = yes
				NOT = { has_country_flag = Floriano_Peixoto_unavailable }
			}
			
			
			traits = { ideology_D CoNavy_Decisive_Naval_Battle_Doctrine }
		}
	# Jorge Martins
		BRA_CoNavy_Jorge_Martins = {
			picture = Jorge_Martins
			allowed = { tag = BRA }
			available = {
				date > 1937.1.1
				date < 1964.1.1
				D_Minister_Allowed = yes
				NOT = { has_country_flag = Jorge_Martins_unavailable }
			}
			
			
			traits = { ideology_D CoNavy_Base_Control_Doctrine }
		}
	# Aristides Guilhem
		BRA_CoNavy_Aristides_Guilhem = {
			picture = Aristides_Guilhem
			allowed = { tag = BRA }
			available = {
				date > 1933.1.1
				date < 1964.1.1
				D_Minister_Allowed = yes
				NOT = { has_country_flag = Aristides_Guilhem_unavailable }
			}
			
			
			traits = { ideology_D CoNavy_Open_Seas_Doctrine }
		}
	# Moreira Lima
		BRA_CoNavy_Moreira_Lima = {
			picture = Moreira_Lima
			allowed = { tag = BRA }
			available = {
				date > 1939.1.1
				date < 1964.1.1
				D_Minister_Allowed = yes
				NOT = { has_country_flag = Moreira_Lima_unavailable }
			}
			
			
			traits = { ideology_D CoNavy_Power_Projection_Doctrine }
		}
	# Alvaro de Souza
		BRA_CoNavy_Alvaro_de_Souza = {
			picture = Alvaro_de_Souza
			allowed = { tag = BRA }
			available = {
				date > 1937.1.1
				date < 1964.1.1
				S_Minister_Allowed = yes
				NOT = { has_country_flag = Alvaro_de_Souza_unavailable }
			}
			
			
			traits = { ideology_S CoNavy_Indirect_Approach_Doctrine }
		}
}
#################################################
### Chief of Airforce
#################################################
	Chief_of_Airforce = {
	# Mourão Filho
		BRA_CoAir_Mourao_Filho = {
			picture = Mourao_Filho
			allowed = { tag = BRA }
			available = {
				date > 1937.1.1
				date < 1964.1.1
				F_Minister_Allowed = yes
				NOT = { has_country_flag = Mourao_Filho_unavailable }
			}
			
			
			traits = { ideology_F CoAir_Carpet_Bombing_Doctrine }
		}
	# Salgado Filho
		BRA_CoAir_Salgado_Filho = {
			picture = Salgado_Filho
			allowed = { tag = BRA }
			available = {
				date > 1933.1.1
				date < 1964.1.1
				A_Minister_Allowed = yes
				NOT = { has_country_flag = Salgado_Filho_unavailable }
			}
			
			
			traits = { ideology_A CoAir_Army_Aviation_Doctrine }
		}
	# Délio de Matos
		BRA_CoAir_Delio_de_Matos = {
			picture = Delio_de_Matos
			allowed = { tag = BRA }
			available = {
				date > 1980.1.1
				date < 1991.1.1
				A_Minister_Allowed = yes
				NOT = { has_country_flag = Delio_de_Matos_unavailable }
			}
			
			
			traits = { ideology_A CoAir_Army_Aviation_Doctrine }
		}
	# Alfredo Karam
		BRA_CoAir_Alfredo_Karam = {
			picture = Alfredo_Karam
			allowed = { tag = BRA }
			available = {
				date > 1980.1.1
				date < 2020.1.1
				A_Minister_Allowed = yes
				NOT = { has_country_flag = Alfredo_Karam_unavailable }
			}
			
			
			traits = { ideology_A CoAir_Naval_Aviation_Doctrine }
		}
	# José Carlos de Carvalho
		BRA_CoAir_Jose_Carlos_de_Carvalho = {
			picture = Jose_Carlos_de_Carvalho
			allowed = { tag = BRA }
			available = {
				date > 1911.1.1
				date < 1912.1.1
				D_Minister_Allowed = yes
				NOT = { has_country_flag = Jose_Carlos_de_Carvalho_unavailable }
			}
			
			
			traits = { ideology_D CoAir_Army_Aviation_Doctrine }
		}
	# Ricardo Kirk
		BRA_CoAir_Ricardo_Kirk = {
			picture = Ricardo_Kirk
			allowed = { tag = BRA }
			available = {
				date > 1912.1.1
				date < 1915.1.1
				D_Minister_Allowed = yes
				NOT = { has_country_flag = Ricardo_Kirk_unavailable }
			}
			
			
			traits = { ideology_D CoAir_Carpet_Bombing_Doctrine }
		}
	# Bento Ribeiro Filho
		BRA_CoAir_Bento_Ribeiro_Filho = {
			picture = Bento_Ribeiro_Filho
			allowed = { tag = BRA }
			available = {
				date > 1916.1.1
				date < 1932.1.1
				D_Minister_Allowed = yes
				NOT = { has_country_flag = Bento_Ribeiro_Filho_unavailable }
			}
			
			
			traits = { ideology_D CoAir_Air_Superiority_Doctrine }
		}
	# Figueira de Almeida
		BRA_CoAir_Figueira_de_Almeida = {
			picture = Figueira_de_Almeida
			allowed = { tag = BRA }
			available = {
				date > 1943.1.1
				date < 1964.1.1
				D_Minister_Allowed = yes
				NOT = { has_country_flag = Figueira_de_Almeida_unavailable }
			}
			
			
			traits = { ideology_D CoAir_Army_Aviation_Doctrine }
		}
	# Eduardo Gomés
		BRA_CoAir_Eduardo_Gomes = {
			picture = Eduardo_Gomes
			allowed = { tag = BRA }
			available = {
				date > 1945.1.1
				date < 1964.1.1
				D_Minister_Allowed = yes
				NOT = { has_country_flag = Eduardo_Gomes_unavailable }
			}
			
			
			traits = { ideology_D CoAir_Army_Aviation_Doctrine }
		}
	# Ismael Motta Paes
		BRA_CoAir_Ismael_Motta_Paes = {
			picture = Ismael_Motta_Paes
			allowed = { tag = BRA }
			available = {
				date > 1945.1.1
				date < 1964.1.1
				D_Minister_Allowed = yes
				NOT = { has_country_flag = Ismael_Motta_Paes_unavailable }
			}
			
			
			traits = { ideology_D CoAir_Air_Superiority_Doctrine }
		}
	# Nero Moura
		BRA_CoAir_Nero_Moura = {
			picture = Nero_Moura
			allowed = { tag = BRA }
			available = {
				date > 1937.1.1
				date < 1964.1.1
				D_Minister_Allowed = yes
				NOT = { has_country_flag = Nero_Moura_unavailable }
			}
			
			
			traits = { ideology_D CoAir_Vertical_Envelopment_Doctrine }
		}
	# Epaminondas dos Santos
		BRA_CoAir_Epaminondas_dos_Santos = {
			picture = Epaminondas_dos_Santos
			allowed = { tag = BRA }
			available = {
				date > 1943.1.1
				date < 1964.1.1
				S_Minister_Allowed = yes
				NOT = { has_country_flag = Epaminondas_dos_Santos_unavailable }
			}
			
			
			traits = { ideology_S CoAir_Air_Superiority_Doctrine }
		}
	# Agliberto Vieira
		BRA_CoAir_Agliberto_Vieira = {
			picture = Agliberto_Vieira
			allowed = { tag = BRA }
			available = {
				date > 1939.1.1
				date < 1964.1.1
				C_Minister_Allowed = yes
				NOT = { has_country_flag = Agliberto_Vieira_unavailable }
			}
			
			
			traits = { ideology_C CoAir_Naval_Aviation_Doctrine }
		}
	# Leonel Benevides de Rezende
		BRA_CoAir_Leonel_Benevides_de_Rezende = {
			picture = Leonel_Benevides_de_Rezende
			allowed = { tag = BRA }
			available = {
				date > 1944.1.1
				date < 1964.1.1
				C_Minister_Allowed = yes
				NOT = { has_country_flag = Leonel_Benevides_de_Rezende_unavailable }
			}
			
			
			traits = { ideology_C CoAir_Vertical_Envelopment_Doctrine }
		}
	}
}
