ideas = {
#################################################
### Head of Government
#################################################
	Head_of_Government = {
	# Georgias Tsolakoglou
		GRE_HoG_Georgias_Tsolakoglou = {
			picture = Georgias_Tsolakoglou
			allowed = { tag = GRE }
			available = {
				date > 1941.1.1
				date < 1964.1.1
				F_Minister_Allowed = yes
				NOT = { has_country_flag = Georgias_Tsolakoglou_unavailable }
			}
			
			
			traits = { ideology_F HoG_Old_General }
		}
	# Konstantinos Logothetopoulos
		GRE_HoG_Konstantinos_Logothetopoulos = {
			picture = Konstantinos_Logothetopoulos
			allowed = { tag = GRE }
			available = {
				date > 1942.1.1
				date < 1964.1.1
				F_Minister_Allowed = yes
				NOT = { has_country_flag = Konstantinos_Logothetopoulos_unavailable }
			}
			
			
			traits = { ideology_F HoG_Corporate_Suit }
		}
	# Ioannis Rallis
		GRE_HoG_Ioannis_Rallis = {
			picture = Ioannis_Rallis
			allowed = { tag = GRE }
			available = {
				date > 1943.1.1
				date < 1964.1.1
				F_Minister_Allowed = yes
				NOT = { has_country_flag = Ioannis_Rallis_unavailable }
			}
			
			
			traits = { ideology_F HoG_Naive_Optimist }
		}
	# Panagis Tsaldaris
		GRE_HoG_Panagis_Tsaldaris = {
			picture = Panagis_Tsaldaris
			allowed = { tag = GRE }
			available = {
				date > 1933.1.1
				date < 1964.1.1
				F_Minister_Allowed = yes
				NOT = { has_country_flag = Panagis_Tsaldaris_unavailable }
			}
			
			
			traits = { ideology_F HoG_Flamboyant_Tough_Guy }
		}
	# Georgios Papadopoulos
		GRE_HoG_Georgios_Papadopoulos = {
			picture = Georgios_Papadopoulos
			allowed = { tag = GRE }
			available = {
				date > 1968.1.1
				date < 2000.1.1
				F_Minister_Allowed = yes
				NOT = { has_country_flag = Georgios_Papadopoulos_unavailable }
			}
			
			
			traits = { ideology_F HoG_Ambitious_Union_Boss }
		}
	# Adamantios Androutsopoulos
		GRE_HoG_Adamantios_Androutsopoulos = {
			picture = Adamantios_Androutsopoulos
			allowed = { tag = GRE }
			available = {
				date > 1973.1.1
				date < 2001.1.1
				F_Minister_Allowed = yes
				NOT = { has_country_flag = Adamantios_Androutsopoulos_unavailable }
			}
			
			
			traits = { ideology_F HoG_Flamboyant_Tough_Guy }
		}
	# Alexandros Zaimis
		GRE_HoG_Alexandros_Zaimis = {
			picture = Alexandros_Zaimis
			allowed = { tag = GRE }
			available = {
				date > 1915.1.1
				date < 1933.1.1
				A_Minister_Allowed = yes
				NOT = { has_country_flag = Alexandros_Zaimis_unavailable }
			}
			
			
			traits = { ideology_A HoG_Corporate_Suit }
		}
	# Nikolaos Kalogeropoulos
		GRE_HoG_Nikolaos_Kalogeropoulos = {
			picture = Nikolaos_Kalogeropoulos
			allowed = { tag = GRE }
			available = {
				date > 1916.1.1
				date < 1933.1.1
				A_Minister_Allowed = yes
				NOT = { has_country_flag = Nikolaos_Kalogeropoulos_unavailable }
			}
			
			
			traits = { ideology_A HoG_Silent_Workhorse }
		}
	# Spiridon Lambros
		GRE_HoG_Spiridon_Lambros = {
			picture = Spiridon_Lambros
			allowed = { tag = GRE }
			available = {
				date > 1916.1.1
				date < 1933.1.1
				A_Minister_Allowed = yes
				NOT = { has_country_flag = Spiridon_Lambros_unavailable }
			}
			
			
			traits = { ideology_A HoG_Political_Protege }
		}
	# Dimitrios Rallis
		GRE_HoG_Dimitrios_Rallis = {
			picture = Dimitrios_Rallis
			allowed = { tag = GRE }
			available = {
				date > 1920.1.1
				date < 1933.1.1
				A_Minister_Allowed = yes
				NOT = { has_country_flag = Dimitrios_Rallis_unavailable }
			}
			
			
			traits = { ideology_A HoG_Happy_Amateur }
		}
	# Anastasios Charalambis
		GRE_HoG_Anastasios_Charalambis = {
			picture = Anastasios_Charalambis
			allowed = { tag = GRE }
			available = {
				date > 1922.1.1
				date < 1933.1.1
				A_Minister_Allowed = yes
				NOT = { has_country_flag = Anastasios_Charalambis_unavailable }
			}
			
			
			traits = { ideology_A HoG_Silent_Workhorse }
		}
	# Sotirios Krokidas
		GRE_HoG_Sotirios_Krokidas = {
			picture = Sotirios_Krokidas
			allowed = { tag = GRE }
			available = {
				date > 1922.1.1
				date < 1933.1.1
				A_Minister_Allowed = yes
				NOT = { has_country_flag = Sotirios_Krokidas_unavailable }
			}
			
			
			traits = { ideology_A HoG_Flamboyant_Tough_Guy }
		}
	# Stylianos Gonatas
		GRE_HoG_Stylianos_Gonatas = {
			picture = Stylianos_Gonatas
			allowed = { tag = GRE }
			available = {
				date > 1922.1.1
				date < 1933.1.1
				A_Minister_Allowed = yes
				NOT = { has_country_flag = Stylianos_Gonatas_unavailable }
			}
			
			
			traits = { ideology_A HoG_Corporate_Suit }
		}
	# Konstantinos Demertzis
		GRE_HoG_Konstantinos_Demertzis = {
			picture = Konstantinos_Demertzis
			allowed = { tag = GRE }
			available = {
				date > 1933.1.1
				date < 1964.1.1
				A_Minister_Allowed = yes
				NOT = { has_country_flag = Konstantinos_Demertzis_unavailable }
			}
			
			
			traits = { ideology_A HoG_Naive_Optimist }
		}
	# Archbishop Damaskinos
		GRE_HoG_Archbishop_Damaskinos = {
			picture = Archbishop_Damaskinos
			allowed = { tag = GRE }
			available = {
				date > 1945.1.1
				date < 1964.1.1
				A_Minister_Allowed = yes
				NOT = { has_country_flag = Archbishop_Damaskinos_unavailable }
			}
			
			
			traits = { ideology_A HoG_Flamboyant_Tough_Guy }
		}
	# Nikolaos Plastiras
		GRE_HoG_Nikolaos_Plastiras = {
			picture = Nikolaos_Plastiras
			allowed = { tag = GRE }
			available = {
				date > 1945.1.1
				date < 1964.1.1
				A_Minister_Allowed = yes
				NOT = { has_country_flag = Nikolaos_Plastiras_unavailable }
			}
			
			
			traits = { ideology_A HoG_Old_General }
		}
	# Petros Voulgaris
		GRE_HoG_Petros_Voulgaris = {
			picture = Petros_Voulgaris
			allowed = { tag = GRE }
			available = {
				date > 1945.1.1
				date < 1964.1.1
				A_Minister_Allowed = yes
				NOT = { has_country_flag = Petros_Voulgaris_unavailable }
			}
			
			
			traits = { ideology_A HoG_Naive_Optimist }
		}
	# Panagiotis Kanellopoulos
		GRE_HoG_Panagiotis_Kanellopoulos = {
			picture = Panagiotis_Kanellopoulos
			allowed = { tag = GRE }
			available = {
				date > 1945.1.1
				date < 1964.1.1
				A_Minister_Allowed = yes
				NOT = { has_country_flag = Panagiotis_Kanellopoulos_unavailable }
			}
			
			
			traits = { ideology_A HoG_Smiling_Oilman }
		}
	# Konstantinos Karamanlis
		GRE_HoG_Konstantinos_Karamanlis = {
			picture = Konstantinos_Karamanlis
			allowed = { tag = GRE }
			available = {
				date > 1956.1.1
				date < 1999.1.1
				A_Minister_Allowed = yes
				NOT = { has_country_flag = Konstantinos_Karamanlis_unavailable }
			}
			
			
			traits = { ideology_A HoG_Ambitious_Union_Boss }
		}
	# Panagiotis Kanellopoulos
		GRE_HoG_Panagiotis_Kanellopoulos_2 = {
			picture = Panagiotis_Kanellopoulos_2
			allowed = { tag = GRE }
			available = {
				date > 1964.1.1
				date < 1987.1.1
				A_Minister_Allowed = yes
				NOT = { has_country_flag = Panagiotis_Kanellopoulos_unavailable }
			}
			
			
			traits = { ideology_A HoG_Smiling_Oilman }
		}
	# Stefanos Stefanopoulos
		GRE_HoG_Stefanos_Stefanopoulos = {
			picture = Stefanos_Stefanopoulos
			allowed = { tag = GRE }
			available = {
				date > 1965.1.1
				date < 1983.1.1
				A_Minister_Allowed = yes
				NOT = { has_country_flag = Stefanos_Stefanopoulos_unavailable }
			}
			
			
			traits = { ideology_A HoG_Happy_Amateur }
		}
	# Konstantinos Kollias
		GRE_HoG_Konstantinos_Kollias = {
			picture = Konstantinos_Kollias
			allowed = { tag = GRE }
			available = {
				date > 1967.1.1
				date < 1999.1.1
				A_Minister_Allowed = yes
				NOT = { has_country_flag = Konstantinos_Kollias_unavailable }
			}
			
			
			traits = { ideology_A HoG_Old_General }
		}
	# Ioannis Metaxas
		GRE_HoG_Ioannis_Metaxas = {
			picture = Ioannis_Metaxas
			allowed = { tag = GRE }
			available = {
				date > 1933.1.1
				date < 1964.1.1
				D_Minister_Allowed = yes
				NOT = { has_country_flag = Ioannis_Metaxas_unavailable }
			}
			
			
			traits = { ideology_D HoG_Old_General }
		}
	# Alexandros Korizis
		GRE_HoG_Alexandros_Korizis = {
			picture = Alexandros_Korizis
			allowed = { tag = GRE }
			available = {
				date > 1941.1.1
				date < 1964.1.1
				D_Minister_Allowed = yes
				NOT = { has_country_flag = Alexandros_Korizis_unavailable }
			}
			
			
			traits = { ideology_D HoG_Political_Protege }
		}
	# Emmanouel Tsouderos
		GRE_HoG_Emmanouel_Tsouderos = {
			picture = Emmanouel_Tsouderos
			allowed = { tag = GRE }
			available = {
				date > 1941.1.1
				date < 1964.1.1
				D_Minister_Allowed = yes
				NOT = { has_country_flag = Emmanouel_Tsouderos_unavailable }
			}
			
			
			traits = { ideology_D HoG_Happy_Amateur }
		}
	# Sophocles Venizelos
		GRE_HoG_Sophocles_Venizelos = {
			picture = Sophocles_Venizelos
			allowed = { tag = GRE }
			available = {
				date > 1944.1.1
				date < 1964.1.1
				D_Minister_Allowed = yes
				NOT = { has_country_flag = Sophocles_Venizelos_unavailable }
			}
			
			
			traits = { ideology_D HoG_Naive_Optimist }
		}
	# Konstantinos Tsaldaris
		GRE_HoG_Konstantinos_Tsaldaris = {
			picture = Konstantinos_Tsaldaris
			allowed = { tag = GRE }
			available = {
				date > 1946.1.1
				date < 1964.1.1
				D_Minister_Allowed = yes
				NOT = { has_country_flag = Konstantinos_Tsaldaris_unavailable }
			}
			
			
			traits = { ideology_D HoG_Old_General }
		}
	# Dimitrios Maximos
		GRE_HoG_Dimitrios_Maximos = {
			picture = Dimitrios_Maximos
			allowed = { tag = GRE }
			available = {
				date > 1947.1.1
				date < 1964.1.1
				D_Minister_Allowed = yes
				NOT = { has_country_flag = Dimitrios_Maximos_unavailable }
			}
			
			
			traits = { ideology_D HoG_Political_Protege }
		}
	# Konstantinos Tsaldaris
		GRE_HoG_Konstantinos_Tsaldaris_2 = {
			picture = Konstantinos_Tsaldaris_2
			allowed = { tag = GRE }
			available = {
				date > 1947.1.1
				date < 1964.1.1
				D_Minister_Allowed = yes
				NOT = { has_country_flag = Konstantinos_Tsaldaris_unavailable }
			}
			
			
			traits = { ideology_D HoG_Corporate_Suit }
		}
	# Dimitrios Kiousopoulos
		GRE_HoG_Dimitrios_Kiousopoulos = {
			picture = Dimitrios_Kiousopoulos
			allowed = { tag = GRE }
			available = {
				date > 1952.1.1
				date < 1964.1.1
				D_Minister_Allowed = yes
				NOT = { has_country_flag = Dimitrios_Kiousopoulos_unavailable }
			}
			
			
			traits = { ideology_D HoG_Smiling_Oilman }
		}
	# Alexandros Papagos
		GRE_HoG_Alexandros_Papagos = {
			picture = Alexandros_Papagos
			allowed = { tag = GRE }
			available = {
				date > 1952.1.1
				date < 1964.1.1
				D_Minister_Allowed = yes
				NOT = { has_country_flag = Alexandros_Papagos_unavailable }
			}
			
			
			traits = { ideology_D HoG_Old_General }
		}
	# Georgios Rallis
		GRE_HoG_Georgios_Rallis = {
			picture = Georgios_Rallis
			allowed = { tag = GRE }
			available = {
				date > 1980.1.1
				date < 2006.1.1
				D_Minister_Allowed = yes
				NOT = { has_country_flag = Georgios_Rallis_unavailable }
			}
			
			
			traits = { ideology_D HoG_Happy_Amateur }
		}
	# Constantine Mitsotakis
		GRE_HoG_Constantine_Mitsotakis = {
			picture = Constantine_Mitsotakis
			allowed = { tag = GRE }
			available = {
				date > 1985.1.1
				date < 2020.1.1
				D_Minister_Allowed = yes
				NOT = { has_country_flag = Constantine_Mitsotakis_unavailable }
			}
			
			
			traits = { ideology_D HoG_Happy_Amateur }
		}
	# Eleftherios Venizelos
		GRE_HoG_Eleftherios_Venizelos = {
			picture = Eleftherios_Venizelos
			allowed = { tag = GRE }
			available = {
				date > 1910.1.1
				date < 1933.1.1
				D_Minister_Allowed = yes
				NOT = { has_country_flag = Eleftherios_Venizelos_unavailable }
			}
			
			
			traits = { ideology_D HoG_Flamboyant_Tough_Guy }
		}
	# Dimitrios Gounaris
		GRE_HoG_Dimitrios_Gounaris = {
			picture = Dimitrios_Gounaris
			allowed = { tag = GRE }
			available = {
				date > 1915.1.1
				date < 1933.1.1
				D_Minister_Allowed = yes
				NOT = { has_country_flag = Dimitrios_Gounaris_unavailable }
			}
			
			
			traits = { ideology_D HoG_Backroom_Backstabber }
		}
	# Nikolaos Stratos
		GRE_HoG_Nikolaos_Stratos = {
			picture = Nikolaos_Stratos
			allowed = { tag = GRE }
			available = {
				date > 1922.1.1
				date < 1933.1.1
				D_Minister_Allowed = yes
				NOT = { has_country_flag = Nikolaos_Stratos_unavailable }
			}
			
			
			traits = { ideology_D HoG_Political_Protege }
		}
	# Nikolaos Triantaphillakos
		GRE_HoG_Nikolaos_Triantaphillakos = {
			picture = Nikolaos_Triantaphillakos
			allowed = { tag = GRE }
			available = {
				date > 1922.1.1
				date < 1933.1.1
				D_Minister_Allowed = yes
				NOT = { has_country_flag = Nikolaos_Triantaphillakos_unavailable }
			}
			
			
			traits = { ideology_D HoG_Naive_Optimist }
		}
	# Petros Protopapadakis
		GRE_HoG_Petros_Protopapadakis = {
			picture = Petros_Protopapadakis
			allowed = { tag = GRE }
			available = {
				date > 1922.1.1
				date < 1933.1.1
				D_Minister_Allowed = yes
				NOT = { has_country_flag = Petros_Protopapadakis_unavailable }
			}
			
			
			traits = { ideology_D HoG_Happy_Amateur }
		}
	# Alexandros Papanastasiou
		GRE_HoG_Alexandros_Papanastasiou = {
			picture = Alexandros_Papanastasiou
			allowed = { tag = GRE }
			available = {
				date > 1924.1.1
				date < 1933.1.1
				D_Minister_Allowed = yes
				NOT = { has_country_flag = Alexandros_Papanastasiou_unavailable }
			}
			
			
			traits = { ideology_D HoG_Backroom_Backstabber }
		}
	# Andreas Michalakopoulos
		GRE_HoG_Andreas_Michalakopoulos = {
			picture = Andreas_Michalakopoulos
			allowed = { tag = GRE }
			available = {
				date > 1924.1.1
				date < 1933.1.1
				D_Minister_Allowed = yes
				NOT = { has_country_flag = Andreas_Michalakopoulos_unavailable }
			}
			
			
			traits = { ideology_D HoG_Ambitious_Union_Boss }
		}
	# Georgios Kaphantaris
		GRE_HoG_Georgios_Kaphantaris = {
			picture = Georgios_Kaphantaris
			allowed = { tag = GRE }
			available = {
				date > 1924.1.1
				date < 1933.1.1
				D_Minister_Allowed = yes
				NOT = { has_country_flag = Georgios_Kaphantaris_unavailable }
			}
			
			
			traits = { ideology_D HoG_Smiling_Oilman }
		}
	# Themistocles Sophoulis
		GRE_HoG_Themistocles_Sophoulis_3 = {
			picture = Themistocles_Sophoulis_3
			allowed = { tag = GRE }
			available = {
				date > 1924.1.1
				date < 1933.1.1
				D_Minister_Allowed = yes
				NOT = { has_country_flag = Themistocles_Sophoulis_unavailable }
			}
			
			
			traits = { ideology_D HoG_Happy_Amateur }
		}
	# Themistocles Sophoulis
		GRE_HoG_Themistocles_Sophoulis = {
			picture = Themistocles_Sophoulis
			allowed = { tag = GRE }
			available = {
				date > 1933.1.1
				date < 1964.1.1
				D_Minister_Allowed = yes
				NOT = { has_country_flag = Themistocles_Sophoulis_unavailable }
			}
			
			
			traits = { ideology_D HoG_Flamboyant_Tough_Guy }
		}
	# Georgios Papandreou
		GRE_HoG_Georgios_Papandreou = {
			picture = Georgios_Papandreou
			allowed = { tag = GRE }
			available = {
				date > 1944.1.1
				date < 1964.1.1
				D_Minister_Allowed = yes
				NOT = { has_country_flag = Georgios_Papandreou_unavailable }
			}
			
			
			traits = { ideology_D HoG_Silent_Workhorse }
		}
	# Panagiolis Poulitsas
		GRE_HoG_Panagiolis_Poulitsas = {
			picture = Panagiolis_Poulitsas
			allowed = { tag = GRE }
			available = {
				date > 1946.1.1
				date < 1964.1.1
				D_Minister_Allowed = yes
				NOT = { has_country_flag = Panagiolis_Poulitsas_unavailable }
			}
			
			
			traits = { ideology_D HoG_Smiling_Oilman }
		}
	# Themistocles Sophoulis
		GRE_HoG_Themistocles_Sophoulis_2 = {
			picture = Themistocles_Sophoulis_2
			allowed = { tag = GRE }
			available = {
				date > 1946.1.1
				date < 1964.1.1
				D_Minister_Allowed = yes
				NOT = { has_country_flag = Themistocles_Sophoulis_unavailable }
			}
			
			
			traits = { ideology_D HoG_Flamboyant_Tough_Guy }
		}
	# Alexandros Diomidis
		GRE_HoG_Alexandros_Diomidis = {
			picture = Alexandros_Diomidis
			allowed = { tag = GRE }
			available = {
				date > 1949.1.1
				date < 1964.1.1
				D_Minister_Allowed = yes
				NOT = { has_country_flag = Alexandros_Diomidis_unavailable }
			}
			
			
			traits = { ideology_D HoG_Political_Protege }
		}
	# Ioannis Theotokis
		GRE_HoG_Ioannis_Theotokis = {
			picture = Ioannis_Theotokis
			allowed = { tag = GRE }
			available = {
				date > 1950.1.1
				date < 1964.1.1
				D_Minister_Allowed = yes
				NOT = { has_country_flag = Ioannis_Theotokis_unavailable }
			}
			
			
			traits = { ideology_D HoG_Happy_Amateur }
		}
	# Ioannis Passalidis
		GRE_HoG_Ioannis_Passalidis = {
			picture = Ioannis_Passalidis
			allowed = { tag = GRE }
			available = {
				date > 1958.1.1
				date < 1969.1.1
				D_Minister_Allowed = yes
				NOT = { has_country_flag = Ioannis_Passalidis_unavailable }
			}
			
			
			traits = { ideology_D HoG_Ambitious_Union_Boss }
		}
	# Georgios Mavros
		GRE_HoG_Georgios_Mavros = {
			picture = Georgios_Mavros
			allowed = { tag = GRE }
			available = {
				date > 1974.1.1
				date < 1996.1.1
				D_Minister_Allowed = yes
				NOT = { has_country_flag = Georgios_Mavros_unavailable }
			}
			
			
			traits = { ideology_D HoG_Backroom_Backstabber }
		}
	# Andreas Papandreou
		GRE_HoG_Andreas_Papandreou = {
			picture = Andreas_Papandreou
			allowed = { tag = GRE }
			available = {
				date > 1977.1.1
				date < 1997.1.1
				D_Minister_Allowed = yes
				NOT = { has_country_flag = Andreas_Papandreou_unavailable }
			}
			
			
			traits = { ideology_D HoG_Ambitious_Union_Boss }
		}
	# Militiades Porphyrogins
		GRE_HoG_Militiades_Porphyrogins = {
			picture = Militiades_Porphyrogins
			allowed = { tag = GRE }
			available = {
				date > 1933.1.1
				date < 1964.1.1
				C_Minister_Allowed = yes
				NOT = { has_country_flag = Militiades_Porphyrogins_unavailable }
			}
			
			
			traits = { ideology_C HoG_Ambitious_Union_Boss }
		}
	# Nikos Zahariadis
		GRE_HoG_Nikos_Zahariadis = {
			picture = Nikos_Zahariadis
			allowed = { tag = GRE }
			available = {
				date > 1941.1.1
				date < 1964.1.1
				C_Minister_Allowed = yes
				NOT = { has_country_flag = Nikos_Zahariadis_unavailable }
			}
			
			
			traits = { ideology_C HoG_Smiling_Oilman }
		}
	# Evripidis Bakirtris
		GRE_HoG_Evripidis_Bakirtris = {
			picture = Evripidis_Bakirtris
			allowed = { tag = GRE }
			available = {
				date > 1944.1.1
				date < 1964.1.1
				C_Minister_Allowed = yes
				NOT = { has_country_flag = Evripidis_Bakirtris_unavailable }
			}
			
			
			traits = { ideology_C HoG_Happy_Amateur }
		}
	# Markos Vaphiadis
		GRE_HoG_Markos_Vaphiadis = {
			picture = Markos_Vaphiadis
			allowed = { tag = GRE }
			available = {
				date > 1946.1.1
				date < 1964.1.1
				C_Minister_Allowed = yes
				NOT = { has_country_flag = Markos_Vaphiadis_unavailable }
			}
			
			
			traits = { ideology_C HoG_Backroom_Backstabber }
		}
}
#################################################
### Foreign Minister
#################################################
	Foreign_Minister = {
	# Georgias Tsolakoglou
		GRE_FM_Georgias_Tsolakoglou = {
			picture = Georgias_Tsolakoglou
			allowed = { tag = GRE }
			available = {
				date > 1941.1.1
				date < 1964.1.1
				F_Minister_Allowed = yes
				NOT = { has_country_flag = Georgias_Tsolakoglou_unavailable }
			}
			
			
			traits = { ideology_F FM_General_Staffer }
		}
	# Konstantinos Logothetopoulos
		GRE_FM_Konstantinos_Logothetopoulos = {
			picture = Konstantinos_Logothetopoulos
			allowed = { tag = GRE }
			available = {
				date > 1942.1.1
				date < 1964.1.1
				F_Minister_Allowed = yes
				NOT = { has_country_flag = Konstantinos_Logothetopoulos_unavailable }
			}
			
			
			traits = { ideology_F FM_Biased_Intellectual }
		}
	# Ioannis Rallis
		GRE_FM_Ioannis_Rallis = {
			picture = Ioannis_Rallis
			allowed = { tag = GRE }
			available = {
				date > 1943.1.1
				date < 1964.1.1
				F_Minister_Allowed = yes
				NOT = { has_country_flag = Ioannis_Rallis_unavailable }
			}
			
			
			traits = { ideology_F FM_The_Cloak_N_Dagger_Schemer }
		}
	# Demosthenes Nicoladis
		GRE_FM_Demosthenes_Nicoladis = {
			picture = Demosthenes_Nicoladis
			allowed = { tag = GRE }
			available = {
				date > 1933.1.1
				date < 1964.1.1
				F_Minister_Allowed = yes
				NOT = { has_country_flag = Demosthenes_Nicoladis_unavailable }
			}
			
			
			traits = { ideology_F FM_Ideological_Crusader }
		}
	# Alexandros Zaimis
		GRE_FM_Alexandros_Zaimis = {
			picture = Alexandros_Zaimis
			allowed = { tag = GRE }
			available = {
				date > 1915.1.1
				date < 1933.1.1
				A_Minister_Allowed = yes
				NOT = { has_country_flag = Alexandros_Zaimis_unavailable }
			}
			
			
			traits = { ideology_A FM_Great_Compromiser }
		}
	# Stephanos Skouloudis
		GRE_FM_Stephanos_Skouloudis = {
			picture = Stephanos_Skouloudis
			allowed = { tag = GRE }
			available = {
				date > 1915.1.1
				date < 1933.1.1
				A_Minister_Allowed = yes
				NOT = { has_country_flag = Stephanos_Skouloudis_unavailable }
			}
			
			
			traits = { ideology_A FM_Great_Compromiser }
		}
	# Alexandros Karapanos
		GRE_FM_Alexandros_Karapanos = {
			picture = Alexandros_Karapanos
			allowed = { tag = GRE }
			available = {
				date > 1916.1.1
				date < 1933.1.1
				A_Minister_Allowed = yes
				NOT = { has_country_flag = Alexandros_Karapanos_unavailable }
			}
			
			
			traits = { ideology_A FM_Biased_Intellectual }
		}
	# Eugenios Zalokostas
		GRE_FM_Eugenios_Zalokostas = {
			picture = Eugenios_Zalokostas
			allowed = { tag = GRE }
			available = {
				date > 1916.1.1
				date < 1933.1.1
				A_Minister_Allowed = yes
				NOT = { has_country_flag = Eugenios_Zalokostas_unavailable }
			}
			
			
			traits = { ideology_A FM_Ideological_Crusader }
		}
	# Apostolos Alexandris
		GRE_FM_Apostolos_Alexandris = {
			picture = Apostolos_Alexandris
			allowed = { tag = GRE }
			available = {
				date > 1922.1.1
				date < 1933.1.1
				A_Minister_Allowed = yes
				NOT = { has_country_flag = Apostolos_Alexandris_unavailable }
			}
			
			
			traits = { ideology_A FM_General_Staffer }
		}
	# Stylianos Gonatas
		GRE_FM_Stylianos_Gonatas = {
			picture = Stylianos_Gonatas
			allowed = { tag = GRE }
			available = {
				date > 1923.1.1
				date < 1933.1.1
				A_Minister_Allowed = yes
				NOT = { has_country_flag = Stylianos_Gonatas_unavailable }
			}
			
			
			traits = { ideology_A FM_Great_Compromiser }
		}
	# Konstantinos Demertzis
		GRE_FM_Konstantinos_Demertzis = {
			picture = Konstantinos_Demertzis
			allowed = { tag = GRE }
			available = {
				date > 1933.1.1
				date < 1964.1.1
				A_Minister_Allowed = yes
				NOT = { has_country_flag = Konstantinos_Demertzis_unavailable }
			}
			
			
			traits = { ideology_A FM_Biased_Intellectual }
		}
	# Georgios Papandreou
		GRE_FM_Georgios_Papandreou_2 = {
			picture = Georgios_Papandreou_2
			allowed = { tag = GRE }
			available = {
				date > 1945.1.1
				date < 1964.1.1
				A_Minister_Allowed = yes
				NOT = { has_country_flag = Georgios_Papandreou_unavailable }
			}
			
			
			traits = { ideology_A FM_Biased_Intellectual }
		}
	# Ioannes Socrates Politis
		GRE_FM_Ioannes_Socrates_Politis = {
			picture = Ioannes_Socrates_Politis
			allowed = { tag = GRE }
			available = {
				date > 1945.1.1
				date < 1964.1.1
				A_Minister_Allowed = yes
				NOT = { has_country_flag = Ioannes_Socrates_Politis_unavailable }
			}
			
			
			traits = { ideology_A FM_Apologetic_Clerk }
		}
	# Panagiotis Kanellopoulos
		GRE_FM_Panagiotis_Kanellopoulos = {
			picture = Panagiotis_Kanellopoulos
			allowed = { tag = GRE }
			available = {
				date > 1945.1.1
				date < 1964.1.1
				A_Minister_Allowed = yes
				NOT = { has_country_flag = Panagiotis_Kanellopoulos_unavailable }
			}
			
			
			traits = { ideology_A FM_Great_Compromiser }
		}
	# Ioannis Safianopoulos
		GRE_FM_Ioannis_Safianopoulos_2 = {
			picture = Ioannis_Safianopoulos_2
			allowed = { tag = GRE }
			available = {
				date > 1945.1.1
				date < 1964.1.1
				A_Minister_Allowed = yes
				NOT = { has_country_flag = Ioannis_Safianopoulos_unavailable }
			}
			
			
			traits = { ideology_A FM_The_Cloak_N_Dagger_Schemer }
		}
	# Petros Voulgaris
		GRE_FM_Petros_Voulgaris = {
			picture = Petros_Voulgaris
			allowed = { tag = GRE }
			available = {
				date > 1945.1.1
				date < 1964.1.1
				A_Minister_Allowed = yes
				NOT = { has_country_flag = Petros_Voulgaris_unavailable }
			}
			
			
			traits = { ideology_A FM_Biased_Intellectual }
		}
	# Panagiotios Demestichas
		GRE_FM_Panagiotios_Demestichas = {
			picture = Panagiotios_Demestichas
			allowed = { tag = GRE }
			available = {
				date > 1946.1.1
				date < 1964.1.1
				A_Minister_Allowed = yes
				NOT = { has_country_flag = Panagiotios_Demestichas_unavailable }
			}
			
			
			traits = { ideology_A FM_General_Staffer }
		}
	# Konstantinos Karamanlis
		GRE_FM_Konstantinos_Karamanlis = {
			picture = Konstantinos_Karamanlis
			allowed = { tag = GRE }
			available = {
				date > 1980.1.1
				date < 1999.1.1
				A_Minister_Allowed = yes
				NOT = { has_country_flag = Konstantinos_Karamanlis_unavailable }
			}
			
			
			traits = { ideology_A FM_Apologetic_Clerk }
		}
	# Ioannis Metaxas
		GRE_FM_Ioannis_Metaxas = {
			picture = Ioannis_Metaxas
			allowed = { tag = GRE }
			available = {
				date > 1933.1.1
				date < 1964.1.1
				D_Minister_Allowed = yes
				NOT = { has_country_flag = Ioannis_Metaxas_unavailable }
			}
			
			
			traits = { ideology_D FM_General_Staffer }
		}
	# Dimitrios Maximos
		GRE_FM_Dimitrios_Maximos = {
			picture = Dimitrios_Maximos
			allowed = { tag = GRE }
			available = {
				date > 1933.1.1
				date < 1935.1.1
				D_Minister_Allowed = yes
				NOT = { has_country_flag = Dimitrios_Maximos_unavailable }
			}
			
			
			traits = { ideology_D FM_Apologetic_Clerk }
		}
	# Alexandros Korizis
		GRE_FM_Alexandros_Korizis = {
			picture = Alexandros_Korizis
			allowed = { tag = GRE }
			available = {
				date > 1941.1.1
				date < 1964.1.1
				D_Minister_Allowed = yes
				NOT = { has_country_flag = Alexandros_Korizis_unavailable }
			}
			
			
			traits = { ideology_D FM_Great_Compromiser }
		}
	# Emmanouel Tsouderos
		GRE_FM_Emmanouel_Tsouderos = {
			picture = Emmanouel_Tsouderos
			allowed = { tag = GRE }
			available = {
				date > 1941.1.1
				date < 1964.1.1
				D_Minister_Allowed = yes
				NOT = { has_country_flag = Emmanouel_Tsouderos_unavailable }
			}
			
			
			traits = { ideology_D FM_Apologetic_Clerk }
		}
	# Sophocles Venizelos
		GRE_FM_Sophocles_Venizelos = {
			picture = Sophocles_Venizelos
			allowed = { tag = GRE }
			available = {
				date > 1944.1.1
				date < 1964.1.1
				D_Minister_Allowed = yes
				NOT = { has_country_flag = Sophocles_Venizelos_unavailable }
			}
			
			
			traits = { ideology_D FM_Great_Compromiser }
		}
	# Panaiotis Pipenelis
		GRE_FM_Panaiotis_Pipenelis = {
			picture = Panaiotis_Pipenelis
			allowed = { tag = GRE }
			available = {
				date > 1950.1.1
				date < 1964.1.1
				D_Minister_Allowed = yes
				NOT = { has_country_flag = Panaiotis_Pipenelis_unavailable }
			}
			
			
			traits = { ideology_D FM_Apologetic_Clerk }
		}
	# Stephanos Stephanopoulos
		GRE_FM_Stephanos_Stephanopoulos = {
			picture = Stephanos_Stephanopoulos
			allowed = { tag = GRE }
			available = {
				date > 1952.1.1
				date < 1964.1.1
				D_Minister_Allowed = yes
				NOT = { has_country_flag = Stephanos_Stephanopoulos_unavailable }
			}
			
			
			traits = { ideology_D FM_Biased_Intellectual }
		}
	# Nikolaos Kalogeropoulos
		GRE_FM_Nikolaos_Kalogeropoulos = {
			picture = Nikolaos_Kalogeropoulos
			allowed = { tag = GRE }
			available = {
				date > 1921.1.1
				date < 1933.1.1
				D_Minister_Allowed = yes
				NOT = { has_country_flag = Nikolaos_Kalogeropoulos_unavailable }
			}
			
			
			traits = { ideology_D FM_Ideological_Crusader }
		}
	# Konstantinos Rentis
		GRE_FM_Konstantinos_Rentis = {
			picture = Konstantinos_Rentis
			allowed = { tag = GRE }
			available = {
				date > 1922.1.1
				date < 1933.1.1
				D_Minister_Allowed = yes
				NOT = { has_country_flag = Konstantinos_Rentis_unavailable }
			}
			
			
			traits = { ideology_D FM_Great_Compromiser }
		}
	# Euthumios Kanellopoulos
		GRE_FM_Euthumios_Kanellopoulos = {
			picture = Euthumios_Kanellopoulos
			allowed = { tag = GRE }
			available = {
				date > 1922.1.1
				date < 1933.1.1
				D_Minister_Allowed = yes
				NOT = { has_country_flag = Euthumios_Kanellopoulos_unavailable }
			}
			
			
			traits = { ideology_D FM_Ideological_Crusader }
		}
	# Andreas Michalakopoulos
		GRE_FM_Andreas_Michalakopoulos = {
			picture = Andreas_Michalakopoulos
			allowed = { tag = GRE }
			available = {
				date > 1924.1.1
				date < 1933.1.1
				D_Minister_Allowed = yes
				NOT = { has_country_flag = Andreas_Michalakopoulos_unavailable }
			}
			
			
			traits = { ideology_D FM_Great_Compromiser }
		}
	# Konstantinos Tsaldaris
		GRE_FM_Konstantinos_Tsaldaris = {
			picture = Konstantinos_Tsaldaris
			allowed = { tag = GRE }
			available = {
				date > 1946.1.1
				date < 1964.1.1
				D_Minister_Allowed = yes
				NOT = { has_country_flag = Konstantinos_Tsaldaris_unavailable }
			}
			
			
			traits = { ideology_D FM_The_Cloak_N_Dagger_Schemer }
		}
	# Eleftherios Venizelos
		GRE_FM_Eleftherios_Venizelos = {
			picture = Eleftherios_Venizelos
			allowed = { tag = GRE }
			available = {
				date > 1914.1.1
				date < 1933.1.1
				D_Minister_Allowed = yes
				NOT = { has_country_flag = Eleftherios_Venizelos_unavailable }
			}
			
			
			traits = { ideology_D FM_Ideological_Crusader }
		}
	# Georgios Streit
		GRE_FM_Georgios_Streit = {
			picture = Georgios_Streit
			allowed = { tag = GRE }
			available = {
				date > 1914.1.1
				date < 1933.1.1
				D_Minister_Allowed = yes
				NOT = { has_country_flag = Georgios_Streit_unavailable }
			}
			
			
			traits = { ideology_D FM_Ideological_Crusader }
		}
	# Georgios Zographos
		GRE_FM_Georgios_Zographos = {
			picture = Georgios_Zographos
			allowed = { tag = GRE }
			available = {
				date > 1915.1.1
				date < 1933.1.1
				D_Minister_Allowed = yes
				NOT = { has_country_flag = Georgios_Zographos_unavailable }
			}
			
			
			traits = { ideology_D FM_Apologetic_Clerk }
		}
	# Dimitrios Gounaris
		GRE_FM_Dimitrios_Gounaris = {
			picture = Dimitrios_Gounaris
			allowed = { tag = GRE }
			available = {
				date > 1915.1.1
				date < 1933.1.1
				D_Minister_Allowed = yes
				NOT = { has_country_flag = Dimitrios_Gounaris_unavailable }
			}
			
			
			traits = { ideology_D FM_Great_Compromiser }
		}
	# Nikolaos Politis
		GRE_FM_Nikolaos_Politis = {
			picture = Nikolaos_Politis
			allowed = { tag = GRE }
			available = {
				date > 1916.1.1
				date < 1933.1.1
				D_Minister_Allowed = yes
				NOT = { has_country_flag = Nikolaos_Politis_unavailable }
			}
			
			
			traits = { ideology_D FM_Great_Compromiser }
		}
	# Nikolaos Politis
		GRE_FM_Nikolaos_Politis_2 = {
			picture = Nikolaos_Politis_2
			allowed = { tag = GRE }
			available = {
				date > 1917.1.1
				date < 1933.1.1
				D_Minister_Allowed = yes
				NOT = { has_country_flag = Nikolaos_Politis_unavailable }
			}
			
			
			traits = { ideology_D FM_Great_Compromiser }
		}
	# Dimitrios Rallis
		GRE_FM_Dimitrios_Rallis = {
			picture = Dimitrios_Rallis
			allowed = { tag = GRE }
			available = {
				date > 1918.1.1
				date < 1933.1.1
				D_Minister_Allowed = yes
				NOT = { has_country_flag = Dimitrios_Rallis_unavailable }
			}
			
			
			traits = { ideology_D FM_Apologetic_Clerk }
		}
	# Alexandros Diomidis
		GRE_FM_Alexandros_Diomidis = {
			picture = Alexandros_Diomidis
			allowed = { tag = GRE }
			available = {
				date > 1918.1.1
				date < 1933.1.1
				D_Minister_Allowed = yes
				NOT = { has_country_flag = Alexandros_Diomidis_unavailable }
			}
			
			
			traits = { ideology_D FM_Ideological_Crusader }
		}
	# Miltiades Negropontis
		GRE_FM_Miltiades_Negropontis = {
			picture = Miltiades_Negropontis
			allowed = { tag = GRE }
			available = {
				date > 1918.1.1
				date < 1933.1.1
				D_Minister_Allowed = yes
				NOT = { has_country_flag = Miltiades_Negropontis_unavailable }
			}
			
			
			traits = { ideology_D FM_Ideological_Crusader }
		}
	# Alexandros Papanastasiou
		GRE_FM_Alexandros_Papanastasiou = {
			picture = Alexandros_Papanastasiou
			allowed = { tag = GRE }
			available = {
				date > 1924.1.1
				date < 1933.1.1
				D_Minister_Allowed = yes
				NOT = { has_country_flag = Alexandros_Papanastasiou_unavailable }
			}
			
			
			traits = { ideology_D FM_Great_Compromiser }
		}
	# Georgios Rousos
		GRE_FM_Georgios_Rousos = {
			picture = Georgios_Rousos
			allowed = { tag = GRE }
			available = {
				date > 1924.1.1
				date < 1933.1.1
				D_Minister_Allowed = yes
				NOT = { has_country_flag = Georgios_Rousos_unavailable }
			}
			
			
			traits = { ideology_D FM_Great_Compromiser }
		}
	# Georgios Kafantaris
		GRE_FM_Georgios_Kafantaris = {
			picture = Georgios_Kafantaris
			allowed = { tag = GRE }
			available = {
				date > 1924.1.1
				date < 1933.1.1
				D_Minister_Allowed = yes
				NOT = { has_country_flag = Georgios_Kafantaris_unavailable }
			}
			
			
			traits = { ideology_D FM_Ideological_Crusader }
		}
	# Themistocles Sophoulis
		GRE_FM_Themistocles_Sophoulis = {
			picture = Themistocles_Sophoulis
			allowed = { tag = GRE }
			available = {
				date > 1933.1.1
				date < 1964.1.1
				D_Minister_Allowed = yes
				NOT = { has_country_flag = Themistocles_Sophoulis_unavailable }
			}
			
			
			traits = { ideology_D FM_The_Cloak_N_Dagger_Schemer }
		}
	# Georgios Papandreou
		GRE_FM_Georgios_Papandreou = {
			picture = Georgios_Papandreou
			allowed = { tag = GRE }
			available = {
				date > 1944.1.1
				date < 1964.1.1
				D_Minister_Allowed = yes
				NOT = { has_country_flag = Georgios_Papandreou_unavailable }
			}
			
			
			traits = { ideology_D FM_Biased_Intellectual }
		}
	# Ioannis Safianopoulos
		GRE_FM_Ioannis_Safianopoulos = {
			picture = Ioannis_Safianopoulos
			allowed = { tag = GRE }
			available = {
				date > 1945.1.1
				date < 1964.1.1
				D_Minister_Allowed = yes
				NOT = { has_country_flag = Ioannis_Safianopoulos_unavailable }
			}
			
			
			traits = { ideology_D FM_Great_Compromiser }
		}
	# Constantinos Rentis
		GRE_FM_Constantinos_Rentis = {
			picture = Constantinos_Rentis
			allowed = { tag = GRE }
			available = {
				date > 1946.1.1
				date < 1964.1.1
				D_Minister_Allowed = yes
				NOT = { has_country_flag = Constantinos_Rentis_unavailable }
			}
			
			
			traits = { ideology_D FM_Apologetic_Clerk }
		}
	# Nikos Zahariadis
		GRE_FM_Nikos_Zahariadis = {
			picture = Nikos_Zahariadis
			allowed = { tag = GRE }
			available = {
				date > 1933.1.1
				date < 1964.1.1
				C_Minister_Allowed = yes
				NOT = { has_country_flag = Nikos_Zahariadis_unavailable }
			}
			
			
			traits = { ideology_C FM_Ideological_Crusader }
		}
	# Militiades Porphyrogins
		GRE_FM_Militiades_Porphyrogins = {
			picture = Militiades_Porphyrogins
			allowed = { tag = GRE }
			available = {
				date > 1946.1.1
				date < 1964.1.1
				C_Minister_Allowed = yes
				NOT = { has_country_flag = Militiades_Porphyrogins_unavailable }
			}
			
			
			traits = { ideology_C FM_General_Staffer }
		}
	# Petros Rousos
		GRE_FM_Petros_Rousos = {
			picture = Petros_Rousos
			allowed = { tag = GRE }
			available = {
				date > 1947.1.1
				date < 1964.1.1
				C_Minister_Allowed = yes
				NOT = { has_country_flag = Petros_Rousos_unavailable }
			}
			
			
			traits = { ideology_C FM_Biased_Intellectual }
		}
}
#################################################
### Minister of Security
#################################################
	Minister_of_Security = {
	# Grigoriev Murnov
		GRE_MoS_Grigoriev_Murnov = {
			picture = Grigoriev_Murnov
			allowed = { tag = GRE }
			available = {
				date > 1941.1.1
				date < 1964.1.1
				F_Minister_Allowed = yes
				NOT = { has_country_flag = Grigoriev_Murnov_unavailable }
			}
			
			
			traits = { ideology_F MoS_Crime_Fighter }
		}
	# Mario Vercellino
		GRE_MoS_Mario_Vercellino = {
			picture = Mario_Vercellino
			allowed = { tag = GRE }
			available = {
				date > 1942.1.1
				date < 1964.1.1
				F_Minister_Allowed = yes
				NOT = { has_country_flag = Mario_Vercellino_unavailable }
			}
			
			
			traits = { ideology_F MoS_Back_Stabber }
		}
	# Reinhard Altenburg
		GRE_MoS_Reinhard_Altenburg = {
			picture = Reinhard_Altenburg
			allowed = { tag = GRE }
			available = {
				date > 1943.1.1
				date < 1964.1.1
				F_Minister_Allowed = yes
				NOT = { has_country_flag = Reinhard_Altenburg_unavailable }
			}
			
			
			traits = { ideology_F MoS_Crooked_Kleptocrat }
		}
	# Christos Tsigantes
		GRE_MoS_Christos_Tsigantes = {
			picture = Christos_Tsigantes
			allowed = { tag = GRE }
			available = {
				date > 1938.1.1
				date < 1964.1.1
				F_Minister_Allowed = yes
				NOT = { has_country_flag = Christos_Tsigantes_unavailable }
			}
			
			
			traits = { ideology_F MoS_Prince_Of_Terror }
		}
	# Dimitrios Gounaris
		GRE_MoS_Dimitrios_Gounaris = {
			picture = Dimitrios_Gounaris
			allowed = { tag = GRE }
			available = {
				date > 1916.1.1
				date < 1933.1.1
				A_Minister_Allowed = yes
				NOT = { has_country_flag = Dimitrios_Gounaris_unavailable }
			}
			
			
			traits = { ideology_A MoS_Compassionate_Gentleman }
		}
	# M.Roufos
		GRE_MoS_MRoufos = {
			picture = MRoufos
			allowed = { tag = GRE }
			available = {
				date > 1916.1.1
				date < 1933.1.1
				A_Minister_Allowed = yes
				NOT = { has_country_flag = MRoufos_unavailable }
			}
			
			
			traits = { ideology_A MoS_Crime_Fighter }
		}
	# M.Tselos
		GRE_MoS_MTselos = {
			picture = MTselos
			allowed = { tag = GRE }
			available = {
				date > 1916.1.1
				date < 1933.1.1
				A_Minister_Allowed = yes
				NOT = { has_country_flag = MTselos_unavailable }
			}
			
			
			traits = { ideology_A MoS_Man_Of_The_People }
		}
	# Georgios Logothetis
		GRE_MoS_Georgios_Logothetis = {
			picture = Georgios_Logothetis
			allowed = { tag = GRE }
			available = {
				date > 1933.1.1
				date < 1964.1.1
				A_Minister_Allowed = yes
				NOT = { has_country_flag = Georgios_Logothetis_unavailable }
			}
			
			
			traits = { ideology_A MoS_Crime_Fighter }
		}
	# Archbishop Damaskinos
		GRE_MoS_Archbishop_Damaskinos = {
			picture = Archbishop_Damaskinos
			allowed = { tag = GRE }
			available = {
				date > 1944.1.1
				date < 1964.1.1
				A_Minister_Allowed = yes
				NOT = { has_country_flag = Archbishop_Damaskinos_unavailable }
			}
			
			
			traits = { ideology_A MoS_Efficient_Sociopath }
		}
	# Alchibiades Stephanopoulos
		GRE_MoS_Alchibiades_Stephanopoulos = {
			picture = Alchibiades_Stephanopoulos
			allowed = { tag = GRE }
			available = {
				date > 1944.1.1
				date < 1964.1.1
				A_Minister_Allowed = yes
				NOT = { has_country_flag = Alchibiades_Stephanopoulos_unavailable }
			}
			
			
			traits = { ideology_A MoS_Compassionate_Gentleman }
		}
	# Christos Triantafyllidis
		GRE_MoS_Christos_Triantafyllidis = {
			picture = Christos_Triantafyllidis
			allowed = { tag = GRE }
			available = {
				date > 1946.1.1
				date < 1964.1.1
				A_Minister_Allowed = yes
				NOT = { has_country_flag = Christos_Triantafyllidis_unavailable }
			}
			
			
			traits = { ideology_A MoS_Man_Of_The_People }
		}
	# Adamantios Androutsopoulos
		GRE_MoS_Adamantios_Androutsopoulos = {
			picture = Adamantios_Androutsopoulos
			allowed = { tag = GRE }
			available = {
				date > 1973.1.1
				date < 2001.1.1
				A_Minister_Allowed = yes
				NOT = { has_country_flag = Adamantios_Androutsopoulos_unavailable }
			}
			
			
			traits = { ideology_A MoS_Crime_Fighter }
		}
	# Giorgios Nicolaidis
		GRE_MoS_Giorgios_Nicolaidis = {
			picture = Giorgios_Nicolaidis
			allowed = { tag = GRE }
			available = {
				date > 1933.1.1
				date < 1964.1.1
				D_Minister_Allowed = yes
				NOT = { has_country_flag = Giorgios_Nicolaidis_unavailable }
			}
			
			
			traits = { ideology_D MoS_Back_Stabber }
		}
	# Raul Bibica Rosetti
		GRE_MoS_Raul_Bibica_Rosetti = {
			picture = Raul_Bibica_Rosetti
			allowed = { tag = GRE }
			available = {
				date > 1941.1.1
				date < 1964.1.1
				D_Minister_Allowed = yes
				NOT = { has_country_flag = Raul_Bibica_Rosetti_unavailable }
			}
			
			
			traits = { ideology_D MoS_Compassionate_Gentleman }
		}
	# Dimitrios Maximos
		GRE_MoS_Dimitrios_Maximos = {
			picture = Dimitrios_Maximos
			allowed = { tag = GRE }
			available = {
				date > 1944.1.1
				date < 1964.1.1
				D_Minister_Allowed = yes
				NOT = { has_country_flag = Dimitrios_Maximos_unavailable }
			}
			
			
			traits = { ideology_D MoS_Crime_Fighter }
		}
	# Konstantinos Tsaldaris
		GRE_MoS_Konstantinos_Tsaldaris = {
			picture = Konstantinos_Tsaldaris
			allowed = { tag = GRE }
			available = {
				date > 1944.1.1
				date < 1964.1.1
				D_Minister_Allowed = yes
				NOT = { has_country_flag = Konstantinos_Tsaldaris_unavailable }
			}
			
			
			traits = { ideology_D MoS_Man_Of_The_People }
		}
	# Thanassis Aghnides
		GRE_MoS_Thanassis_Aghnides = {
			picture = Thanassis_Aghnides
			allowed = { tag = GRE }
			available = {
				date > 1945.1.1
				date < 1964.1.1
				D_Minister_Allowed = yes
				NOT = { has_country_flag = Thanassis_Aghnides_unavailable }
			}
			
			
			traits = { ideology_D MoS_Efficient_Sociopath }
		}
	# Panagiotis Kafantaris
		GRE_MoS_Panagiotis_Kafantaris = {
			picture = Panagiotis_Kafantaris
			allowed = { tag = GRE }
			available = {
				date > 1946.1.1
				date < 1964.1.1
				D_Minister_Allowed = yes
				NOT = { has_country_flag = Panagiotis_Kafantaris_unavailable }
			}
			
			
			traits = { ideology_D MoS_Silent_Lawyer }
		}
	# Stephanos Lakiantos
		GRE_MoS_Stephanos_Lakiantos = {
			picture = Stephanos_Lakiantos
			allowed = { tag = GRE }
			available = {
				date > 1947.1.1
				date < 1964.1.1
				D_Minister_Allowed = yes
				NOT = { has_country_flag = Stephanos_Lakiantos_unavailable }
			}
			
			
			traits = { ideology_D MoS_Crooked_Kleptocrat }
		}
	# Emmanouil Repoulis
		GRE_MoS_Emmanouil_Repoulis_2 = {
			picture = Emmanouil_Repoulis_2
			allowed = { tag = GRE }
			available = {
				date > 1915.1.1
				date < 1933.1.1
				D_Minister_Allowed = yes
				NOT = { has_country_flag = Emmanouil_Repoulis_unavailable }
			}
			
			
			traits = { ideology_D MoS_Silent_Lawyer }
		}
	# M.Charamlambos
		GRE_MoS_MCharamlambos = {
			picture = MCharamlambos
			allowed = { tag = GRE }
			available = {
				date > 1915.1.1
				date < 1933.1.1
				D_Minister_Allowed = yes
				NOT = { has_country_flag = MCharamlambos_unavailable }
			}
			
			
			traits = { ideology_D MoS_Compassionate_Gentleman }
		}
	# Emmanouil Repoulis
		GRE_MoS_Emmanouil_Repoulis = {
			picture = Emmanouil_Repoulis
			allowed = { tag = GRE }
			available = {
				date > 1915.1.1
				date < 1933.1.1
				D_Minister_Allowed = yes
				NOT = { has_country_flag = Emmanouil_Repoulis_unavailable }
			}
			
			
			traits = { ideology_D MoS_Crime_Fighter }
		}
	# M.Kalandaris
		GRE_MoS_MKalandaris = {
			picture = MKalandaris
			allowed = { tag = GRE }
			available = {
				date > 1915.1.1
				date < 1933.1.1
				D_Minister_Allowed = yes
				NOT = { has_country_flag = MKalandaris_unavailable }
			}
			
			
			traits = { ideology_D MoS_Silent_Lawyer }
		}
	# M.Triantaphilakos
		GRE_MoS_MTriantaphilakos = {
			picture = MTriantaphilakos
			allowed = { tag = GRE }
			available = {
				date > 1915.1.1
				date < 1933.1.1
				D_Minister_Allowed = yes
				NOT = { has_country_flag = MTriantaphilakos_unavailable }
			}
			
			
			traits = { ideology_D MoS_Silent_Lawyer }
		}
	# M.Raktivan
		GRE_MoS_MRaktivan = {
			picture = MRaktivan
			allowed = { tag = GRE }
			available = {
				date > 1918.1.1
				date < 1933.1.1
				D_Minister_Allowed = yes
				NOT = { has_country_flag = MRaktivan_unavailable }
			}
			
			
			traits = { ideology_D MoS_Crime_Fighter }
		}
	# Georgios Papandreou
		GRE_MoS_Georgios_Papandreou = {
			picture = Georgios_Papandreou
			allowed = { tag = GRE }
			available = {
				date > 1933.1.1
				date < 1964.1.1
				D_Minister_Allowed = yes
				NOT = { has_country_flag = Georgios_Papandreou_unavailable }
			}
			
			
			traits = { ideology_D MoS_Efficient_Sociopath }
		}
	# Markos Aganossos
		GRE_MoS_Markos_Aganossos = {
			picture = Markos_Aganossos
			allowed = { tag = GRE }
			available = {
				date > 1941.1.1
				date < 1964.1.1
				D_Minister_Allowed = yes
				NOT = { has_country_flag = Markos_Aganossos_unavailable }
			}
			
			
			traits = { ideology_D MoS_Silent_Lawyer }
		}
	# Elias Panakilis
		GRE_MoS_Elias_Panakilis = {
			picture = Elias_Panakilis
			allowed = { tag = GRE }
			available = {
				date > 1944.1.1
				date < 1964.1.1
				D_Minister_Allowed = yes
				NOT = { has_country_flag = Elias_Panakilis_unavailable }
			}
			
			
			traits = { ideology_D MoS_Crime_Fighter }
		}
	# Evangelos Papanoutsos
		GRE_MoS_Evangelos_Papanoutsos = {
			picture = Evangelos_Papanoutsos
			allowed = { tag = GRE }
			available = {
				date > 1945.1.1
				date < 1964.1.1
				D_Minister_Allowed = yes
				NOT = { has_country_flag = Evangelos_Papanoutsos_unavailable }
			}
			
			
			traits = { ideology_D MoS_Compassionate_Gentleman }
		}
	# Panagiolis Poulitsas
		GRE_MoS_Panagiolis_Poulitsas = {
			picture = Panagiolis_Poulitsas
			allowed = { tag = GRE }
			available = {
				date > 1946.1.1
				date < 1964.1.1
				D_Minister_Allowed = yes
				NOT = { has_country_flag = Panagiolis_Poulitsas_unavailable }
			}
			
			
			traits = { ideology_D MoS_Prince_Of_Terror }
		}
	# Giannes Ioannides
		GRE_MoS_Giannes_Ioannides = {
			picture = Giannes_Ioannides
			allowed = { tag = GRE }
			available = {
				date > 1933.1.1
				date < 1964.1.1
				C_Minister_Allowed = yes
				NOT = { has_country_flag = Giannes_Ioannides_unavailable }
			}
			
			
			traits = { ideology_C MoS_Prince_Of_Terror }
		}
	# Markos Vaphiadis
		GRE_MoS_Markos_Vaphiadis = {
			picture = Markos_Vaphiadis
			allowed = { tag = GRE }
			available = {
				date > 1941.1.1
				date < 1964.1.1
				C_Minister_Allowed = yes
				NOT = { has_country_flag = Markos_Vaphiadis_unavailable }
			}
			
			
			traits = { ideology_C MoS_Silent_Lawyer }
		}
	# Stratos Payioumtzis
		GRE_MoS_Stratos_Payioumtzis = {
			picture = Stratos_Payioumtzis
			allowed = { tag = GRE }
			available = {
				date > 1945.1.1
				date < 1964.1.1
				C_Minister_Allowed = yes
				NOT = { has_country_flag = Stratos_Payioumtzis_unavailable }
			}
			
			
			traits = { ideology_C MoS_Efficient_Sociopath }
		}
}
#################################################
### Armaments Minister
#################################################
	Armaments_Minister = {
	# Pavlos Milziadis
		GRE_AM_Pavlos_Milziadis = {
			picture = Pavlos_Milziadis
			allowed = { tag = GRE }
			available = {
				date > 1941.1.1
				date < 1964.1.1
				F_Minister_Allowed = yes
				NOT = { has_country_flag = Pavlos_Milziadis_unavailable }
			}
			
			
			traits = { ideology_F AM_Resource_Industrialist }
		}
	# Christos Tsigantes
		GRE_AM_Christos_Tsigantes = {
			picture = Christos_Tsigantes
			allowed = { tag = GRE }
			available = {
				date > 1942.1.1
				date < 1964.1.1
				F_Minister_Allowed = yes
				NOT = { has_country_flag = Christos_Tsigantes_unavailable }
			}
			
			
			traits = { ideology_F AM_Resource_Industrialist }
		}
	# Nicholaos Voutsinaris
		GRE_AM_Nicholaos_Voutsinaris = {
			picture = Nicholaos_Voutsinaris
			allowed = { tag = GRE }
			available = {
				date > 1943.1.1
				date < 1964.1.1
				F_Minister_Allowed = yes
				NOT = { has_country_flag = Nicholaos_Voutsinaris_unavailable }
			}
			
			
			traits = { ideology_F AM_Theoretical_Scientist }
		}
	# Panagis Tsaldaris
		GRE_AM_Panagis_Tsaldaris = {
			picture = Panagis_Tsaldaris
			allowed = { tag = GRE }
			available = {
				date > 1938.1.1
				date < 1964.1.1
				F_Minister_Allowed = yes
				NOT = { has_country_flag = Panagis_Tsaldaris_unavailable }
			}
			
			
			traits = { ideology_F AM_Air_To_Sea_Proponent }
		}
	# Stephanos N. Dragoumis
		GRE_AM_Stephanos_N_Dragoumis = {
			picture = Stephanos_N_Dragoumis
			allowed = { tag = GRE }
			available = {
				date > 1915.1.1
				date < 1933.1.1
				A_Minister_Allowed = yes
				NOT = { has_country_flag = Stephanos_N_Dragoumis_unavailable }
			}
			
			
			traits = { ideology_A AM_Administrative_Genius }
		}
	# M.Momferatos
		GRE_AM_MMomferatos = {
			picture = MMomferatos
			allowed = { tag = GRE }
			available = {
				date > 1916.1.1
				date < 1933.1.1
				A_Minister_Allowed = yes
				NOT = { has_country_flag = MMomferatos_unavailable }
			}
			
			
			traits = { ideology_A AM_Administrative_Genius }
		}
	# Nikolaos Kalogeropoulos
		GRE_AM_Nikolaos_Kalogeropoulos = {
			picture = Nikolaos_Kalogeropoulos
			allowed = { tag = GRE }
			available = {
				date > 1916.1.1
				date < 1933.1.1
				A_Minister_Allowed = yes
				NOT = { has_country_flag = Nikolaos_Kalogeropoulos_unavailable }
			}
			
			
			traits = { ideology_A AM_Administrative_Genius }
		}
	# M.Tsanetovleas
		GRE_AM_MTsanetovleas = {
			picture = MTsanetovleas
			allowed = { tag = GRE }
			available = {
				date > 1916.1.1
				date < 1933.1.1
				A_Minister_Allowed = yes
				NOT = { has_country_flag = MTsanetovleas_unavailable }
			}
			
			
			traits = { ideology_A AM_Military_Entrepreneur }
		}
	# Georgios Mantzavinos
		GRE_AM_Georgios_Mantzavinos = {
			picture = Georgios_Mantzavinos
			allowed = { tag = GRE }
			available = {
				date > 1933.1.1
				date < 1964.1.1
				A_Minister_Allowed = yes
				NOT = { has_country_flag = Georgios_Mantzavinos_unavailable }
			}
			
			
			traits = { ideology_A AM_Military_Entrepreneur }
		}
	# Ioannis Venizelos
		GRE_AM_Ioannis_Venizelos = {
			picture = Ioannis_Venizelos
			allowed = { tag = GRE }
			available = {
				date > 1944.1.1
				date < 1964.1.1
				A_Minister_Allowed = yes
				NOT = { has_country_flag = Ioannis_Venizelos_unavailable }
			}
			
			
			traits = { ideology_A AM_Military_Entrepreneur }
		}
	# Nikolaos Plastiras
		GRE_AM_Nikolaos_Plastiras = {
			picture = Nikolaos_Plastiras
			allowed = { tag = GRE }
			available = {
				date > 1945.1.1
				date < 1964.1.1
				A_Minister_Allowed = yes
				NOT = { has_country_flag = Nikolaos_Plastiras_unavailable }
			}
			
			
			traits = { ideology_A AM_Infantry_Proponent }
		}
	# Georgios Rallis
		GRE_AM_Georgios_Rallis = {
			picture = Georgios_Rallis
			allowed = { tag = GRE }
			available = {
				date > 1980.1.1
				date < 2006.1.1
				A_Minister_Allowed = yes
				NOT = { has_country_flag = Georgios_Rallis_unavailable }
			}
			
			
			traits = { ideology_A AM_Infantry_Proponent }
		}
	# Alexiou Tsamotos
		GRE_AM_Alexiou_Tsamotos = {
			picture = Alexiou_Tsamotos
			allowed = { tag = GRE }
			available = {
				date > 1933.1.1
				date < 1964.1.1
				D_Minister_Allowed = yes
				NOT = { has_country_flag = Alexiou_Tsamotos_unavailable }
			}
			
			
			traits = { ideology_D AM_Submarine_Proponent }
		}
	# Antoine Frangulis
		GRE_AM_Antoine_Frangulis = {
			picture = Antoine_Frangulis
			allowed = { tag = GRE }
			available = {
				date > 1938.1.1
				date < 1964.1.1
				D_Minister_Allowed = yes
				NOT = { has_country_flag = Antoine_Frangulis_unavailable }
			}
			
			
			traits = { ideology_D AM_Air_Superiority_Proponent }
		}
	# Thanassos Exaharis
		GRE_AM_Thanassos_Exaharis = {
			picture = Thanassos_Exaharis
			allowed = { tag = GRE }
			available = {
				date > 1939.1.1
				date < 1964.1.1
				D_Minister_Allowed = yes
				NOT = { has_country_flag = Thanassos_Exaharis_unavailable }
			}
			
			
			traits = { ideology_D AM_Laissez-faire_Capitalist }
		}
	# Takis Pipenelis
		GRE_AM_Takis_Pipenelis = {
			picture = Takis_Pipenelis
			allowed = { tag = GRE }
			available = {
				date > 1940.1.1
				date < 1964.1.1
				D_Minister_Allowed = yes
				NOT = { has_country_flag = Takis_Pipenelis_unavailable }
			}
			
			
			traits = { ideology_D AM_Theoretical_Scientist }
		}
	# Eleftherios Venizelos
		GRE_AM_Eleftherios_Venizelos = {
			picture = Eleftherios_Venizelos
			allowed = { tag = GRE }
			available = {
				date > 1941.1.1
				date < 1964.1.1
				D_Minister_Allowed = yes
				NOT = { has_country_flag = Eleftherios_Venizelos_unavailable }
			}
			
			
			traits = { ideology_D AM_Air_To_Ground_Proponent }
		}
	# Gaecia Geanados
		GRE_AM_Gaecia_Geanados = {
			picture = Gaecia_Geanados
			allowed = { tag = GRE }
			available = {
				date > 1942.1.1
				date < 1964.1.1
				D_Minister_Allowed = yes
				NOT = { has_country_flag = Gaecia_Geanados_unavailable }
			}
			
			
			traits = { ideology_D AM_Strategic_Air_Proponent }
		}
	# Anastassios Bardivilias
		GRE_AM_Anastassios_Bardivilias = {
			picture = Anastassios_Bardivilias
			allowed = { tag = GRE }
			available = {
				date > 1943.1.1
				date < 1964.1.1
				D_Minister_Allowed = yes
				NOT = { has_country_flag = Anastassios_Bardivilias_unavailable }
			}
			
			
			traits = { ideology_D AM_Air_To_Sea_Proponent }
		}
	# Anatasios Kanellopoulos
		GRE_AM_Anatasios_Kanellopoulos = {
			picture = Anatasios_Kanellopoulos
			allowed = { tag = GRE }
			available = {
				date > 1944.1.1
				date < 1964.1.1
				D_Minister_Allowed = yes
				NOT = { has_country_flag = Anatasios_Kanellopoulos_unavailable }
			}
			
			
			traits = { ideology_D AM_Administrative_Genius }
		}
	# Giorgios Lavdas
		GRE_AM_Giorgios_Lavdas = {
			picture = Giorgios_Lavdas
			allowed = { tag = GRE }
			available = {
				date > 1945.1.1
				date < 1964.1.1
				D_Minister_Allowed = yes
				NOT = { has_country_flag = Giorgios_Lavdas_unavailable }
			}
			
			
			traits = { ideology_D AM_Tank_Proponent }
		}
	# Alchibiades Stephanopoulos
		GRE_AM_Alchibiades_Stephanopoulos = {
			picture = Alchibiades_Stephanopoulos
			allowed = { tag = GRE }
			available = {
				date > 1946.1.1
				date < 1964.1.1
				D_Minister_Allowed = yes
				NOT = { has_country_flag = Alchibiades_Stephanopoulos_unavailable }
			}
			
			
			traits = { ideology_D AM_Laissez-faire_Capitalist }
		}
	# M.Drosopoulos
		GRE_AM_MDrosopoulos = {
			picture = MDrosopoulos
			allowed = { tag = GRE }
			available = {
				date > 1917.1.1
				date < 1933.1.1
				D_Minister_Allowed = yes
				NOT = { has_country_flag = MDrosopoulos_unavailable }
			}
			
			
			traits = { ideology_D AM_Administrative_Genius }
		}
	# Petros Protopapadakis
		GRE_AM_Petros_Protopapadakis = {
			picture = Petros_Protopapadakis
			allowed = { tag = GRE }
			available = {
				date > 1922.1.1
				date < 1933.1.1
				D_Minister_Allowed = yes
				NOT = { has_country_flag = Petros_Protopapadakis_unavailable }
			}
			
			
			traits = { ideology_D AM_Administrative_Genius }
		}
	# Alexandros Diomidis
		GRE_AM_Alexandros_Diomidis = {
			picture = Alexandros_Diomidis
			allowed = { tag = GRE }
			available = {
				date > 1914.1.1
				date < 1933.1.1
				D_Minister_Allowed = yes
				NOT = { has_country_flag = Alexandros_Diomidis_unavailable }
			}
			
			
			traits = { ideology_D AM_Administrative_Genius }
		}
	# Emmanouil Repoulis
		GRE_AM_Emmanouil_Repoulis = {
			picture = Emmanouil_Repoulis
			allowed = { tag = GRE }
			available = {
				date > 1915.1.1
				date < 1933.1.1
				D_Minister_Allowed = yes
				NOT = { has_country_flag = Emmanouil_Repoulis_unavailable }
			}
			
			
			traits = { ideology_D AM_Military_Entrepreneur }
		}
	# Petros Protopapadakis
		GRE_AM_Petros_Protopapadakis_2 = {
			picture = Petros_Protopapadakis_2
			allowed = { tag = GRE }
			available = {
				date > 1915.1.1
				date < 1933.1.1
				D_Minister_Allowed = yes
				NOT = { has_country_flag = Petros_Protopapadakis_unavailable }
			}
			
			
			traits = { ideology_D AM_Resource_Industrialist }
		}
	# Dimitrios Rallis
		GRE_AM_Dimitrios_Rallis = {
			picture = Dimitrios_Rallis
			allowed = { tag = GRE }
			available = {
				date > 1916.1.1
				date < 1933.1.1
				D_Minister_Allowed = yes
				NOT = { has_country_flag = Dimitrios_Rallis_unavailable }
			}
			
			
			traits = { ideology_D AM_Laissez-faire_Capitalist }
		}
	# M.Drosopoulos
		GRE_AM_MDrosopoulos_2 = {
			picture = MDrosopoulos_2
			allowed = { tag = GRE }
			available = {
				date > 1917.1.1
				date < 1933.1.1
				D_Minister_Allowed = yes
				NOT = { has_country_flag = MDrosopoulos_unavailable }
			}
			
			
			traits = { ideology_D AM_Infantry_Proponent }
		}
	# Miltiades Negropontis
		GRE_AM_Miltiades_Negropontis = {
			picture = Miltiades_Negropontis
			allowed = { tag = GRE }
			available = {
				date > 1918.1.1
				date < 1933.1.1
				D_Minister_Allowed = yes
				NOT = { has_country_flag = Miltiades_Negropontis_unavailable }
			}
			
			
			traits = { ideology_D AM_Administrative_Genius }
		}
	# Markos Aganossos
		GRE_AM_Markos_Aganossos = {
			picture = Markos_Aganossos
			allowed = { tag = GRE }
			available = {
				date > 1933.1.1
				date < 1964.1.1
				D_Minister_Allowed = yes
				NOT = { has_country_flag = Markos_Aganossos_unavailable }
			}
			
			
			traits = { ideology_D AM_Corrupt_Kleptocrat }
		}
	# Theodoros Marsal
		GRE_AM_Theodoros_Marsal = {
			picture = Theodoros_Marsal
			allowed = { tag = GRE }
			available = {
				date > 1937.1.1
				date < 1964.1.1
				D_Minister_Allowed = yes
				NOT = { has_country_flag = Theodoros_Marsal_unavailable }
			}
			
			
			traits = { ideology_D AM_Resource_Industrialist }
		}
	# Themistocles Sophoulis
		GRE_AM_Themistocles_Sophoulis = {
			picture = Themistocles_Sophoulis
			allowed = { tag = GRE }
			available = {
				date > 1941.1.1
				date < 1964.1.1
				D_Minister_Allowed = yes
				NOT = { has_country_flag = Themistocles_Sophoulis_unavailable }
			}
			
			
			traits = { ideology_D AM_Administrative_Genius }
		}
	# Alexandros Svolos
		GRE_AM_Alexandros_Svolos = {
			picture = Alexandros_Svolos
			allowed = { tag = GRE }
			available = {
				date > 1944.1.1
				date < 1964.1.1
				D_Minister_Allowed = yes
				NOT = { has_country_flag = Alexandros_Svolos_unavailable }
			}
			
			
			traits = { ideology_D AM_Resource_Industrialist }
		}
	# Demetrios Gousis
		GRE_AM_Demetrios_Gousis = {
			picture = Demetrios_Gousis
			allowed = { tag = GRE }
			available = {
				date > 1945.1.1
				date < 1964.1.1
				D_Minister_Allowed = yes
				NOT = { has_country_flag = Demetrios_Gousis_unavailable }
			}
			
			
			traits = { ideology_D AM_Battle_Fleet_Proponent }
		}
	# Giorgis Siantos
		GRE_AM_Giorgis_Siantos = {
			picture = Giorgis_Siantos
			allowed = { tag = GRE }
			available = {
				date > 1933.1.1
				date < 1964.1.1
				C_Minister_Allowed = yes
				NOT = { has_country_flag = Giorgis_Siantos_unavailable }
			}
			
			
			traits = { ideology_C AM_Resource_Industrialist }
		}
}
#################################################
### Head of Intelligence
#################################################
	Head_of_Intelligence = {
	# Christos Tsigantes
		GRE_HoI_Christos_Tsigantes = {
			picture = Christos_Tsigantes
			allowed = { tag = GRE }
			available = {
				date > 1941.1.1
				date < 1964.1.1
				F_Minister_Allowed = yes
				NOT = { has_country_flag = Christos_Tsigantes_unavailable }
			}
			
			
			traits = { ideology_F HoI_Industrial_Specialist }
		}
	# Sevastianos Foulidis
		GRE_HoI_Sevastianos_Foulidis = {
			picture = Sevastianos_Foulidis
			allowed = { tag = GRE }
			available = {
				date > 1942.1.1
				date < 1964.1.1
				F_Minister_Allowed = yes
				NOT = { has_country_flag = Sevastianos_Foulidis_unavailable }
			}
			
			
			traits = { ideology_F HoI_Logistics_Specialist }
		}
	# Christos Triantafyllidis
		GRE_HoI_Christos_Triantafyllidis = {
			picture = Christos_Triantafyllidis
			allowed = { tag = GRE }
			available = {
				date > 1933.1.1
				date < 1964.1.1
				F_Minister_Allowed = yes
				NOT = { has_country_flag = Christos_Triantafyllidis_unavailable }
			}
			
			
			traits = { ideology_F HoI_Dismal_Enigma }
		}
	# Alchibiades Stephanopoulos
		GRE_HoI_Alchibiades_Stephanopoulos = {
			picture = Alchibiades_Stephanopoulos
			allowed = { tag = GRE }
			available = {
				date > 1937.1.1
				date < 1964.1.1
				F_Minister_Allowed = yes
				NOT = { has_country_flag = Alchibiades_Stephanopoulos_unavailable }
			}
			
			
			traits = { ideology_F HoI_Industrial_Specialist }
		}
	# Georgios Logothetis
		GRE_HoI_Georgios_Logothetis = {
			picture = Georgios_Logothetis
			allowed = { tag = GRE }
			available = {
				date > 1933.1.1
				date < 1964.1.1
				A_Minister_Allowed = yes
				NOT = { has_country_flag = Georgios_Logothetis_unavailable }
			}
			
			
			traits = { ideology_A HoI_Dismal_Enigma }
		}
	# Alexandros Papagos
		GRE_HoI_Alexandros_Papagos = {
			picture = Alexandros_Papagos
			allowed = { tag = GRE }
			available = {
				date > 1933.1.1
				date < 1964.1.1
				A_Minister_Allowed = yes
				NOT = { has_country_flag = Alexandros_Papagos_unavailable }
			}
			
			
			traits = { ideology_A HoI_Dismal_Enigma }
		}
	# Napoleon Zervas
		GRE_HoI_Napoleon_Zervas = {
			picture = Napoleon_Zervas
			allowed = { tag = GRE }
			available = {
				date > 1944.1.1
				date < 1964.1.1
				A_Minister_Allowed = yes
				NOT = { has_country_flag = Napoleon_Zervas_unavailable }
			}
			
			
			traits = { ideology_A HoI_Logistics_Specialist }
		}
	# Adamantios Androutsopoulos
		GRE_HoI_Adamantios_Androutsopoulos = {
			picture = Adamantios_Androutsopoulos
			allowed = { tag = GRE }
			available = {
				date > 1973.1.1
				date < 2001.1.1
				A_Minister_Allowed = yes
				NOT = { has_country_flag = Adamantios_Androutsopoulos_unavailable }
			}
			
			
			traits = { ideology_A HoI_Dismal_Enigma }
		}
	# Anastassios Bardivilias
		GRE_HoI_Anastassios_Bardivilias = {
			picture = Anastassios_Bardivilias
			allowed = { tag = GRE }
			available = {
				date > 1933.1.1
				date < 1964.1.1
				D_Minister_Allowed = yes
				NOT = { has_country_flag = Anastassios_Bardivilias_unavailable }
			}
			
			
			traits = { ideology_D HoI_Naval_Intelligence_Specialist }
		}
	# Ioannis Metaxas
		GRE_HoI_Ioannis_Metaxas = {
			picture = Ioannis_Metaxas
			allowed = { tag = GRE }
			available = {
				date > 1933.1.1
				date < 1964.1.1
				D_Minister_Allowed = yes
				NOT = { has_country_flag = Ioannis_Metaxas_unavailable }
			}
			
			
			traits = { ideology_D HoI_Logistics_Specialist }
		}
	# Georgios Drossopoulos
		GRE_HoI_Georgios_Drossopoulos = {
			picture = Georgios_Drossopoulos
			allowed = { tag = GRE }
			available = {
				date > 1941.1.1
				date < 1964.1.1
				D_Minister_Allowed = yes
				NOT = { has_country_flag = Georgios_Drossopoulos_unavailable }
			}
			
			
			traits = { ideology_D HoI_Technical_Specialist }
		}
	# Georgios Streit
		GRE_HoI_Georgios_Streit = {
			picture = Georgios_Streit
			allowed = { tag = GRE }
			available = {
				date > 1944.1.1
				date < 1964.1.1
				D_Minister_Allowed = yes
				NOT = { has_country_flag = Georgios_Streit_unavailable }
			}
			
			
			traits = { ideology_D HoI_Industrial_Specialist }
		}
	# Anatasios Kanellopoulos
		GRE_HoI_Anatasios_Kanellopoulos = {
			picture = Anatasios_Kanellopoulos
			allowed = { tag = GRE }
			available = {
				date > 1946.1.1
				date < 1964.1.1
				D_Minister_Allowed = yes
				NOT = { has_country_flag = Anatasios_Kanellopoulos_unavailable }
			}
			
			
			traits = { ideology_D HoI_Dismal_Enigma }
		}
	# Alexandros Propanis
		GRE_HoI_Alexandros_Propanis = {
			picture = Alexandros_Propanis
			allowed = { tag = GRE }
			available = {
				date > 1947.1.1
				date < 1964.1.1
				D_Minister_Allowed = yes
				NOT = { has_country_flag = Alexandros_Propanis_unavailable }
			}
			
			
			traits = { ideology_D HoI_Logistics_Specialist }
		}
	# Eksadaktilos Athanasios
		GRE_HoI_Eksadaktilos_Athanasios = {
			picture = Eksadaktilos_Athanasios
			allowed = { tag = GRE }
			available = {
				date > 1914.1.1
				date < 1933.1.1
				D_Minister_Allowed = yes
				NOT = { has_country_flag = Eksadaktilos_Athanasios_unavailable }
			}
			
			
			traits = { ideology_D HoI_Logistics_Specialist }
		}
	# Georgios Papandreou
		GRE_HoI_Georgios_Papandreou = {
			picture = Georgios_Papandreou
			allowed = { tag = GRE }
			available = {
				date > 1933.1.1
				date < 1964.1.1
				D_Minister_Allowed = yes
				NOT = { has_country_flag = Georgios_Papandreou_unavailable }
			}
			
			
			traits = { ideology_D HoI_Political_Specialist }
		}
	# Costas Moulas
		GRE_HoI_Costas_Moulas = {
			picture = Costas_Moulas
			allowed = { tag = GRE }
			available = {
				date > 1944.1.1
				date < 1964.1.1
				D_Minister_Allowed = yes
				NOT = { has_country_flag = Costas_Moulas_unavailable }
			}
			
			
			traits = { ideology_D HoI_Naval_Intelligence_Specialist }
		}
	# Giannes Ioannides
		GRE_HoI_Giannes_Ioannides = {
			picture = Giannes_Ioannides
			allowed = { tag = GRE }
			available = {
				date > 1933.1.1
				date < 1964.1.1
				C_Minister_Allowed = yes
				NOT = { has_country_flag = Giannes_Ioannides_unavailable }
			}
			
			
			traits = { ideology_C HoI_Political_Specialist }
		}
	# Evripidis Bakirtris
		GRE_HoI_Evripidis_Bakirtris = {
			picture = Evripidis_Bakirtris
			allowed = { tag = GRE }
			available = {
				date > 1941.1.1
				date < 1964.1.1
				C_Minister_Allowed = yes
				NOT = { has_country_flag = Evripidis_Bakirtris_unavailable }
			}
			
			
			traits = { ideology_C HoI_Industrial_Specialist }
		}
}
#################################################
### Chief of Staff
#################################################
	Chief_of_Staff = {
	# Georgias Tsolakoglou
		GRE_CoStaff_Georgias_Tsolakoglou = {
			picture = Georgias_Tsolakoglou
			allowed = { tag = GRE }
			available = {
				date > 1941.1.1
				date < 1964.1.1
				F_Minister_Allowed = yes
				NOT = { has_country_flag = Georgias_Tsolakoglou_unavailable }
			}
			
			
			traits = { ideology_F CoStaff_School_Of_Manoeuvre }
		}
	# Giorgios Kondylis
		GRE_CoStaff_Giorgios_Kondylis = {
			picture = Giorgios_Kondylis
			allowed = { tag = GRE }
			available = {
				date > 1933.1.1
				date < 1964.1.1
				F_Minister_Allowed = yes
				NOT = { has_country_flag = Giorgios_Kondylis_unavailable }
			}
			
			
			traits = { ideology_F CoStaff_School_Of_Manoeuvre }
		}
	# Leonidas Paraskevopoulos
		GRE_CoStaff_Leonidas_Paraskevopoulos_2 = {
			picture = Leonidas_Paraskevopoulos_2
			allowed = { tag = GRE }
			available = {
				date > 1914.1.1
				date < 1933.1.1
				A_Minister_Allowed = yes
				NOT = { has_country_flag = Leonidas_Paraskevopoulos_unavailable }
			}
			
			
			traits = { ideology_A CoStaff_School_Of_Defence }
		}
	# Constantin Moschopoulos
		GRE_CoStaff_Constantin_Moschopoulos = {
			picture = Constantin_Moschopoulos
			allowed = { tag = GRE }
			available = {
				date > 1914.1.1
				date < 1933.1.1
				A_Minister_Allowed = yes
				NOT = { has_country_flag = Constantin_Moschopoulos_unavailable }
			}
			
			
			traits = { ideology_A CoStaff_School_Of_Psychology }
		}
	# Theodor Pangalos
		GRE_CoStaff_Theodor_Pangalos = {
			picture = Theodor_Pangalos
			allowed = { tag = GRE }
			available = {
				date > 1933.1.1
				date < 1964.1.1
				A_Minister_Allowed = yes
				NOT = { has_country_flag = Theodor_Pangalos_unavailable }
			}
			
			
			traits = { ideology_A CoStaff_School_Of_Defence }
		}
	# Nikolaos Plastiras
		GRE_CoStaff_Nikolaos_Plastiras = {
			picture = Nikolaos_Plastiras
			allowed = { tag = GRE }
			available = {
				date > 1944.1.1
				date < 1964.1.1
				A_Minister_Allowed = yes
				NOT = { has_country_flag = Nikolaos_Plastiras_unavailable }
			}
			
			
			traits = { ideology_A CoStaff_School_Of_Psychology }
		}
	# Leonidas Paraskevopoulos
		GRE_CoStaff_Leonidas_Paraskevopoulos = {
			picture = Leonidas_Paraskevopoulos
			allowed = { tag = GRE }
			available = {
				date > 1946.1.1
				date < 1964.1.1
				A_Minister_Allowed = yes
				NOT = { has_country_flag = Leonidas_Paraskevopoulos_unavailable }
			}
			
			
			traits = { ideology_A CoStaff_School_Of_Mass_Combat }
		}
	# Alexandros Papagos
		GRE_CoStaff_Alexandros_Papagos = {
			picture = Alexandros_Papagos
			allowed = { tag = GRE }
			available = {
				date > 1933.1.1
				date < 1964.1.1
				D_Minister_Allowed = yes
				NOT = { has_country_flag = Alexandros_Papagos_unavailable }
			}
			
			
			traits = { ideology_D CoStaff_School_Of_Defence }
		}
	# Giorgios Lavdas
		GRE_CoStaff_Giorgios_Lavdas = {
			picture = Giorgios_Lavdas
			allowed = { tag = GRE }
			available = {
				date > 1939.1.1
				date < 1964.1.1
				D_Minister_Allowed = yes
				NOT = { has_country_flag = Giorgios_Lavdas_unavailable }
			}
			
			
			traits = { ideology_D CoStaff_School_Of_Manoeuvre }
		}
	# Paraskos Melissinos
		GRE_CoStaff_Paraskos_Melissinos = {
			picture = Paraskos_Melissinos
			allowed = { tag = GRE }
			available = {
				date > 1940.1.1
				date < 1964.1.1
				D_Minister_Allowed = yes
				NOT = { has_country_flag = Paraskos_Melissinos_unavailable }
			}
			
			
			traits = { ideology_D CoStaff_School_Of_Mass_Combat }
		}
	# Vassilios Tsounoukas
		GRE_CoStaff_Vassilios_Tsounoukas = {
			picture = Vassilios_Tsounoukas
			allowed = { tag = GRE }
			available = {
				date > 1944.1.1
				date < 1964.1.1
				D_Minister_Allowed = yes
				NOT = { has_country_flag = Vassilios_Tsounoukas_unavailable }
			}
			
			
			traits = { ideology_D CoStaff_School_Of_Fire_Support }
		}
	# Anastassios Sakellariou
		GRE_CoStaff_Anastassios_Sakellariou = {
			picture = Anastassios_Sakellariou
			allowed = { tag = GRE }
			available = {
				date > 1946.1.1
				date < 1964.1.1
				D_Minister_Allowed = yes
				NOT = { has_country_flag = Anastassios_Sakellariou_unavailable }
			}
			
			
			traits = { ideology_D CoStaff_School_Of_Psychology }
		}
	# Ioannis Metaxas
		GRE_CoStaff_Ioannis_Metaxas = {
			picture = Ioannis_Metaxas
			allowed = { tag = GRE }
			available = {
				date > 1914.1.1
				date < 1933.1.1
				D_Minister_Allowed = yes
				NOT = { has_country_flag = Ioannis_Metaxas_unavailable }
			}
			
			
			traits = { ideology_D CoStaff_School_Of_Fire_Support }
		}
	# Stephanos Sarafis
		GRE_CoStaff_Stephanos_Sarafis = {
			picture = Stephanos_Sarafis
			allowed = { tag = GRE }
			available = {
				date > 1933.1.1
				date < 1964.1.1
				C_Minister_Allowed = yes
				NOT = { has_country_flag = Stephanos_Sarafis_unavailable }
			}
			
			
			traits = { ideology_C CoStaff_School_Of_Mass_Combat }
		}
}
#################################################
### Chief of Army
#################################################
	Chief_of_Army = {
	# Georgias Tsolakoglou
		GRE_CoArmy_Georgias_Tsolakoglou = {
			picture = Georgias_Tsolakoglou
			allowed = { tag = GRE }
			available = {
				date > 1941.1.1
				date < 1964.1.1
				F_Minister_Allowed = yes
				NOT = { has_country_flag = Georgias_Tsolakoglou_unavailable }
			}
			
			
			traits = { ideology_F CoArmy_Decisive_Battle_Doctrine }
		}
	# Theodor Pangalos
		GRE_CoArmy_Theodor_Pangalos = {
			picture = Theodor_Pangalos
			allowed = { tag = GRE }
			available = {
				date > 1938.1.1
				date < 1964.1.1
				F_Minister_Allowed = yes
				NOT = { has_country_flag = Theodor_Pangalos_unavailable }
			}
			
			
			traits = { ideology_F CoArmy_Static_Defence_Doctrine }
		}
	# Panagiotis Danglis
		GRE_CoArmy_Panagiotis_Danglis = {
			picture = Panagiotis_Danglis
			allowed = { tag = GRE }
			available = {
				date > 1917.1.1
				date < 1933.1.1
				A_Minister_Allowed = yes
				NOT = { has_country_flag = Panagiotis_Danglis_unavailable }
			}
			
			
			traits = { ideology_A CoArmy_Elastic_Defence_Doctrine }
		}
	# Alexandros Papagos
		GRE_CoArmy_Alexandros_Papagos = {
			picture = Alexandros_Papagos
			allowed = { tag = GRE }
			available = {
				date > 1933.1.1
				date < 1964.1.1
				A_Minister_Allowed = yes
				NOT = { has_country_flag = Alexandros_Papagos_unavailable }
			}
			
			
			traits = { ideology_A CoArmy_Elastic_Defence_Doctrine }
		}
	# Nikolaos Plastiras
		GRE_CoArmy_Nikolaos_Plastiras = {
			picture = Nikolaos_Plastiras
			allowed = { tag = GRE }
			available = {
				date > 1944.1.1
				date < 1964.1.1
				A_Minister_Allowed = yes
				NOT = { has_country_flag = Nikolaos_Plastiras_unavailable }
			}
			
			
			traits = { ideology_A CoArmy_Guns_And_Butter_Doctrine }
		}
	# Vassilios Tsounoukas
		GRE_CoArmy_Vassilios_Tsounoukas = {
			picture = Vassilios_Tsounoukas
			allowed = { tag = GRE }
			available = {
				date > 1941.1.1
				date < 1964.1.1
				D_Minister_Allowed = yes
				NOT = { has_country_flag = Vassilios_Tsounoukas_unavailable }
			}
			
			
			traits = { ideology_D CoArmy_Decisive_Battle_Doctrine }
		}
	# Georgios Streit
		GRE_CoArmy_Georgios_Streit = {
			picture = Georgios_Streit
			allowed = { tag = GRE }
			available = {
				date > 1944.1.1
				date < 1964.1.1
				D_Minister_Allowed = yes
				NOT = { has_country_flag = Georgios_Streit_unavailable }
			}
			
			
			traits = { ideology_D CoArmy_Guns_And_Butter_Doctrine }
		}
	# Giorgios Lavdas
		GRE_CoArmy_Giorgios_Lavdas = {
			picture = Giorgios_Lavdas
			allowed = { tag = GRE }
			available = {
				date > 1945.1.1
				date < 1964.1.1
				D_Minister_Allowed = yes
				NOT = { has_country_flag = Giorgios_Lavdas_unavailable }
			}
			
			
			traits = { ideology_D CoArmy_Armoured_Spearhead_Doctrine }
		}
	# Constantine I
		GRE_CoArmy_Constantine_I = {
			picture = Constantine_I
			allowed = { tag = GRE }
			available = {
				date > 1914.1.1
				date < 1933.1.1
				D_Minister_Allowed = yes
				NOT = { has_country_flag = Constantine_I_unavailable }
			}
			
			
			traits = { ideology_D CoArmy_Static_Defence_Doctrine }
		}
	# Giorgios Roussoupoulos
		GRE_CoArmy_Giorgios_Roussoupoulos = {
			picture = Giorgios_Roussoupoulos
			allowed = { tag = GRE }
			available = {
				date > 1941.1.1
				date < 1964.1.1
				D_Minister_Allowed = yes
				NOT = { has_country_flag = Giorgios_Roussoupoulos_unavailable }
			}
			
			
			traits = { ideology_D CoArmy_Elastic_Defence_Doctrine }
		}
	# Aris Velouchiotis
		GRE_CoArmy_Aris_Velouchiotis = {
			picture = Aris_Velouchiotis
			allowed = { tag = GRE }
			available = {
				date > 1933.1.1
				date < 1964.1.1
				C_Minister_Allowed = yes
				NOT = { has_country_flag = Aris_Velouchiotis_unavailable }
			}
			
			
			traits = { ideology_C CoArmy_Decisive_Battle_Doctrine }
		}
}
#################################################
### Chief of Navy
#################################################
	Chief_of_Navy = {
	# Alexandros Oikonomou
		GRE_CoNavy_Alexandros_Oikonomou = {
			picture = Alexandros_Oikonomou
			allowed = { tag = GRE }
			available = {
				date > 1933.1.1
				date < 1964.1.1
				F_Minister_Allowed = yes
				NOT = { has_country_flag = Alexandros_Oikonomou_unavailable }
			}
			
			
			traits = { ideology_F CoNavy_Open_Seas_Doctrine }
		}
	# Paulos Kountouriotis
		GRE_CoNavy_Paulos_Kountouriotis = {
			picture = Paulos_Kountouriotis
			allowed = { tag = GRE }
			available = {
				date > 1914.1.1
				date < 1933.1.1
				A_Minister_Allowed = yes
				NOT = { has_country_flag = Paulos_Kountouriotis_unavailable }
			}
			
			
			traits = { ideology_A CoNavy_Decisive_Naval_Battle_Doctrine }
		}
	# Alexandros Sakellariou
		GRE_CoNavy_Alexandros_Sakellariou = {
			picture = Alexandros_Sakellariou
			allowed = { tag = GRE }
			available = {
				date > 1933.1.1
				date < 1964.1.1
				A_Minister_Allowed = yes
				NOT = { has_country_flag = Alexandros_Sakellariou_unavailable }
			}
			
			
			traits = { ideology_A CoNavy_Open_Seas_Doctrine }
		}
	# Alexiou Tsamotos
		GRE_CoNavy_Alexiou_Tsamotos = {
			picture = Alexiou_Tsamotos
			allowed = { tag = GRE }
			available = {
				date > 1941.1.1
				date < 1964.1.1
				D_Minister_Allowed = yes
				NOT = { has_country_flag = Alexiou_Tsamotos_unavailable }
			}
			
			
			traits = { ideology_D CoNavy_Decisive_Naval_Battle_Doctrine }
		}
	# Petros Voulgaris
		GRE_CoNavy_Petros_Voulgaris = {
			picture = Petros_Voulgaris
			allowed = { tag = GRE }
			available = {
				date > 1944.1.1
				date < 1964.1.1
				D_Minister_Allowed = yes
				NOT = { has_country_flag = Petros_Voulgaris_unavailable }
			}
			
			
			traits = { ideology_D CoNavy_Indirect_Approach_Doctrine }
		}
	# Paulos Kountouriotis
		GRE_CoNavy_Paulos_Kountouriotis_2 = {
			picture = Paulos_Kountouriotis_2
			allowed = { tag = GRE }
			available = {
				date > 1914.1.1
				date < 1933.1.1
				D_Minister_Allowed = yes
				NOT = { has_country_flag = Paulos_Kountouriotis_unavailable }
			}
			
			
			traits = { ideology_D CoNavy_Decisive_Naval_Battle_Doctrine }
		}
	# Mark Kerr
		GRE_CoNavy_Mark_Kerr = {
			picture = Mark_Kerr
			allowed = { tag = GRE }
			available = {
				date > 1914.1.1
				date < 1917.1.1
				D_Minister_Allowed = yes
				NOT = { has_country_flag = Mark_Kerr_unavailable }
			}
			
			
			traits = { ideology_D CoNavy_Decisive_Naval_Battle_Doctrine }
		}
	# Nikolaos Votsis
		GRE_CoNavy_Nikolaos_Votsis = {
			picture = Nikolaos_Votsis
			allowed = { tag = GRE }
			available = {
				date > 1933.1.1
				date < 1964.1.1
				D_Minister_Allowed = yes
				NOT = { has_country_flag = Nikolaos_Votsis_unavailable }
			}
			
			
			traits = { ideology_D CoNavy_Base_Control_Doctrine }
		}
	# Demetrios Gousis
		GRE_CoNavy_Demetrios_Gousis = {
			picture = Demetrios_Gousis
			allowed = { tag = GRE }
			available = {
				date > 1941.1.1
				date < 1964.1.1
				D_Minister_Allowed = yes
				NOT = { has_country_flag = Demetrios_Gousis_unavailable }
			}
			
			
			traits = { ideology_D CoNavy_Decisive_Naval_Battle_Doctrine }
		}
	# Militiades Porphyrogins
		GRE_CoNavy_Militiades_Porphyrogins = {
			picture = Militiades_Porphyrogins
			allowed = { tag = GRE }
			available = {
				date > 1933.1.1
				date < 1964.1.1
				C_Minister_Allowed = yes
				NOT = { has_country_flag = Militiades_Porphyrogins_unavailable }
			}
			
			
			traits = { ideology_C CoNavy_Decisive_Naval_Battle_Doctrine }
		}
}
#################################################
### Chief of Airforce
#################################################
	Chief_of_Airforce = {
	# Eleftherios Venizelos
		GRE_CoAir_Eleftherios_Venizelos = {
			picture = Eleftherios_Venizelos
			allowed = { tag = GRE }
			available = {
				date > 1933.1.1
				date < 1935.1.1
				A_Minister_Allowed = yes
				NOT = { has_country_flag = Eleftherios_Venizelos_unavailable }
			}
			
			
			traits = { ideology_A CoAir_Army_Aviation_Doctrine }
		}
	# Spyridon Paparigopoulos
		GRE_CoAir_Spyridon_Paparigopoulos = {
			picture = Spyridon_Paparigopoulos
			allowed = { tag = GRE }
			available = {
				date > 1933.1.1
				date < 1964.1.1
				A_Minister_Allowed = yes
				NOT = { has_country_flag = Spyridon_Paparigopoulos_unavailable }
			}
			
			
			traits = { ideology_A CoAir_Army_Aviation_Doctrine }
		}
	# Panagotis Papanikolaou
		GRE_CoAir_Panagotis_Papanikolaou = {
			picture = Panagotis_Papanikolaou
			allowed = { tag = GRE }
			available = {
				date > 1933.1.1
				date < 1964.1.1
				D_Minister_Allowed = yes
				NOT = { has_country_flag = Panagotis_Papanikolaou_unavailable }
			}
			
			
			traits = { ideology_D CoAir_Carpet_Bombing_Doctrine }
		}
	# Panagiotes Gazis
		GRE_CoAir_Panagiotes_Gazis = {
			picture = Panagiotes_Gazis
			allowed = { tag = GRE }
			available = {
				date > 1933.1.1
				date < 1964.1.1
				D_Minister_Allowed = yes
				NOT = { has_country_flag = Panagiotes_Gazis_unavailable }
			}
			
			
			traits = { ideology_D CoAir_Air_Superiority_Doctrine }
		}
	# Antoine Frangulis
		GRE_CoAir_Antoine_Frangulis = {
			picture = Antoine_Frangulis
			allowed = { tag = GRE }
			available = {
				date > 1941.1.1
				date < 1964.1.1
				D_Minister_Allowed = yes
				NOT = { has_country_flag = Antoine_Frangulis_unavailable }
			}
			
			
			traits = { ideology_D CoAir_Air_Superiority_Doctrine }
		}
	# Anastassios Bardivilias
		GRE_CoAir_Anastassios_Bardivilias = {
			picture = Anastassios_Bardivilias
			allowed = { tag = GRE }
			available = {
				date > 1944.1.1
				date < 1964.1.1
				D_Minister_Allowed = yes
				NOT = { has_country_flag = Anastassios_Bardivilias_unavailable }
			}
			
			
			traits = { ideology_D CoAir_Naval_Aviation_Doctrine }
		}
	# Gaecia Geanados
		GRE_CoAir_Gaecia_Geanados = {
			picture = Gaecia_Geanados
			allowed = { tag = GRE }
			available = {
				date > 1941.1.1
				date < 1964.1.1
				D_Minister_Allowed = yes
				NOT = { has_country_flag = Gaecia_Geanados_unavailable }
			}
			
			
			traits = { ideology_D CoAir_Carpet_Bombing_Doctrine }
		}
	# Euthanassos Perrikos
		GRE_CoAir_Euthanassos_Perrikos = {
			picture = Euthanassos_Perrikos
			allowed = { tag = GRE }
			available = {
				date > 1944.1.1
				date < 1964.1.1
				D_Minister_Allowed = yes
				NOT = { has_country_flag = Euthanassos_Perrikos_unavailable }
			}
			
			
			traits = { ideology_D CoAir_Vertical_Envelopment_Doctrine }
		}
	# Nikos Beloyannis
		GRE_CoAir_Nikos_Beloyannis = {
			picture = Nikos_Beloyannis
			allowed = { tag = GRE }
			available = {
				date > 1933.1.1
				date < 1964.1.1
				C_Minister_Allowed = yes
				NOT = { has_country_flag = Nikos_Beloyannis_unavailable }
			}
			
			
			traits = { ideology_C CoAir_Naval_Aviation_Doctrine }
		}
	}
}
