ideas = {
#################################################
### Head of Government
#################################################
	Head_of_Government = {
	# Patrick Sweeney
		IRE_HoG_Patrick_Sweeney = {
			picture = Patrick_Sweeney
			allowed = { tag = IRE }
			available = {
				date > 1933.1.1
				date < 1964.1.1
				F_Minister_Allowed = yes
				NOT = { has_country_flag = Patrick_Sweeney_unavailable }
			}
			
			
			traits = { ideology_F HoG_Happy_Amateur }
		}
	# W.T. Cosgrave
		IRE_HoG_WT_Cosgrave = {
			picture = WT_Cosgrave
			allowed = { tag = IRE }
			available = {
				date > 1922.1.1
				date < 1964.1.1
				D_Minister_Allowed = yes
				NOT = { has_country_flag = WT_Cosgrave_unavailable }
			}
			
			
			traits = { ideology_D HoG_Silent_Workhorse }
		}
	# Domhnall Ua Buachalla
		IRE_HoS_Domhnall_Ua_Buachalla = {
			picture = HoS_Domhnall_Ua_Buachalla
			allowed = { tag = IRE }
			available = {
				date > 1922.1.1
				date < 1964.1.1
				D_Minister_Allowed = yes
				NOT = { has_country_flag = Domhnall_Ua_Buachalla_unavailable }
			}
			
			
			traits = { ideology_D POSITION_Governor_General HoG_Silent_Workhorse }
		}
	# Richard Mulcahy
		IRE_HoG_Richard_Mulcahy = {
			picture = Richard_Mulcahy
			allowed = { tag = IRE }
			available = {
				date > 1944.1.1
				date < 1964.1.1
				D_Minister_Allowed = yes
				NOT = { has_country_flag = Richard_Mulcahy_unavailable }
			}
			
			
			traits = { ideology_D HoG_Corporate_Suit }
		}
	# John A. Costello
		IRE_HoG_John_A_Costello = {
			picture = John_A_Costello
			allowed = { tag = IRE }
			available = {
				date > 1947.1.1
				date < 1964.1.1
				D_Minister_Allowed = yes
				NOT = { has_country_flag = John_A_Costello_unavailable }
			}
			
			
			traits = { ideology_D HoG_Backroom_Backstabber }
		}
	# James Dillon
		IRE_HoG_James_Dillon = {
			picture = James_Dillon
			allowed = { tag = IRE }
			available = {
				date > 1959.1.1
				date < 1987.1.1
				D_Minister_Allowed = yes
				NOT = { has_country_flag = James_Dillon_unavailable }
			}
			
			
			traits = { ideology_D HoG_Naive_Optimist }
		}
	# Liam Cosgrave
		IRE_HoG_Liam_Cosgrave = {
			picture = Liam_Cosgrave
			allowed = { tag = IRE }
			available = {
				date > 1969.1.1
				date < 2020.1.1
				D_Minister_Allowed = yes
				NOT = { has_country_flag = Liam_Cosgrave_unavailable }
			}
			
			
			traits = { ideology_D HoG_Naive_Optimist }
		}
	# Garret FitzGerald
		IRE_HoG_Garret_FitzGerald = {
			picture = Garret_FitzGerald
			allowed = { tag = IRE }
			available = {
				date > 1982.1.1
				date < 2012.1.1
				D_Minister_Allowed = yes
				NOT = { has_country_flag = Garret_FitzGerald_unavailable }
			}
			
			
			traits = { ideology_D HoG_Old_Admiral }
		}
	# Alan Dukes
		IRE_HoG_Alan_Dukes = {
			picture = Alan_Dukes
			allowed = { tag = IRE }
			available = {
				date > 1987.1.1
				date < 2020.1.1
				D_Minister_Allowed = yes
				NOT = { has_country_flag = Alan_Dukes_unavailable }
			}
			
			
			traits = { ideology_D HoG_Ambitious_Union_Boss }
		}
	# John Redmond
		IRE_HoG_John_Redmond = {
			picture = John_Redmond
			allowed = { tag = IRE }
			available = {
				date > 1900.1.1
				date < 1918.1.1
				D_Minister_Allowed = yes
				NOT = { has_country_flag = John_Redmond_unavailable }
			}
			
			
			traits = { ideology_D HoG_Silent_Workhorse }
		}
	# John Dillon
		IRE_HoG_John_Dillon = {
			picture = John_Dillon
			allowed = { tag = IRE }
			available = {
				date > 1918.1.1
				date < 1927.1.1
				D_Minister_Allowed = yes
				NOT = { has_country_flag = John_Dillon_unavailable }
			}
			
			
			traits = { ideology_D HoG_Happy_Amateur }
		}
	# Joseph Devlin
		IRE_HoG_Joseph_Devlin = {
			picture = Joseph_Devlin
			allowed = { tag = IRE }
			available = {
				date > 1918.1.1
				date < 1934.1.1
				D_Minister_Allowed = yes
				NOT = { has_country_flag = Joseph_Devlin_unavailable }
			}
			
			
			traits = { ideology_D HoG_Silent_Workhorse }
		}
	# Eamon de Valera
		IRE_HoG_Eamon_de_Valera = {
			picture = Eamon_de_Valera
			allowed = { tag = IRE }
			available = {
				date > 1926.1.1
				date < 1964.1.1
				D_Minister_Allowed = yes
				NOT = { has_country_flag = Eamon_de_Valera_unavailable }
			}
			
			
			traits = { ideology_D HoG_Flamboyant_Tough_Guy }
		}
	# Denis McCullough
		IRE_HoG_Denis_McCullough = {
			picture = Denis_McCullough
			allowed = { tag = IRE }
			available = {
				date > 1914.1.1
				date < 1916.1.1
				D_Minister_Allowed = yes
				NOT = { has_country_flag = Denis_McCullough_unavailable }
			}
			
			
			traits = { ideology_D HoG_Happy_Amateur }
		}
	# Cathal Brugha
		IRE_HoG_Cathal_Brugha = {
			picture = Cathal_Brugha
			allowed = { tag = IRE }
			available = {
				date > 1914.1.1
				date < 1933.1.1
				D_Minister_Allowed = yes
				NOT = { has_country_flag = Cathal_Brugha_unavailable }
			}
			
			
			traits = { ideology_D HoG_Flamboyant_Tough_Guy }
		}
	# Michael Collins
		IRE_HoG_Michael_Collins = {
			picture = Michael_Collins
			allowed = { tag = IRE }
			available = {
				date > 1922.1.1
				date < 1923.1.1
				D_Minister_Allowed = yes
				NOT = { has_country_flag = Michael_Collins_unavailable }
			}
			
			
			traits = { ideology_D HoG_Flamboyant_Tough_Guy }
		}
	# Seán Lemass
		IRE_HoG_Sean_Lemass_2 = {
			picture = Sean_Lemass_2
			allowed = { tag = IRE }
			available = {
				date > 1959.1.1
				date < 1972.1.1
				D_Minister_Allowed = yes
				NOT = { has_country_flag = Sean_Lemass_unavailable }
			}
			
			
			traits = { ideology_D HoG_Political_Protege }
		}
	# Jack Lynch
		IRE_HoG_Jack_Lynch = {
			picture = Jack_Lynch
			allowed = { tag = IRE }
			available = {
				date > 1966.1.1
				date < 2000.1.1
				D_Minister_Allowed = yes
				NOT = { has_country_flag = Jack_Lynch_unavailable }
			}
			
			
			traits = { ideology_D HoG_Old_General }
		}
	# Charles Haughey
		IRE_HoG_Charles_Haughey = {
			picture = Charles_Haughey
			allowed = { tag = IRE }
			available = {
				date > 1979.1.1
				date < 2007.1.1
				D_Minister_Allowed = yes
				NOT = { has_country_flag = Charles_Haughey_unavailable }
			}
			
			
			traits = { ideology_D HoG_Happy_Amateur }
		}
	# Thomas Johnson
		IRE_HoG_Thomas_Johnson = {
			picture = Thomas_Johnson
			allowed = { tag = IRE }
			available = {
				date > 1917.1.1
				date < 1927.1.1
				D_Minister_Allowed = yes
				NOT = { has_country_flag = Thomas_Johnson_unavailable }
			}
			
			
			traits = { ideology_D HoG_Ambitious_Union_Boss }
		}
	# Eamon de Valera
		IRE_HoG_Eamon_de_Valera_2 = {
			picture = Eamon_de_Valera_2
			allowed = { tag = IRE }
			available = {
				date > 1917.1.1
				date < 1926.1.1
				D_Minister_Allowed = yes
				NOT = { has_country_flag = Eamon_de_Valera_unavailable }
			}
			
			
			traits = { ideology_D HoG_Flamboyant_Tough_Guy }
		}
	# Arthur Griffith
		IRE_HoG_Arthur_Griffith = {
			picture = Arthur_Griffith
			allowed = { tag = IRE }
			available = {
				date > 1922.1.1
				date < 1923.1.1
				D_Minister_Allowed = yes
				NOT = { has_country_flag = Arthur_Griffith_unavailable }
			}
			
			
			traits = { ideology_D HoG_Silent_Workhorse }
		}
	# William Norton
		IRE_HoG_William_Norton = {
			picture = William_Norton
			allowed = { tag = IRE }
			available = {
				date > 1932.1.1
				date < 1960.1.1
				D_Minister_Allowed = yes
				NOT = { has_country_flag = William_Norton_unavailable }
			}
			
			
			traits = { ideology_D HoG_Happy_Amateur }
		}
	# Seán Lemass
		IRE_HoG_Sean_Lemass = {
			picture = Sean_Lemass
			allowed = { tag = IRE }
			available = {
				date > 1941.1.1
				date < 1964.1.1
				D_Minister_Allowed = yes
				NOT = { has_country_flag = Sean_Lemass_unavailable }
			}
			
			
			traits = { ideology_D HoG_Smiling_Oilman }
		}
	# James Larkin Jr.
		IRE_HoG_James_Larkin_Jr = {
			picture = James_Larkin_Jr
			allowed = { tag = IRE }
			available = {
				date > 1933.1.1
				date < 1964.1.1
				S_Minister_Allowed = yes
				NOT = { has_country_flag = James_Larkin_Jr_unavailable }
			}
			
			
			traits = { ideology_S HoG_Political_Protege }
		}
}
#################################################
### Foreign Minister
#################################################
	Foreign_Minister = {
	# Oliver J. Flanagan
		IRE_FM_Oliver_J_Flanagan = {
			picture = Oliver_J_Flanagan
			allowed = { tag = IRE }
			available = {
				date > 1933.1.1
				date < 1964.1.1
				A_Minister_Allowed = yes
				NOT = { has_country_flag = Oliver_J_Flanagan_unavailable }
			}
			
			
			traits = { ideology_A FM_Biased_Intellectual }
		}
	# W.T. Cosgrave
		IRE_FM_WT_Cosgrave = {
			picture = WT_Cosgrave
			allowed = { tag = IRE }
			available = {
				date > 1927.1.1
				date < 1964.1.1
				D_Minister_Allowed = yes
				NOT = { has_country_flag = WT_Cosgrave_unavailable }
			}
			
			
			traits = { ideology_D FM_Biased_Intellectual }
		}
	# Kevin O'Higgins
		IRE_FM_Kevin_OHiggins = {
			picture = Kevin_OHiggins
			allowed = { tag = IRE }
			available = {
				date > 1927.1.1
				date < 1964.1.1
				D_Minister_Allowed = yes
				NOT = { has_country_flag = Kevin_OHiggins_unavailable }
			}
			
			
			traits = { ideology_D FM_Ideological_Crusader }
		}
	# Richard Mulcahy
		IRE_FM_Richard_Mulcahy = {
			picture = Richard_Mulcahy
			allowed = { tag = IRE }
			available = {
				date > 1941.1.1
				date < 1964.1.1
				D_Minister_Allowed = yes
				NOT = { has_country_flag = Richard_Mulcahy_unavailable }
			}
			
			
			traits = { ideology_D FM_Apologetic_Clerk }
		}
	# John A. Costello
		IRE_FM_John_A_Costello = {
			picture = John_A_Costello
			allowed = { tag = IRE }
			available = {
				date > 1944.1.1
				date < 1964.1.1
				D_Minister_Allowed = yes
				NOT = { has_country_flag = John_A_Costello_unavailable }
			}
			
			
			traits = { ideology_D FM_Great_Compromiser }
		}
	# Sean MacBride
		IRE_FM_Sean_MacBride = {
			picture = Sean_MacBride
			allowed = { tag = IRE }
			available = {
				date > 1947.1.1
				date < 1964.1.1
				D_Minister_Allowed = yes
				NOT = { has_country_flag = Sean_MacBride_unavailable }
			}
			
			
			traits = { ideology_D FM_Iron_Fisted_Brute }
		}
	# Liam Cosgrave
		IRE_FM_Liam_Cosgrave = {
			picture = Liam_Cosgrave
			allowed = { tag = IRE }
			available = {
				date > 1954.1.1
				date < 2020.1.1
				D_Minister_Allowed = yes
				NOT = { has_country_flag = Liam_Cosgrave_unavailable }
			}
			
			
			traits = { ideology_D FM_Ideological_Crusader }
		}
	# Patrick Hillery
		IRE_FM_Patrick_Hillery = {
			picture = Patrick_Hillery
			allowed = { tag = IRE }
			available = {
				date > 1969.1.1
				date < 2009.1.1
				D_Minister_Allowed = yes
				NOT = { has_country_flag = Patrick_Hillery_unavailable }
			}
			
			
			traits = { ideology_D FM_Apologetic_Clerk }
		}
	# Garret FitzGerald
		IRE_FM_Garret_FitzGerald = {
			picture = Garret_FitzGerald
			allowed = { tag = IRE }
			available = {
				date > 1973.1.1
				date < 2012.1.1
				D_Minister_Allowed = yes
				NOT = { has_country_flag = Garret_FitzGerald_unavailable }
			}
			
			
			traits = { ideology_D FM_General_Staffer }
		}
	# Peter Barry
		IRE_FM_Peter_Barry = {
			picture = Peter_Barry
			allowed = { tag = IRE }
			available = {
				date > 1982.1.1
				date < 2016.1.1
				D_Minister_Allowed = yes
				NOT = { has_country_flag = Peter_Barry_unavailable }
			}
			
			
			traits = { ideology_D FM_Great_Compromiser }
		}
	# Joseph Devlin
		IRE_FM_Joseph_Devlin = {
			picture = Joseph_Devlin
			allowed = { tag = IRE }
			available = {
				date > 1914.1.1
				date < 1934.1.1
				D_Minister_Allowed = yes
				NOT = { has_country_flag = Joseph_Devlin_unavailable }
			}
			
			
			traits = { ideology_D FM_Biased_Intellectual }
		}
	# Eamon de Valera
		IRE_FM_Eamon_de_Valera = {
			picture = Eamon_de_Valera
			allowed = { tag = IRE }
			available = {
				date > 1932.1.1
				date < 1964.1.1
				D_Minister_Allowed = yes
				NOT = { has_country_flag = Eamon_de_Valera_unavailable }
			}
			
			
			traits = { ideology_D FM_Ideological_Crusader }
		}
	# P.A. Mulcahy
		IRE_FM_PA_Mulcahy = {
			picture = PA_Mulcahy
			allowed = { tag = IRE }
			available = {
				date > 1947.1.1
				date < 1964.1.1
				D_Minister_Allowed = yes
				NOT = { has_country_flag = PA_Mulcahy_unavailable }
			}
			
			
			traits = { ideology_D FM_General_Staffer }
		}
	# Frank Aiken
		IRE_FM_Frank_Aiken = {
			picture = Frank_Aiken
			allowed = { tag = IRE }
			available = {
				date > 1951.1.1
				date < 1964.1.1
				D_Minister_Allowed = yes
				NOT = { has_country_flag = Frank_Aiken_unavailable }
			}
			
			
			traits = { ideology_D FM_Great_Compromiser }
		}
	# Brian Lenihan 
		IRE_FM_Brian_Lenihan_ = {
			picture = Brian_Lenihan_
			allowed = { tag = IRE }
			available = {
				date > 1973.1.1
				date < 1995.1.1
				D_Minister_Allowed = yes
				NOT = { has_country_flag = Brian_Lenihan__unavailable }
			}
			
			
			traits = { ideology_D FM_Biased_Intellectual }
		}
	# Michael O'Kennedy
		IRE_FM_Michael_OKennedy = {
			picture = Michael_OKennedy
			allowed = { tag = IRE }
			available = {
				date > 1977.1.1
				date < 2020.1.1
				D_Minister_Allowed = yes
				NOT = { has_country_flag = Michael_OKennedy_unavailable }
			}
			
			
			traits = { ideology_D FM_Iron_Fisted_Brute }
		}
	# Gerry Collins
		IRE_FM_Gerry_Collins = {
			picture = Gerry_Collins
			allowed = { tag = IRE }
			available = {
				date > 1982.1.1
				date < 2020.1.1
				D_Minister_Allowed = yes
				NOT = { has_country_flag = Gerry_Collins_unavailable }
			}
			
			
			traits = { ideology_D FM_Apologetic_Clerk }
		}
	# George Gavan Duffy
		IRE_FM_George_Gavan_Duffy = {
			picture = George_Gavan_Duffy
			allowed = { tag = IRE }
			available = {
				date > 1922.1.1
				date < 1933.1.1
				D_Minister_Allowed = yes
				NOT = { has_country_flag = George_Gavan_Duffy_unavailable }
			}
			
			
			traits = { ideology_D FM_Iron_Fisted_Brute }
		}
	# Desmond Fitzgerald
		IRE_FM_Desmond_Fitzgerald = {
			picture = Desmond_Fitzgerald
			allowed = { tag = IRE }
			available = {
				date > 1922.1.1
				date < 1943.1.1
				D_Minister_Allowed = yes
				NOT = { has_country_flag = Desmond_Fitzgerald_unavailable }
			}
			
			
			traits = { ideology_D FM_Great_Compromiser }
		}
	# James Dooge
		IRE_FM_James_Dooge = {
			picture = James_Dooge
			allowed = { tag = IRE }
			available = {
				date > 1981.1.1
				date < 2010.1.1
				D_Minister_Allowed = yes
				NOT = { has_country_flag = James_Dooge_unavailable }
			}
			
			
			traits = { ideology_D FM_Biased_Intellectual }
		}
	# George Noble Plunkett
		IRE_FM_George_Noble_Plunkett = {
			picture = George_Noble_Plunkett
			allowed = { tag = IRE }
			available = {
				date > 1917.1.1
				date < 1936.1.1
				D_Minister_Allowed = yes
				NOT = { has_country_flag = George_Noble_Plunkett_unavailable }
			}
			
			
			traits = { ideology_D FM_Great_Compromiser }
		}
	# Arthur Griffith
		IRE_FM_Arthur_Griffith = {
			picture = Arthur_Griffith
			allowed = { tag = IRE }
			available = {
				date > 1918.1.1
				date < 1922.1.1
				D_Minister_Allowed = yes
				NOT = { has_country_flag = Arthur_Griffith_unavailable }
			}
			
			
			traits = { ideology_D FM_Biased_Intellectual }
		}
	# Thomas Johnson
		IRE_FM_Thomas_Johnson = {
			picture = Thomas_Johnson
			allowed = { tag = IRE }
			available = {
				date > 1923.1.1
				date < 1964.1.1
				D_Minister_Allowed = yes
				NOT = { has_country_flag = Thomas_Johnson_unavailable }
			}
			
			
			traits = { ideology_D FM_Ideological_Crusader }
		}
	# Liam O'Monahan
		IRE_FM_Liam_OMonahan = {
			picture = Liam_OMonahan
			allowed = { tag = IRE }
			available = {
				date > 1933.1.1
				date < 1964.1.1
				D_Minister_Allowed = yes
				NOT = { has_country_flag = Liam_OMonahan_unavailable }
			}
			
			
			traits = { ideology_D FM_Great_Compromiser }
		}
	# William Norton
		IRE_FM_William_Norton = {
			picture = William_Norton
			allowed = { tag = IRE }
			available = {
				date > 1933.1.1
				date < 1964.1.1
				D_Minister_Allowed = yes
				NOT = { has_country_flag = William_Norton_unavailable }
			}
			
			
			traits = { ideology_D FM_Apologetic_Clerk }
		}
	# Michael O'Rafferty
		IRE_FM_Michael_ORafferty = {
			picture = Michael_ORafferty
			allowed = { tag = IRE }
			available = {
				date > 1937.1.1
				date < 1964.1.1
				D_Minister_Allowed = yes
				NOT = { has_country_flag = Michael_ORafferty_unavailable }
			}
			
			
			traits = { ideology_D FM_The_Cloak_N_Dagger_Schemer }
		}
	# Bill Gannon
		IRE_FM_Bill_Gannon = {
			picture = Bill_Gannon
			allowed = { tag = IRE }
			available = {
				date > 1941.1.1
				date < 1964.1.1
				S_Minister_Allowed = yes
				NOT = { has_country_flag = Bill_Gannon_unavailable }
			}
			
			
			traits = { ideology_S FM_Ideological_Crusader }
		}
	# Jim Larkin Sr.
		IRE_FM_Jim_Larkin_Sr = {
			picture = Jim_Larkin_Sr
			allowed = { tag = IRE }
			available = {
				date > 1933.1.1
				date < 1964.1.1
				C_Minister_Allowed = yes
				NOT = { has_country_flag = Jim_Larkin_Sr_unavailable }
			}
			
			
			traits = { ideology_C FM_Iron_Fisted_Brute }
		}
}
#################################################
### Minister of Security
#################################################
	Minister_of_Security = {
	# Eamonn Broy
		IRE_MoS_Eamonn_Broy = {
			picture = Eamonn_Broy
			allowed = { tag = IRE }
			available = {
				date > 1933.1.1
				date < 1964.1.1
				F_Minister_Allowed = yes
				NOT = { has_country_flag = Eamonn_Broy_unavailable }
			}
			
			
			traits = { ideology_F MoS_Crime_Fighter }
		}
	# W.T. Cosgrave
		IRE_MoS_WT_Cosgrave = {
			picture = WT_Cosgrave
			allowed = { tag = IRE }
			available = {
				date > 1927.1.1
				date < 1933.1.1
				D_Minister_Allowed = yes
				NOT = { has_country_flag = WT_Cosgrave_unavailable }
			}
			
			
			traits = { ideology_D MoS_Compassionate_Gentleman }
		}
	# Eoin MacNeill
		IRE_MoS_Eoin_MacNeill = {
			picture = Eoin_MacNeill
			allowed = { tag = IRE }
			available = {
				date > 1933.1.1
				date < 1964.1.1
				D_Minister_Allowed = yes
				NOT = { has_country_flag = Eoin_MacNeill_unavailable }
			}
			
			
			traits = { ideology_D MoS_Efficient_Sociopath }
		}
	# John W. Dulanty
		IRE_MoS_John_W_Dulanty = {
			picture = John_W_Dulanty
			allowed = { tag = IRE }
			available = {
				date > 1937.1.1
				date < 1964.1.1
				D_Minister_Allowed = yes
				NOT = { has_country_flag = John_W_Dulanty_unavailable }
			}
			
			
			traits = { ideology_D MoS_Crime_Fighter }
		}
	# Frank McDermott
		IRE_MoS_Frank_McDermott = {
			picture = Frank_McDermott
			allowed = { tag = IRE }
			available = {
				date > 1938.1.1
				date < 1964.1.1
				D_Minister_Allowed = yes
				NOT = { has_country_flag = Frank_McDermott_unavailable }
			}
			
			
			traits = { ideology_D MoS_Man_Of_The_People }
		}
	# Ludwig Bieler
		IRE_MoS_Ludwig_Bieler = {
			picture = Ludwig_Bieler
			allowed = { tag = IRE }
			available = {
				date > 1941.1.1
				date < 1964.1.1
				D_Minister_Allowed = yes
				NOT = { has_country_flag = Ludwig_Bieler_unavailable }
			}
			
			
			traits = { ideology_D MoS_Prince_Of_Terror }
		}
	# Kevin Haugh
		IRE_MoS_Kevin_Haugh = {
			picture = Kevin_Haugh
			allowed = { tag = IRE }
			available = {
				date > 1944.1.1
				date < 1964.1.1
				D_Minister_Allowed = yes
				NOT = { has_country_flag = Kevin_Haugh_unavailable }
			}
			
			
			traits = { ideology_D MoS_Silent_Lawyer }
		}
	# Sean MacEoin
		IRE_MoS_Sean_MacEoin = {
			picture = Sean_MacEoin
			allowed = { tag = IRE }
			available = {
				date > 1947.1.1
				date < 1964.1.1
				D_Minister_Allowed = yes
				NOT = { has_country_flag = Sean_MacEoin_unavailable }
			}
			
			
			traits = { ideology_D MoS_Compassionate_Gentleman }
		}
	# Patrick Cooney
		IRE_MoS_Patrick_Cooney = {
			picture = Patrick_Cooney
			allowed = { tag = IRE }
			available = {
				date > 1973.1.1
				date < 2020.1.1
				D_Minister_Allowed = yes
				NOT = { has_country_flag = Patrick_Cooney_unavailable }
			}
			
			
			traits = { ideology_D MoS_Silent_Lawyer }
		}
	# Jim Mitchell
		IRE_MoS_Jim_Mitchell = {
			picture = Jim_Mitchell
			allowed = { tag = IRE }
			available = {
				date > 1981.1.1
				date < 2020.1.1
				D_Minister_Allowed = yes
				NOT = { has_country_flag = Jim_Mitchell_unavailable }
			}
			
			
			traits = { ideology_D MoS_Crime_Fighter }
		}
	# Michael Noonan
		IRE_MoS_Michael_Noonan = {
			picture = Michael_Noonan
			allowed = { tag = IRE }
			available = {
				date > 1982.1.1
				date < 2013.1.1
				D_Minister_Allowed = yes
				NOT = { has_country_flag = Michael_Noonan_unavailable }
			}
			
			
			traits = { ideology_D MoS_Back_Stabber }
		}
	# Alan Dukes
		IRE_MoS_Alan_Dukes = {
			picture = Alan_Dukes
			allowed = { tag = IRE }
			available = {
				date > 1986.1.1
				date < 2020.1.1
				D_Minister_Allowed = yes
				NOT = { has_country_flag = Alan_Dukes_unavailable }
			}
			
			
			traits = { ideology_D MoS_Crime_Fighter }
		}
	# John Redmond
		IRE_MoS_John_Redmond = {
			picture = John_Redmond
			allowed = { tag = IRE }
			available = {
				date > 1900.1.1
				date < 1918.1.1
				D_Minister_Allowed = yes
				NOT = { has_country_flag = John_Redmond_unavailable }
			}
			
			
			traits = { ideology_D MoS_Man_Of_The_People }
		}
	# John Dillon
		IRE_MoS_John_Dillon = {
			picture = John_Dillon
			allowed = { tag = IRE }
			available = {
				date > 1918.1.1
				date < 1927.1.1
				D_Minister_Allowed = yes
				NOT = { has_country_flag = John_Dillon_unavailable }
			}
			
			
			traits = { ideology_D MoS_Silent_Lawyer }
		}
	# Kevin O'Higgins
		IRE_MoS_Kevin_OHiggins = {
			picture = Kevin_OHiggins
			allowed = { tag = IRE }
			available = {
				date > 1923.1.1
				date < 1927.1.1
				D_Minister_Allowed = yes
				NOT = { has_country_flag = Kevin_OHiggins_unavailable }
			}
			
			
			traits = { ideology_D MoS_Prince_Of_Terror }
		}
	# James FitzGerald-Kenney
		IRE_MoS_James_FitzGeraldKenney = {
			picture = James_FitzGeraldKenney
			allowed = { tag = IRE }
			available = {
				date > 1927.1.1
				date < 1932.1.1
				D_Minister_Allowed = yes
				NOT = { has_country_flag = James_FitzGeraldKenney_unavailable }
			}
			
			
			traits = { ideology_D MoS_Silent_Lawyer }
		}
	# Patrick J. Ruttledge
		IRE_MoS_Patrick_J_Ruttledge = {
			picture = Patrick_J_Ruttledge
			allowed = { tag = IRE }
			available = {
				date > 1933.1.1
				date < 1964.1.1
				D_Minister_Allowed = yes
				NOT = { has_country_flag = Patrick_J_Ruttledge_unavailable }
			}
			
			
			traits = { ideology_D MoS_Silent_Lawyer }
		}
	# Gerald Boland
		IRE_MoS_Gerald_Boland = {
			picture = Gerald_Boland
			allowed = { tag = IRE }
			available = {
				date > 1939.1.1
				date < 1964.1.1
				D_Minister_Allowed = yes
				NOT = { has_country_flag = Gerald_Boland_unavailable }
			}
			
			
			traits = { ideology_D MoS_Crime_Fighter }
		}
	# Brian Lenihan 
		IRE_MoS_Brian_Lenihan_ = {
			picture = Brian_Lenihan_
			allowed = { tag = IRE }
			available = {
				date > 1964.1.1
				date < 1995.1.1
				D_Minister_Allowed = yes
				NOT = { has_country_flag = Brian_Lenihan__unavailable }
			}
			
			
			traits = { ideology_D MoS_Compassionate_Gentleman }
		}
	# Micheal Moran
		IRE_MoS_Micheal_Moran = {
			picture = Micheal_Moran
			allowed = { tag = IRE }
			available = {
				date > 1968.1.1
				date < 1983.1.1
				D_Minister_Allowed = yes
				NOT = { has_country_flag = Micheal_Moran_unavailable }
			}
			
			
			traits = { ideology_D MoS_Crooked_Kleptocrat }
		}
	# Desmond O'Malley
		IRE_MoS_Desmond_OMalley = {
			picture = Desmond_OMalley
			allowed = { tag = IRE }
			available = {
				date > 1970.1.1
				date < 2020.1.1
				D_Minister_Allowed = yes
				NOT = { has_country_flag = Desmond_OMalley_unavailable }
			}
			
			
			traits = { ideology_D MoS_Crime_Fighter }
		}
	# Gerry Collins
		IRE_MoS_Gerry_Collins = {
			picture = Gerry_Collins
			allowed = { tag = IRE }
			available = {
				date > 1977.1.1
				date < 2020.1.1
				D_Minister_Allowed = yes
				NOT = { has_country_flag = Gerry_Collins_unavailable }
			}
			
			
			traits = { ideology_D MoS_Compassionate_Gentleman }
		}
	# Seán Doherty
		IRE_MoS_Sean_Doherty = {
			picture = Sean_Doherty
			allowed = { tag = IRE }
			available = {
				date > 1982.1.1
				date < 2005.1.1
				D_Minister_Allowed = yes
				NOT = { has_country_flag = Sean_Doherty_unavailable }
			}
			
			
			traits = { ideology_D MoS_Back_Stabber }
		}
	# Ray Burke
		IRE_MoS_Ray_Burke = {
			picture = Ray_Burke
			allowed = { tag = IRE }
			available = {
				date > 1989.1.1
				date < 2020.1.1
				D_Minister_Allowed = yes
				NOT = { has_country_flag = Ray_Burke_unavailable }
			}
			
			
			traits = { ideology_D MoS_Crooked_Kleptocrat }
		}
	# Michael Collins
		IRE_MoS_Michael_Collins = {
			picture = Michael_Collins
			allowed = { tag = IRE }
			available = {
				date > 1916.1.1
				date < 1922.1.1
				D_Minister_Allowed = yes
				NOT = { has_country_flag = Michael_Collins_unavailable }
			}
			
			
			traits = { ideology_D MoS_Crime_Fighter }
		}
	# Eamonn Duggan
		IRE_MoS_Eamonn_Duggan = {
			picture = Eamonn_Duggan
			allowed = { tag = IRE }
			available = {
				date > 1922.1.1
				date < 1927.1.1
				D_Minister_Allowed = yes
				NOT = { has_country_flag = Eamonn_Duggan_unavailable }
			}
			
			
			traits = { ideology_D MoS_Silent_Lawyer }
		}
	# Charles Haughey
		IRE_MoS_Charles_Haughey = {
			picture = Charles_Haughey
			allowed = { tag = IRE }
			available = {
				date > 1961.1.1
				date < 2007.1.1
				D_Minister_Allowed = yes
				NOT = { has_country_flag = Charles_Haughey_unavailable }
			}
			
			
			traits = { ideology_D MoS_Crooked_Kleptocrat }
		}
	# Arthur Griffith
		IRE_MoS_Arthur_Griffith = {
			picture = Arthur_Griffith
			allowed = { tag = IRE }
			available = {
				date > 1919.1.1
				date < 1922.1.1
				D_Minister_Allowed = yes
				NOT = { has_country_flag = Arthur_Griffith_unavailable }
			}
			
			
			traits = { ideology_D MoS_Compassionate_Gentleman }
		}
	# Austin Stack
		IRE_MoS_Austin_Stack = {
			picture = Austin_Stack
			allowed = { tag = IRE }
			available = {
				date > 1921.1.1
				date < 1927.1.1
				D_Minister_Allowed = yes
				NOT = { has_country_flag = Austin_Stack_unavailable }
			}
			
			
			traits = { ideology_D MoS_Silent_Lawyer }
		}
	# Alasdair McCabe
		IRE_MoS_Alasdair_McCabe = {
			picture = Alasdair_McCabe
			allowed = { tag = IRE }
			available = {
				date > 1933.1.1
				date < 1964.1.1
				D_Minister_Allowed = yes
				NOT = { has_country_flag = Alasdair_McCabe_unavailable }
			}
			
			
			traits = { ideology_D MoS_Back_Stabber }
		}
	# Jack Thomas
		IRE_MoS_Jack_Thomas = {
			picture = Jack_Thomas
			allowed = { tag = IRE }
			available = {
				date > 1937.1.1
				date < 1964.1.1
				D_Minister_Allowed = yes
				NOT = { has_country_flag = Jack_Thomas_unavailable }
			}
			
			
			traits = { ideology_D MoS_Man_Of_The_People }
		}
	# James Geoghegan
		IRE_MoS_James_Geoghegan = {
			picture = James_Geoghegan
			allowed = { tag = IRE }
			available = {
				date > 1941.1.1
				date < 1964.1.1
				D_Minister_Allowed = yes
				NOT = { has_country_flag = James_Geoghegan_unavailable }
			}
			
			
			traits = { ideology_D MoS_Silent_Lawyer }
		}
	# Edward J. Phelan
		IRE_MoS_Edward_J_Phelan = {
			picture = Edward_J_Phelan
			allowed = { tag = IRE }
			available = {
				date > 1942.1.1
				date < 1964.1.1
				D_Minister_Allowed = yes
				NOT = { has_country_flag = Edward_J_Phelan_unavailable }
			}
			
			
			traits = { ideology_D MoS_Prince_Of_Terror }
		}
	# Cearbhall O'Dalaigh
		IRE_MoS_Cearbhall_ODalaigh = {
			picture = Cearbhall_ODalaigh
			allowed = { tag = IRE }
			available = {
				date > 1944.1.1
				date < 1964.1.1
				D_Minister_Allowed = yes
				NOT = { has_country_flag = Cearbhall_ODalaigh_unavailable }
			}
			
			
			traits = { ideology_D MoS_Compassionate_Gentleman }
		}
	# Kevin Dixon
		IRE_MoS_Kevin_Dixon = {
			picture = Kevin_Dixon
			allowed = { tag = IRE }
			available = {
				date > 1947.1.1
				date < 1964.1.1
				D_Minister_Allowed = yes
				NOT = { has_country_flag = Kevin_Dixon_unavailable }
			}
			
			
			traits = { ideology_D MoS_Efficient_Sociopath }
		}
	# Bill Scott
		IRE_MoS_Bill_Scott = {
			picture = Bill_Scott
			allowed = { tag = IRE }
			available = {
				date > 1933.1.1
				date < 1964.1.1
				C_Minister_Allowed = yes
				NOT = { has_country_flag = Bill_Scott_unavailable }
			}
			
			
			traits = { ideology_C MoS_Man_Of_The_People }
		}
	# Betty Sinclair
		IRE_MoS_Betty_Sinclair = {
			picture = Betty_Sinclair
			allowed = { tag = IRE }
			available = {
				date > 1939.1.1
				date < 1964.1.1
				C_Minister_Allowed = yes
				NOT = { has_country_flag = Betty_Sinclair_unavailable }
			}
			
			
			traits = { ideology_C MoS_Back_Stabber }
		}
}
#################################################
### Armaments Minister
#################################################
	Armaments_Minister = {
	# Eoin O'Duffy
		IRE_AM_Eoin_ODuffy = {
			picture = Eoin_ODuffy
			allowed = { tag = IRE }
			available = {
				date > 1941.1.1
				date < 1964.1.1
				F_Minister_Allowed = yes
				NOT = { has_country_flag = Eoin_ODuffy_unavailable }
			}
			
			
			traits = { ideology_F AM_Infantry_Proponent }
		}
	# Donal Brackley
		IRE_AM_Donal_Brackley = {
			picture = Donal_Brackley
			allowed = { tag = IRE }
			available = {
				date > 1933.1.1
				date < 1964.1.1
				A_Minister_Allowed = yes
				NOT = { has_country_flag = Donal_Brackley_unavailable }
			}
			
			
			traits = { ideology_A AM_Battle_Fleet_Proponent }
		}
	# Oliver J. Flanagan
		IRE_AM_Oliver_J_Flanagan = {
			picture = Oliver_J_Flanagan
			allowed = { tag = IRE }
			available = {
				date > 1964.1.1
				date < 1987.1.1
				A_Minister_Allowed = yes
				NOT = { has_country_flag = Oliver_J_Flanagan_unavailable }
			}
			
			
			traits = { ideology_A AM_Resource_Industrialist }
		}
	# W.T. Cosgrave
		IRE_AM_WT_Cosgrave = {
			picture = WT_Cosgrave
			allowed = { tag = IRE }
			available = {
				date > 1922.1.1
				date < 1933.1.1
				D_Minister_Allowed = yes
				NOT = { has_country_flag = WT_Cosgrave_unavailable }
			}
			
			
			traits = { ideology_D AM_Resource_Industrialist }
		}
	# Frank McDermott
		IRE_AM_Frank_McDermott = {
			picture = Frank_McDermott
			allowed = { tag = IRE }
			available = {
				date > 1933.1.1
				date < 1964.1.1
				D_Minister_Allowed = yes
				NOT = { has_country_flag = Frank_McDermott_unavailable }
			}
			
			
			traits = { ideology_D AM_Strategic_Air_Proponent }
		}
	# John A. Costello
		IRE_AM_John_A_Costello = {
			picture = John_A_Costello
			allowed = { tag = IRE }
			available = {
				date > 1937.1.1
				date < 1964.1.1
				D_Minister_Allowed = yes
				NOT = { has_country_flag = John_A_Costello_unavailable }
			}
			
			
			traits = { ideology_D AM_Air_To_Ground_Proponent }
		}
	# Richard Mulcahy
		IRE_AM_Richard_Mulcahy = {
			picture = Richard_Mulcahy
			allowed = { tag = IRE }
			available = {
				date > 1939.1.1
				date < 1964.1.1
				D_Minister_Allowed = yes
				NOT = { has_country_flag = Richard_Mulcahy_unavailable }
			}
			
			
			traits = { ideology_D AM_Military_Entrepreneur }
		}
	# Seán Moylan
		IRE_AM_Sean_Moylan = {
			picture = Sean_Moylan
			allowed = { tag = IRE }
			available = {
				date > 1941.1.1
				date < 1964.1.1
				D_Minister_Allowed = yes
				NOT = { has_country_flag = Sean_Moylan_unavailable }
			}
			
			
			traits = { ideology_D AM_Infantry_Proponent }
		}
	# Patrick Lynch
		IRE_AM_Patrick_Lynch = {
			picture = Patrick_Lynch
			allowed = { tag = IRE }
			available = {
				date > 1942.1.1
				date < 1964.1.1
				D_Minister_Allowed = yes
				NOT = { has_country_flag = Patrick_Lynch_unavailable }
			}
			
			
			traits = { ideology_D AM_Submarine_Proponent }
		}
	# John O'Byrne
		IRE_AM_John_OByrne = {
			picture = John_OByrne
			allowed = { tag = IRE }
			available = {
				date > 1944.1.1
				date < 1964.1.1
				D_Minister_Allowed = yes
				NOT = { has_country_flag = John_OByrne_unavailable }
			}
			
			
			traits = { ideology_D AM_Laissez-faire_Capitalist }
		}
	# Patrick McGilligan
		IRE_AM_Patrick_McGilligan = {
			picture = Patrick_McGilligan
			allowed = { tag = IRE }
			available = {
				date > 1947.1.1
				date < 1964.1.1
				D_Minister_Allowed = yes
				NOT = { has_country_flag = Patrick_McGilligan_unavailable }
			}
			
			
			traits = { ideology_D AM_Resource_Industrialist }
		}
	# Kevin O'Higgins
		IRE_AM_Kevin_OHiggins = {
			picture = Kevin_OHiggins
			allowed = { tag = IRE }
			available = {
				date > 1948.1.1
				date < 1964.1.1
				D_Minister_Allowed = yes
				NOT = { has_country_flag = Kevin_OHiggins_unavailable }
			}
			
			
			traits = { ideology_D AM_Military_Entrepreneur }
		}
	# James Gibbons
		IRE_AM_James_Gibbons = {
			picture = James_Gibbons
			allowed = { tag = IRE }
			available = {
				date > 1969.1.1
				date < 1997.1.1
				D_Minister_Allowed = yes
				NOT = { has_country_flag = James_Gibbons_unavailable }
			}
			
			
			traits = { ideology_D AM_Resource_Industrialist }
		}
	# Patrick S. Donegan
		IRE_AM_Patrick_S_Donegan = {
			picture = Patrick_S_Donegan
			allowed = { tag = IRE }
			available = {
				date > 1973.1.1
				date < 2000.1.1
				D_Minister_Allowed = yes
				NOT = { has_country_flag = Patrick_S_Donegan_unavailable }
			}
			
			
			traits = { ideology_D AM_Infantry_Proponent }
		}
	# Patrick Cooney
		IRE_AM_Patrick_Cooney = {
			picture = Patrick_Cooney
			allowed = { tag = IRE }
			available = {
				date > 1982.1.1
				date < 2020.1.1
				D_Minister_Allowed = yes
				NOT = { has_country_flag = Patrick_Cooney_unavailable }
			}
			
			
			traits = { ideology_D AM_Laissez-faire_Capitalist }
		}
	# Paddy O'Toole
		IRE_AM_Paddy_OToole = {
			picture = Paddy_OToole
			allowed = { tag = IRE }
			available = {
				date > 1986.1.1
				date < 2020.1.1
				D_Minister_Allowed = yes
				NOT = { has_country_flag = Paddy_OToole_unavailable }
			}
			
			
			traits = { ideology_D AM_Submarine_Proponent }
		}
	# Michael Noonan
		IRE_AM_Michael_Noonan = {
			picture = Michael_Noonan
			allowed = { tag = IRE }
			available = {
				date > 1987.1.1
				date < 2013.1.1
				D_Minister_Allowed = yes
				NOT = { has_country_flag = Michael_Noonan_unavailable }
			}
			
			
			traits = { ideology_D AM_Resource_Industrialist }
		}
	# Brendan Daly
		IRE_AM_Brendan_Daly = {
			picture = Brendan_Daly
			allowed = { tag = IRE }
			available = {
				date > 1989.1.1
				date < 2020.1.1
				D_Minister_Allowed = yes
				NOT = { has_country_flag = Brendan_Daly_unavailable }
			}
			
			
			traits = { ideology_D AM_Infantry_Proponent }
		}
	# John Dillon
		IRE_AM_John_Dillon = {
			picture = John_Dillon
			allowed = { tag = IRE }
			available = {
				date > 1914.1.1
				date < 1927.1.1
				D_Minister_Allowed = yes
				NOT = { has_country_flag = John_Dillon_unavailable }
			}
			
			
			traits = { ideology_D AM_Administrative_Genius }
		}
	# Joseph McGrath
		IRE_AM_Joseph_McGrath = {
			picture = Joseph_McGrath
			allowed = { tag = IRE }
			available = {
				date > 1922.1.1
				date < 1924.1.1
				D_Minister_Allowed = yes
				NOT = { has_country_flag = Joseph_McGrath_unavailable }
			}
			
			
			traits = { ideology_D AM_Resource_Industrialist }
		}
	# Seán MacEntee
		IRE_AM_Sean_MacEntee = {
			picture = Sean_MacEntee
			allowed = { tag = IRE }
			available = {
				date > 1933.1.1
				date < 1964.1.1
				D_Minister_Allowed = yes
				NOT = { has_country_flag = Sean_MacEntee_unavailable }
			}
			
			
			traits = { ideology_D AM_Laissez-faire_Capitalist }
		}
	# Douglas Hyde
		IRE_AM_Douglas_Hyde = {
			picture = Douglas_Hyde
			allowed = { tag = IRE }
			available = {
				date > 1933.1.1
				date < 1964.1.1
				D_Minister_Allowed = yes
				NOT = { has_country_flag = Douglas_Hyde_unavailable }
			}
			
			
			traits = { ideology_D AM_Military_Entrepreneur }
		}
	# Seán T. O'Ceallaigh
		IRE_AM_Sean_T_OCeallaigh = {
			picture = Sean_T_OCeallaigh
			allowed = { tag = IRE }
			available = {
				date > 1939.1.1
				date < 1964.1.1
				D_Minister_Allowed = yes
				NOT = { has_country_flag = Sean_T_OCeallaigh_unavailable }
			}
			
			
			traits = { ideology_D AM_Military_Entrepreneur }
		}
	# Oscar Traynor
		IRE_AM_Oscar_Traynor = {
			picture = Oscar_Traynor
			allowed = { tag = IRE }
			available = {
				date > 1939.1.1
				date < 1964.1.1
				D_Minister_Allowed = yes
				NOT = { has_country_flag = Oscar_Traynor_unavailable }
			}
			
			
			traits = { ideology_D AM_Infantry_Proponent }
		}
	# Frank Aiken
		IRE_AM_Frank_Aiken = {
			picture = Frank_Aiken
			allowed = { tag = IRE }
			available = {
				date > 1944.1.1
				date < 1964.1.1
				D_Minister_Allowed = yes
				NOT = { has_country_flag = Frank_Aiken_unavailable }
			}
			
			
			traits = { ideology_D AM_Resource_Industrialist }
		}
	# Edmund Noel Mulcahy
		IRE_AM_Edmund_Noel_Mulcahy = {
			picture = Edmund_Noel_Mulcahy
			allowed = { tag = IRE }
			available = {
				date > 1947.1.1
				date < 1964.1.1
				D_Minister_Allowed = yes
				NOT = { has_country_flag = Edmund_Noel_Mulcahy_unavailable }
			}
			
			
			traits = { ideology_D AM_Theoretical_Scientist }
		}
	# Gerald Bartley
		IRE_AM_Gerald_Bartley = {
			picture = Gerald_Bartley
			allowed = { tag = IRE }
			available = {
				date > 1961.1.1
				date < 1974.1.1
				D_Minister_Allowed = yes
				NOT = { has_country_flag = Gerald_Bartley_unavailable }
			}
			
			
			traits = { ideology_D AM_Military_Entrepreneur }
		}
	# Michael Hilliard
		IRE_AM_Michael_Hilliard = {
			picture = Michael_Hilliard
			allowed = { tag = IRE }
			available = {
				date > 1965.1.1
				date < 1982.1.1
				D_Minister_Allowed = yes
				NOT = { has_country_flag = Michael_Hilliard_unavailable }
			}
			
			
			traits = { ideology_D AM_Resource_Industrialist }
		}
	# Jerry Cronin
		IRE_AM_Jerry_Cronin = {
			picture = Jerry_Cronin
			allowed = { tag = IRE }
			available = {
				date > 1970.1.1
				date < 1990.1.1
				D_Minister_Allowed = yes
				NOT = { has_country_flag = Jerry_Cronin_unavailable }
			}
			
			
			traits = { ideology_D AM_Corrupt_Kleptocrat }
		}
	# Robert Molloy
		IRE_AM_Robert_Molloy = {
			picture = Robert_Molloy
			allowed = { tag = IRE }
			available = {
				date > 1977.1.1
				date < 2016.1.1
				D_Minister_Allowed = yes
				NOT = { has_country_flag = Robert_Molloy_unavailable }
			}
			
			
			traits = { ideology_D AM_Resource_Industrialist }
		}
	# Pádraig Faulkner
		IRE_AM_Padraig_Faulkner = {
			picture = Padraig_Faulkner
			allowed = { tag = IRE }
			available = {
				date > 1979.1.1
				date < 2012.1.1
				D_Minister_Allowed = yes
				NOT = { has_country_flag = Padraig_Faulkner_unavailable }
			}
			
			
			traits = { ideology_D AM_Corrupt_Kleptocrat }
		}
	# Sylvester Barret
		IRE_AM_Sylvester_Barret = {
			picture = Sylvester_Barret
			allowed = { tag = IRE }
			available = {
				date > 1980.1.1
				date < 2002.1.1
				D_Minister_Allowed = yes
				NOT = { has_country_flag = Sylvester_Barret_unavailable }
			}
			
			
			traits = { ideology_D AM_Corrupt_Kleptocrat }
		}
	# Patrick Power
		IRE_AM_Patrick_Power = {
			picture = Patrick_Power
			allowed = { tag = IRE }
			available = {
				date > 1982.1.1
				date < 2013.1.1
				D_Minister_Allowed = yes
				NOT = { has_country_flag = Patrick_Power_unavailable }
			}
			
			
			traits = { ideology_D AM_Resource_Industrialist }
		}
	# Michael Collins
		IRE_AM_Michael_Collins = {
			picture = Michael_Collins
			allowed = { tag = IRE }
			available = {
				date > 1919.1.1
				date < 1922.1.1
				D_Minister_Allowed = yes
				NOT = { has_country_flag = Michael_Collins_unavailable }
			}
			
			
			traits = { ideology_D AM_Administrative_Genius }
		}
	# James Tully
		IRE_AM_James_Tully = {
			picture = James_Tully
			allowed = { tag = IRE }
			available = {
				date > 1981.1.1
				date < 1992.1.1
				D_Minister_Allowed = yes
				NOT = { has_country_flag = James_Tully_unavailable }
			}
			
			
			traits = { ideology_D AM_Corrupt_Kleptocrat }
		}
	# Eoin MacNeill
		IRE_AM_Eoin_MacNeill = {
			picture = Eoin_MacNeill
			allowed = { tag = IRE }
			available = {
				date > 1916.1.1
				date < 1933.1.1
				D_Minister_Allowed = yes
				NOT = { has_country_flag = Eoin_MacNeill_unavailable }
			}
			
			
			traits = { ideology_D AM_Resource_Industrialist }
		}
	# Ernest Blythe
		IRE_AM_Ernest_Blythe = {
			picture = Ernest_Blythe
			allowed = { tag = IRE }
			available = {
				date > 1919.1.1
				date < 1932.1.1
				D_Minister_Allowed = yes
				NOT = { has_country_flag = Ernest_Blythe_unavailable }
			}
			
			
			traits = { ideology_D AM_Laissez-faire_Capitalist }
		}
	# Seán Lemass
		IRE_AM_Sean_Lemass = {
			picture = Sean_Lemass
			allowed = { tag = IRE }
			available = {
				date > 1933.1.1
				date < 1964.1.1
				D_Minister_Allowed = yes
				NOT = { has_country_flag = Sean_Lemass_unavailable }
			}
			
			
			traits = { ideology_D AM_Resource_Industrialist }
		}
	# William Gallacher
		IRE_AM_William_Gallacher = {
			picture = William_Gallacher
			allowed = { tag = IRE }
			available = {
				date > 1937.1.1
				date < 1964.1.1
				D_Minister_Allowed = yes
				NOT = { has_country_flag = William_Gallacher_unavailable }
			}
			
			
			traits = { ideology_D AM_Air_Superiority_Proponent }
		}
	# Sean Murray
		IRE_AM_Sean_Murray = {
			picture = Sean_Murray
			allowed = { tag = IRE }
			available = {
				date > 1939.1.1
				date < 1964.1.1
				D_Minister_Allowed = yes
				NOT = { has_country_flag = Sean_Murray_unavailable }
			}
			
			
			traits = { ideology_D AM_Air_To_Ground_Proponent }
		}
	# Sean Lester
		IRE_AM_Sean_Lester = {
			picture = Sean_Lester
			allowed = { tag = IRE }
			available = {
				date > 1943.1.1
				date < 1964.1.1
				D_Minister_Allowed = yes
				NOT = { has_country_flag = Sean_Lester_unavailable }
			}
			
			
			traits = { ideology_D AM_Battle_Fleet_Proponent }
		}
	# Cecil Lavery
		IRE_AM_Cecil_Lavery = {
			picture = Cecil_Lavery
			allowed = { tag = IRE }
			available = {
				date > 1944.1.1
				date < 1964.1.1
				D_Minister_Allowed = yes
				NOT = { has_country_flag = Cecil_Lavery_unavailable }
			}
			
			
			traits = { ideology_D AM_Administrative_Genius }
		}
	# Patrick O'Brien
		IRE_AM_Patrick_OBrien = {
			picture = Patrick_OBrien
			allowed = { tag = IRE }
			available = {
				date > 1947.1.1
				date < 1964.1.1
				D_Minister_Allowed = yes
				NOT = { has_country_flag = Patrick_OBrien_unavailable }
			}
			
			
			traits = { ideology_D AM_Tank_Proponent }
		}
	# James Conolly
		IRE_AM_James_Conolly = {
			picture = James_Conolly
			allowed = { tag = IRE }
			available = {
				date > 1933.1.1
				date < 1964.1.1
				S_Minister_Allowed = yes
				NOT = { has_country_flag = James_Conolly_unavailable }
			}
			
			
			traits = { ideology_S AM_Administrative_Genius }
		}
	# James Larkin Jr.
		IRE_AM_James_Larkin_Jr = {
			picture = James_Larkin_Jr
			allowed = { tag = IRE }
			available = {
				date > 1941.1.1
				date < 1964.1.1
				S_Minister_Allowed = yes
				NOT = { has_country_flag = James_Larkin_Jr_unavailable }
			}
			
			
			traits = { ideology_S AM_Air_Superiority_Proponent }
		}
	# Bill Gannon
		IRE_AM_Bill_Gannon = {
			picture = Bill_Gannon
			allowed = { tag = IRE }
			available = {
				date > 1942.1.1
				date < 1964.1.1
				C_Minister_Allowed = yes
				NOT = { has_country_flag = Bill_Gannon_unavailable }
			}
			
			
			traits = { ideology_C AM_Tank_Proponent }
		}
}
#################################################
### Head of Intelligence
#################################################
	Head_of_Intelligence = {
	# Donal Brackley
		IRE_HoI_Donal_Brackley = {
			picture = Donal_Brackley
			allowed = { tag = IRE }
			available = {
				date > 1933.1.1
				date < 1964.1.1
				F_Minister_Allowed = yes
				NOT = { has_country_flag = Donal_Brackley_unavailable }
			}
			
			
			traits = { ideology_F HoI_Industrial_Specialist }
		}
	# Patrick Sweeney
		IRE_HoI_Patrick_Sweeney = {
			picture = Patrick_Sweeney
			allowed = { tag = IRE }
			available = {
				date > 1939.1.1
				date < 1964.1.1
				F_Minister_Allowed = yes
				NOT = { has_country_flag = Patrick_Sweeney_unavailable }
			}
			
			
			traits = { ideology_F HoI_Dismal_Enigma }
		}
	# Liam Archer
		IRE_HoI_Liam_Archer = {
			picture = Liam_Archer
			allowed = { tag = IRE }
			available = {
				date > 1933.1.1
				date < 1964.1.1
				D_Minister_Allowed = yes
				NOT = { has_country_flag = Liam_Archer_unavailable }
			}
			
			
			traits = { ideology_D HoI_Dismal_Enigma }
		}
	# Joseph Walshe
		IRE_HoI_Joseph_Walshe = {
			picture = Joseph_Walshe
			allowed = { tag = IRE }
			available = {
				date > 1941.1.1
				date < 1964.1.1
				D_Minister_Allowed = yes
				NOT = { has_country_flag = Joseph_Walshe_unavailable }
			}
			
			
			traits = { ideology_D HoI_Industrial_Specialist }
		}
	# Thomas Teevan
		IRE_HoI_Thomas_Teevan = {
			picture = Thomas_Teevan
			allowed = { tag = IRE }
			available = {
				date > 1944.1.1
				date < 1964.1.1
				D_Minister_Allowed = yes
				NOT = { has_country_flag = Thomas_Teevan_unavailable }
			}
			
			
			traits = { ideology_D HoI_Naval_Intelligence_Specialist }
		}
	# Sean MacEoin
		IRE_HoI_Sean_MacEoin = {
			picture = Sean_MacEoin
			allowed = { tag = IRE }
			available = {
				date > 1947.1.1
				date < 1964.1.1
				D_Minister_Allowed = yes
				NOT = { has_country_flag = Sean_MacEoin_unavailable }
			}
			
			
			traits = { ideology_D HoI_Political_Specialist }
		}
	# Liam Tobin
		IRE_HoI_Liam_Tobin = {
			picture = Liam_Tobin
			allowed = { tag = IRE }
			available = {
				date > 1922.1.1
				date < 1924.1.1
				D_Minister_Allowed = yes
				NOT = { has_country_flag = Liam_Tobin_unavailable }
			}
			
			
			traits = { ideology_D HoI_Logistics_Specialist }
		}
	# Diarmuid O'Hergarty
		IRE_HoI_Diarmuid_OHergarty = {
			picture = Diarmuid_OHergarty
			allowed = { tag = IRE }
			available = {
				date > 1922.1.1
				date < 1933.1.1
				D_Minister_Allowed = yes
				NOT = { has_country_flag = Diarmuid_OHergarty_unavailable }
			}
			
			
			traits = { ideology_D HoI_Technical_Specialist }
		}
	# Joseph McGrath
		IRE_HoI_Joseph_McGrath = {
			picture = Joseph_McGrath
			allowed = { tag = IRE }
			available = {
				date > 1922.1.1
				date < 1924.1.1
				D_Minister_Allowed = yes
				NOT = { has_country_flag = Joseph_McGrath_unavailable }
			}
			
			
			traits = { ideology_D HoI_Logistics_Specialist }
		}
	# David Neligan
		IRE_HoI_David_Neligan = {
			picture = David_Neligan
			allowed = { tag = IRE }
			available = {
				date > 1922.1.1
				date < 1924.1.1
				D_Minister_Allowed = yes
				NOT = { has_country_flag = David_Neligan_unavailable }
			}
			
			
			traits = { ideology_D HoI_Dismal_Enigma }
		}
	# Joseph E. Vize
		IRE_HoI_Joseph_E_Vize = {
			picture = Joseph_E_Vize
			allowed = { tag = IRE }
			available = {
				date > 1922.1.1
				date < 1933.1.1
				D_Minister_Allowed = yes
				NOT = { has_country_flag = Joseph_E_Vize_unavailable }
			}
			
			
			traits = { ideology_D HoI_Naval_Intelligence_Specialist }
		}
	# Gerald Boland
		IRE_HoI_Gerald_Boland = {
			picture = Gerald_Boland
			allowed = { tag = IRE }
			available = {
				date > 1933.1.1
				date < 1964.1.1
				D_Minister_Allowed = yes
				NOT = { has_country_flag = Gerald_Boland_unavailable }
			}
			
			
			traits = { ideology_D HoI_Political_Specialist }
		}
	# Frank Aiken
		IRE_HoI_Frank_Aiken = {
			picture = Frank_Aiken
			allowed = { tag = IRE }
			available = {
				date > 1933.1.1
				date < 1964.1.1
				D_Minister_Allowed = yes
				NOT = { has_country_flag = Frank_Aiken_unavailable }
			}
			
			
			traits = { ideology_D HoI_Industrial_Specialist }
		}
	# Dan McKenna
		IRE_HoI_Dan_McKenna = {
			picture = Dan_McKenna
			allowed = { tag = IRE }
			available = {
				date > 1938.1.1
				date < 1964.1.1
				D_Minister_Allowed = yes
				NOT = { has_country_flag = Dan_McKenna_unavailable }
			}
			
			
			traits = { ideology_D HoI_Technical_Specialist }
		}
	# Oscar Traynor
		IRE_HoI_Oscar_Traynor = {
			picture = Oscar_Traynor
			allowed = { tag = IRE }
			available = {
				date > 1939.1.1
				date < 1964.1.1
				D_Minister_Allowed = yes
				NOT = { has_country_flag = Oscar_Traynor_unavailable }
			}
			
			
			traits = { ideology_D HoI_Logistics_Specialist }
		}
	# Jack Lynch
		IRE_HoI_Jack_Lynch = {
			picture = Jack_Lynch
			allowed = { tag = IRE }
			available = {
				date > 1947.1.1
				date < 1964.1.1
				D_Minister_Allowed = yes
				NOT = { has_country_flag = Jack_Lynch_unavailable }
			}
			
			
			traits = { ideology_D HoI_Political_Specialist }
		}
	# Michael Collins
		IRE_HoI_Michael_Collins = {
			picture = Michael_Collins
			allowed = { tag = IRE }
			available = {
				date > 1916.1.1
				date < 1922.1.1
				D_Minister_Allowed = yes
				NOT = { has_country_flag = Michael_Collins_unavailable }
			}
			
			
			traits = { ideology_D HoI_Political_Specialist }
		}
	# Denis McCullough
		IRE_HoI_Denis_McCullough = {
			picture = Denis_McCullough
			allowed = { tag = IRE }
			available = {
				date > 1933.1.1
				date < 1964.1.1
				D_Minister_Allowed = yes
				NOT = { has_country_flag = Denis_McCullough_unavailable }
			}
			
			
			traits = { ideology_D HoI_Naval_Intelligence_Specialist }
		}
	# Joseph Conolly
		IRE_HoI_Joseph_Conolly = {
			picture = Joseph_Conolly
			allowed = { tag = IRE }
			available = {
				date > 1937.1.1
				date < 1964.1.1
				D_Minister_Allowed = yes
				NOT = { has_country_flag = Joseph_Conolly_unavailable }
			}
			
			
			traits = { ideology_D HoI_Political_Specialist }
		}
	# Padraig O'Connor
		IRE_HoI_Padraig_OConnor = {
			picture = Padraig_OConnor
			allowed = { tag = IRE }
			available = {
				date > 1941.1.1
				date < 1964.1.1
				D_Minister_Allowed = yes
				NOT = { has_country_flag = Padraig_OConnor_unavailable }
			}
			
			
			traits = { ideology_D HoI_Industrial_Specialist }
		}
	# Hugh Kennedy
		IRE_HoI_Hugh_Kennedy = {
			picture = Hugh_Kennedy
			allowed = { tag = IRE }
			available = {
				date > 1947.1.1
				date < 1964.1.1
				D_Minister_Allowed = yes
				NOT = { has_country_flag = Hugh_Kennedy_unavailable }
			}
			
			
			traits = { ideology_D HoI_Technical_Specialist }
		}
	# Sean Murray
		IRE_HoI_Sean_Murray = {
			picture = Sean_Murray
			allowed = { tag = IRE }
			available = {
				date > 1933.1.1
				date < 1964.1.1
				C_Minister_Allowed = yes
				NOT = { has_country_flag = Sean_Murray_unavailable }
			}
			
			
			traits = { ideology_C HoI_Naval_Intelligence_Specialist }
		}
	# Betty Sinclair
		IRE_HoI_Betty_Sinclair = {
			picture = Betty_Sinclair
			allowed = { tag = IRE }
			available = {
				date > 1939.1.1
				date < 1964.1.1
				C_Minister_Allowed = yes
				NOT = { has_country_flag = Betty_Sinclair_unavailable }
			}
			
			
			traits = { ideology_C HoI_Technical_Specialist }
		}
}
#################################################
### Chief of Staff
#################################################
	Chief_of_Staff = {
	# Hubert de la Poer Gough
		IRE_CoStaff_Hubert_de_la_Poer_Gough = {
			picture = Hubert_de_la_Poer_Gough
			allowed = { tag = IRE }
			available = {
				date > 1914.1.1
				date < 1922.1.1
				A_Minister_Allowed = yes
				NOT = { has_country_flag = Hubert_de_la_Poer_Gough_unavailable }
			}
			
			
			traits = { ideology_A CoStaff_School_Of_Mass_Combat }
		}
	# Eoin O'Duffy
		IRE_CoStaff_Eoin_ODuffy = {
			picture = Eoin_ODuffy
			allowed = { tag = IRE }
			available = {
				date > 1921.1.1
				date < 1933.1.1
				D_Minister_Allowed = yes
				NOT = { has_country_flag = Eoin_ODuffy_unavailable }
			}
			
			
			traits = { ideology_D CoStaff_School_Of_Fire_Support }
		}
	# Richard Mulcahy
		IRE_CoStaff_Richard_Mulcahy = {
			picture = Richard_Mulcahy
			allowed = { tag = IRE }
			available = {
				date > 1933.1.1
				date < 1964.1.1
				D_Minister_Allowed = yes
				NOT = { has_country_flag = Richard_Mulcahy_unavailable }
			}
			
			
			traits = { ideology_D CoStaff_School_Of_Psychology }
		}
	# Conor Maguire
		IRE_CoStaff_Conor_Maguire = {
			picture = Conor_Maguire
			allowed = { tag = IRE }
			available = {
				date > 1941.1.1
				date < 1964.1.1
				D_Minister_Allowed = yes
				NOT = { has_country_flag = Conor_Maguire_unavailable }
			}
			
			
			traits = { ideology_D CoStaff_School_Of_Mass_Combat }
		}
	# Liam Archer
		IRE_CoStaff_Liam_Archer = {
			picture = Liam_Archer
			allowed = { tag = IRE }
			available = {
				date > 1947.1.1
				date < 1964.1.1
				D_Minister_Allowed = yes
				NOT = { has_country_flag = Liam_Archer_unavailable }
			}
			
			
			traits = { ideology_D CoStaff_School_Of_Fire_Support }
		}
	# Sean MacEoin
		IRE_CoStaff_Sean_MacEoin = {
			picture = Sean_MacEoin
			allowed = { tag = IRE }
			available = {
				date > 1960.1.1
				date < 1998.1.1
				D_Minister_Allowed = yes
				NOT = { has_country_flag = Sean_MacEoin_unavailable }
			}
			
			
			traits = { ideology_D CoStaff_School_Of_Fire_Support }
		}
	# Gerald O'Sullivan
		IRE_CoStaff_Gerald_OSullivan = {
			picture = Gerald_OSullivan
			allowed = { tag = IRE }
			available = {
				date > 1984.1.1
				date < 2020.1.1
				D_Minister_Allowed = yes
				NOT = { has_country_flag = Gerald_OSullivan_unavailable }
			}
			
			
			traits = { ideology_D CoStaff_School_Of_Defence }
		}
	# Tadhg O'Neill
		IRE_CoStaff_Tadhg_ONeill = {
			picture = Tadhg_ONeill
			allowed = { tag = IRE }
			available = {
				date > 1986.1.1
				date < 2008.1.1
				D_Minister_Allowed = yes
				NOT = { has_country_flag = Tadhg_ONeill_unavailable }
			}
			
			
			traits = { ideology_D CoStaff_School_Of_Psychology }
		}
	# J.J. O'Connell
		IRE_CoStaff_JJ_OConnell = {
			picture = JJ_OConnell
			allowed = { tag = IRE }
			available = {
				date > 1921.1.1
				date < 1936.1.1
				D_Minister_Allowed = yes
				NOT = { has_country_flag = JJ_OConnell_unavailable }
			}
			
			
			traits = { ideology_D CoStaff_School_Of_Psychology }
		}
	# Hugo MacNeill
		IRE_CoStaff_Hugo_MacNeill = {
			picture = Hugo_MacNeill
			allowed = { tag = IRE }
			available = {
				date > 1924.1.1
				date < 1946.1.1
				D_Minister_Allowed = yes
				NOT = { has_country_flag = Hugo_MacNeill_unavailable }
			}
			
			
			traits = { ideology_D CoStaff_School_Of_Defence }
		}
	# M.J. Costello
		IRE_CoStaff_MJ_Costello = {
			picture = MJ_Costello
			allowed = { tag = IRE }
			available = {
				date > 1933.1.1
				date < 1964.1.1
				D_Minister_Allowed = yes
				NOT = { has_country_flag = MJ_Costello_unavailable }
			}
			
			
			traits = { ideology_D CoStaff_School_Of_Defence }
		}
	# Michael Brennan
		IRE_CoStaff_Michael_Brennan = {
			picture = Michael_Brennan
			allowed = { tag = IRE }
			available = {
				date > 1933.1.1
				date < 1964.1.1
				D_Minister_Allowed = yes
				NOT = { has_country_flag = Michael_Brennan_unavailable }
			}
			
			
			traits = { ideology_D CoStaff_School_Of_Defence }
		}
	# Dan Bryan
		IRE_CoStaff_Dan_Bryan = {
			picture = Dan_Bryan
			allowed = { tag = IRE }
			available = {
				date > 1939.1.1
				date < 1964.1.1
				D_Minister_Allowed = yes
				NOT = { has_country_flag = Dan_Bryan_unavailable }
			}
			
			
			traits = { ideology_D CoStaff_School_Of_Fire_Support }
		}
	# Oscar Traynor
		IRE_CoStaff_Oscar_Traynor = {
			picture = Oscar_Traynor
			allowed = { tag = IRE }
			available = {
				date > 1939.1.1
				date < 1964.1.1
				D_Minister_Allowed = yes
				NOT = { has_country_flag = Oscar_Traynor_unavailable }
			}
			
			
			traits = { ideology_D CoStaff_School_Of_Mass_Combat }
		}
	# Dan McKenna
		IRE_CoStaff_Dan_McKenna = {
			picture = Dan_McKenna
			allowed = { tag = IRE }
			available = {
				date > 1942.1.1
				date < 1964.1.1
				D_Minister_Allowed = yes
				NOT = { has_country_flag = Dan_McKenna_unavailable }
			}
			
			
			traits = { ideology_D CoStaff_School_Of_Mass_Combat }
		}
	# Thomas O'Carroll
		IRE_CoStaff_Thomas_OCarroll = {
			picture = Thomas_OCarroll
			allowed = { tag = IRE }
			available = {
				date > 1971.1.1
				date < 2005.1.1
				D_Minister_Allowed = yes
				NOT = { has_country_flag = Thomas_OCarroll_unavailable }
			}
			
			
			traits = { ideology_D CoStaff_School_Of_Psychology }
		}
	# Carl O'Sullivan
		IRE_CoStaff_Carl_OSullivan = {
			picture = Carl_OSullivan
			allowed = { tag = IRE }
			available = {
				date > 1976.1.1
				date < 2008.1.1
				D_Minister_Allowed = yes
				NOT = { has_country_flag = Carl_OSullivan_unavailable }
			}
			
			
			traits = { ideology_D CoStaff_School_Of_Psychology }
		}
	# Louis Hogan
		IRE_CoStaff_Louis_Hogan = {
			picture = Louis_Hogan
			allowed = { tag = IRE }
			available = {
				date > 1981.1.1
				date < 2012.1.1
				D_Minister_Allowed = yes
				NOT = { has_country_flag = Louis_Hogan_unavailable }
			}
			
			
			traits = { ideology_D CoStaff_School_Of_Psychology }
		}
	# James Parker
		IRE_CoStaff_James_Parker = {
			picture = James_Parker
			allowed = { tag = IRE }
			available = {
				date > 1989.1.1
				date < 2020.1.1
				D_Minister_Allowed = yes
				NOT = { has_country_flag = James_Parker_unavailable }
			}
			
			
			traits = { ideology_D CoStaff_School_Of_Defence }
		}
	# Michael Collins
		IRE_CoStaff_Michael_Collins = {
			picture = Michael_Collins
			allowed = { tag = IRE }
			available = {
				date > 1916.1.1
				date < 1922.1.1
				D_Minister_Allowed = yes
				NOT = { has_country_flag = Michael_Collins_unavailable }
			}
			
			
			traits = { ideology_D CoStaff_School_Of_Psychology }
		}
	# Richard Mulcahy
		IRE_CoStaff_Richard_Mulcahy_2 = {
			picture = Richard_Mulcahy_2
			allowed = { tag = IRE }
			available = {
				date > 1919.1.1
				date < 1933.1.1
				D_Minister_Allowed = yes
				NOT = { has_country_flag = Richard_Mulcahy_unavailable }
			}
			
			
			traits = { ideology_D CoStaff_School_Of_Manoeuvre }
		}
	# Cathal Brugha
		IRE_CoStaff_Cathal_Brugha = {
			picture = Cathal_Brugha
			allowed = { tag = IRE }
			available = {
				date > 1917.1.1
				date < 1922.1.1
				D_Minister_Allowed = yes
				NOT = { has_country_flag = Cathal_Brugha_unavailable }
			}
			
			
			traits = { ideology_D CoStaff_School_Of_Mass_Combat }
		}
	# Liam Lynch
		IRE_CoStaff_Liam_Lynch = {
			picture = Liam_Lynch
			allowed = { tag = IRE }
			available = {
				date > 1919.1.1
				date < 1922.1.1
				D_Minister_Allowed = yes
				NOT = { has_country_flag = Liam_Lynch_unavailable }
			}
			
			
			traits = { ideology_D CoStaff_School_Of_Mass_Combat }
		}
	# Norman Devlin
		IRE_CoStaff_Norman_Devlin = {
			picture = Norman_Devlin
			allowed = { tag = IRE }
			available = {
				date > 1933.1.1
				date < 1964.1.1
				D_Minister_Allowed = yes
				NOT = { has_country_flag = Norman_Devlin_unavailable }
			}
			
			
			traits = { ideology_D CoStaff_School_Of_Manoeuvre }
		}
	# Seán O'Grady
		IRE_CoStaff_Sean_OGrady = {
			picture = Sean_OGrady
			allowed = { tag = IRE }
			available = {
				date > 1944.1.1
				date < 1964.1.1
				D_Minister_Allowed = yes
				NOT = { has_country_flag = Sean_OGrady_unavailable }
			}
			
			
			traits = { ideology_D CoStaff_School_Of_Psychology }
		}
	# Frank Lynch
		IRE_CoStaff_Frank_Lynch = {
			picture = Frank_Lynch
			allowed = { tag = IRE }
			available = {
				date > 1941.1.1
				date < 1964.1.1
				S_Minister_Allowed = yes
				NOT = { has_country_flag = Frank_Lynch_unavailable }
			}
			
			
			traits = { ideology_S CoStaff_School_Of_Mass_Combat }
		}
	# Padraig O'Connor
		IRE_CoStaff_Padraig_OConnor = {
			picture = Padraig_OConnor
			allowed = { tag = IRE }
			available = {
				date > 1933.1.1
				date < 1964.1.1
				C_Minister_Allowed = yes
				NOT = { has_country_flag = Padraig_OConnor_unavailable }
			}
			
			
			traits = { ideology_C CoStaff_School_Of_Psychology }
		}
}
#################################################
### Chief of Army
#################################################
	Chief_of_Army = {
	# Eoin O'Duffy
		IRE_CoArmy_Eoin_ODuffy = {
			picture = Eoin_ODuffy
			allowed = { tag = IRE }
			available = {
				date > 1933.1.1
				date < 1964.1.1
				F_Minister_Allowed = yes
				NOT = { has_country_flag = Eoin_ODuffy_unavailable }
			}
			
			
			traits = { ideology_F CoArmy_Elastic_Defence_Doctrine }
		}
	# Eoin O'Duffy
		IRE_CoArmy_Eoin_ODuffy_2 = {
			picture = Eoin_ODuffy_2
			allowed = { tag = IRE }
			available = {
				date > 1921.1.1
				date < 1933.1.1
				D_Minister_Allowed = yes
				NOT = { has_country_flag = Eoin_ODuffy_unavailable }
			}
			
			
			traits = { ideology_D CoArmy_Elastic_Defence_Doctrine }
		}
	# Liam Archer
		IRE_CoArmy_Liam_Archer = {
			picture = Liam_Archer
			allowed = { tag = IRE }
			available = {
				date > 1933.1.1
				date < 1964.1.1
				D_Minister_Allowed = yes
				NOT = { has_country_flag = Liam_Archer_unavailable }
			}
			
			
			traits = { ideology_D CoArmy_Armoured_Spearhead_Doctrine }
		}
	# Sean MacEoin
		IRE_CoArmy_Sean_MacEoin_2 = {
			picture = Sean_MacEoin_2
			allowed = { tag = IRE }
			available = {
				date > 1960.1.1
				date < 1998.1.1
				D_Minister_Allowed = yes
				NOT = { has_country_flag = Sean_MacEoin_unavailable }
			}
			
			
			traits = { ideology_D CoArmy_Commando_Doctrine_Army }
		}
	# Gerald O'Sullivan
		IRE_CoArmy_Gerald_OSullivan = {
			picture = Gerald_OSullivan
			allowed = { tag = IRE }
			available = {
				date > 1984.1.1
				date < 2020.1.1
				D_Minister_Allowed = yes
				NOT = { has_country_flag = Gerald_OSullivan_unavailable }
			}
			
			
			traits = { ideology_D CoArmy_Static_Defense_Supporter }
		}
	# Tadhg O'Neill
		IRE_CoArmy_Tadhg_ONeill = {
			picture = Tadhg_ONeill
			allowed = { tag = IRE }
			available = {
				date > 1986.1.1
				date < 2008.1.1
				D_Minister_Allowed = yes
				NOT = { has_country_flag = Tadhg_ONeill_unavailable }
			}
			
			
			traits = { ideology_D CoArmy_Doctrine_Of_Autonomy }
		}
	# J.J. O'Connell
		IRE_CoArmy_JJ_OConnell = {
			picture = JJ_OConnell
			allowed = { tag = IRE }
			available = {
				date > 1921.1.1
				date < 1936.1.1
				D_Minister_Allowed = yes
				NOT = { has_country_flag = JJ_OConnell_unavailable }
			}
			
			
			traits = { ideology_D CoArmy_Guns_And_Butter_Doctrine }
		}
	# Hugo MacNeill
		IRE_CoArmy_Hugo_MacNeill = {
			picture = Hugo_MacNeill
			allowed = { tag = IRE }
			available = {
				date > 1924.1.1
				date < 1946.1.1
				D_Minister_Allowed = yes
				NOT = { has_country_flag = Hugo_MacNeill_unavailable }
			}
			
			
			traits = { ideology_D CoArmy_Decisive_Battle_Doctrine }
		}
	# Donal Buckley
		IRE_CoArmy_Donal_Buckley = {
			picture = Donal_Buckley
			allowed = { tag = IRE }
			available = {
				date > 1933.1.1
				date < 1964.1.1
				D_Minister_Allowed = yes
				NOT = { has_country_flag = Donal_Buckley_unavailable }
			}
			
			
			traits = { ideology_D CoArmy_Elastic_Defence_Doctrine }
		}
	# Frank Fahy
		IRE_CoArmy_Frank_Fahy = {
			picture = Frank_Fahy
			allowed = { tag = IRE }
			available = {
				date > 1933.1.1
				date < 1964.1.1
				D_Minister_Allowed = yes
				NOT = { has_country_flag = Frank_Fahy_unavailable }
			}
			
			
			traits = { ideology_D CoArmy_Static_Defence_Doctrine }
		}
	# M.J. Costello
		IRE_CoArmy_MJ_Costello = {
			picture = MJ_Costello
			allowed = { tag = IRE }
			available = {
				date > 1937.1.1
				date < 1964.1.1
				D_Minister_Allowed = yes
				NOT = { has_country_flag = MJ_Costello_unavailable }
			}
			
			
			traits = { ideology_D CoArmy_Elastic_Defence_Doctrine }
		}
	# Emmett Dalton
		IRE_CoArmy_Emmett_Dalton = {
			picture = Emmett_Dalton
			allowed = { tag = IRE }
			available = {
				date > 1947.1.1
				date < 1964.1.1
				D_Minister_Allowed = yes
				NOT = { has_country_flag = Emmett_Dalton_unavailable }
			}
			
			
			traits = { ideology_D CoArmy_Elastic_Defence_Doctrine }
		}
	# Thomas O'Carroll
		IRE_CoArmy_Thomas_OCarroll = {
			picture = Thomas_OCarroll
			allowed = { tag = IRE }
			available = {
				date > 1971.1.1
				date < 2005.1.1
				D_Minister_Allowed = yes
				NOT = { has_country_flag = Thomas_OCarroll_unavailable }
			}
			
			
			traits = { ideology_D CoArmy_Decisive_Battle_Doctrine }
		}
	# Carl O'Sullivan
		IRE_CoArmy_Carl_OSullivan = {
			picture = Carl_OSullivan
			allowed = { tag = IRE }
			available = {
				date > 1976.1.1
				date < 2008.1.1
				D_Minister_Allowed = yes
				NOT = { has_country_flag = Carl_OSullivan_unavailable }
			}
			
			
			traits = { ideology_D CoArmy_Commando_Doctrine_Army }
		}
	# Louis Hogan
		IRE_CoArmy_Louis_Hogan = {
			picture = Louis_Hogan
			allowed = { tag = IRE }
			available = {
				date > 1981.1.1
				date < 2012.1.1
				D_Minister_Allowed = yes
				NOT = { has_country_flag = Louis_Hogan_unavailable }
			}
			
			
			traits = { ideology_D CoArmy_Decisive_Battle_Doctrine }
		}
	# James Parker
		IRE_CoArmy_James_Parker = {
			picture = James_Parker
			allowed = { tag = IRE }
			available = {
				date > 1989.1.1
				date < 2020.1.1
				D_Minister_Allowed = yes
				NOT = { has_country_flag = James_Parker_unavailable }
			}
			
			
			traits = { ideology_D CoArmy_Static_Defence_Doctrine }
		}
	# Michael Collins
		IRE_CoArmy_Michael_Collins = {
			picture = Michael_Collins
			allowed = { tag = IRE }
			available = {
				date > 1916.1.1
				date < 1922.1.1
				D_Minister_Allowed = yes
				NOT = { has_country_flag = Michael_Collins_unavailable }
			}
			
			
			traits = { ideology_D CoArmy_Decisive_Battle_Doctrine }
		}
	# Richard Mulcahy
		IRE_CoArmy_Richard_Mulcahy = {
			picture = Richard_Mulcahy
			allowed = { tag = IRE }
			available = {
				date > 1919.1.1
				date < 1933.1.1
				D_Minister_Allowed = yes
				NOT = { has_country_flag = Richard_Mulcahy_unavailable }
			}
			
			
			traits = { ideology_D CoArmy_Decisive_Battle_Doctrine }
		}
	# Cathal Brugha
		IRE_CoArmy_Cathal_Brugha = {
			picture = Cathal_Brugha
			allowed = { tag = IRE }
			available = {
				date > 1917.1.1
				date < 1922.1.1
				D_Minister_Allowed = yes
				NOT = { has_country_flag = Cathal_Brugha_unavailable }
			}
			
			
			traits = { ideology_D CoArmy_Elastic_Defence_Doctrine }
		}
	# Liam Lynch
		IRE_CoArmy_Liam_Lynch = {
			picture = Liam_Lynch
			allowed = { tag = IRE }
			available = {
				date > 1919.1.1
				date < 1922.1.1
				D_Minister_Allowed = yes
				NOT = { has_country_flag = Liam_Lynch_unavailable }
			}
			
			
			traits = { ideology_D CoArmy_Static_Defence_Doctrine }
		}
	# Cecil Lavery
		IRE_CoArmy_Cecil_Lavery = {
			picture = Cecil_Lavery
			allowed = { tag = IRE }
			available = {
				date > 1933.1.1
				date < 1964.1.1
				D_Minister_Allowed = yes
				NOT = { has_country_flag = Cecil_Lavery_unavailable }
			}
			
			
			traits = { ideology_D CoArmy_Decisive_Battle_Doctrine }
		}
	# William Norton
		IRE_CoArmy_William_Norton = {
			picture = William_Norton
			allowed = { tag = IRE }
			available = {
				date > 1941.1.1
				date < 1964.1.1
				D_Minister_Allowed = yes
				NOT = { has_country_flag = William_Norton_unavailable }
			}
			
			
			traits = { ideology_D CoArmy_Guns_And_Butter_Doctrine }
		}
	# Seán MacEoin
		IRE_CoArmy_Sean_MacEoin = {
			picture = Sean_MacEoin
			allowed = { tag = IRE }
			available = {
				date > 1933.1.1
				date < 1964.1.1
				S_Minister_Allowed = yes
				NOT = { has_country_flag = Sean_MacEoin_unavailable }
			}
			
			
			traits = { ideology_S CoArmy_Decisive_Battle_Doctrine }
		}
}
#################################################
### Chief of Navy
#################################################
	Chief_of_Navy = {
	# Eamonn Broy
		IRE_CoNavy_Eamonn_Broy = {
			picture = Eamonn_Broy
			allowed = { tag = IRE }
			available = {
				date > 1933.1.1
				date < 1964.1.1
				F_Minister_Allowed = yes
				NOT = { has_country_flag = Eamonn_Broy_unavailable }
			}
			
			
			traits = { ideology_F CoNavy_Power_Projection_Doctrine }
		}
	# John O'Byrne
		IRE_CoNavy_John_OByrne = {
			picture = John_OByrne
			allowed = { tag = IRE }
			available = {
				date > 1933.1.1
				date < 1964.1.1
				D_Minister_Allowed = yes
				NOT = { has_country_flag = John_OByrne_unavailable }
			}
			
			
			traits = { ideology_D CoNavy_Power_Projection_Doctrine }
		}
	# Sean MacEoin
		IRE_CoNavy_Sean_MacEoin = {
			picture = Sean_MacEoin
			allowed = { tag = IRE }
			available = {
				date > 1960.1.1
				date < 1998.1.1
				D_Minister_Allowed = yes
				NOT = { has_country_flag = Sean_MacEoin_unavailable }
			}
			
			
			traits = { ideology_D CoNavy_Base_Control_Doctrine }
		}
	# Gerald O'Sullivan
		IRE_CoNavy_Gerald_OSullivan = {
			picture = Gerald_OSullivan
			allowed = { tag = IRE }
			available = {
				date > 1984.1.1
				date < 2020.1.1
				D_Minister_Allowed = yes
				NOT = { has_country_flag = Gerald_OSullivan_unavailable }
			}
			
			
			traits = { ideology_D CoNavy_Indirect_Approach_Doctrine }
		}
	# Tadhg O'Neill
		IRE_CoNavy_Tadhg_ONeill = {
			picture = Tadhg_ONeill
			allowed = { tag = IRE }
			available = {
				date > 1986.1.1
				date < 2008.1.1
				D_Minister_Allowed = yes
				NOT = { has_country_flag = Tadhg_ONeill_unavailable }
			}
			
			
			traits = { ideology_D CoNavy_Base_Control_Doctrine }
		}
	# Joseph E. Vize
		IRE_CoNavy_Joseph_E_Vize = {
			picture = Joseph_E_Vize
			allowed = { tag = IRE }
			available = {
				date > 1919.1.1
				date < 1933.1.1
				D_Minister_Allowed = yes
				NOT = { has_country_flag = Joseph_E_Vize_unavailable }
			}
			
			
			traits = { ideology_D CoNavy_Base_Control_Doctrine }
		}
	# H.T. Green
		IRE_CoNavy_HT_Green = {
			picture = HT_Green
			allowed = { tag = IRE }
			available = {
				date > 1933.1.1
				date < 1964.1.1
				D_Minister_Allowed = yes
				NOT = { has_country_flag = HT_Green_unavailable }
			}
			
			
			traits = { ideology_D CoNavy_Base_Control_Doctrine }
		}
	# Seán MacEntee
		IRE_CoNavy_Sean_MacEntee = {
			picture = Sean_MacEntee
			allowed = { tag = IRE }
			available = {
				date > 1933.1.1
				date < 1964.1.1
				D_Minister_Allowed = yes
				NOT = { has_country_flag = Sean_MacEntee_unavailable }
			}
			
			
			traits = { ideology_D CoNavy_Open_Seas_Doctrine }
		}
	# Thomas Derrig
		IRE_CoNavy_Thomas_Derrig = {
			picture = Thomas_Derrig
			allowed = { tag = IRE }
			available = {
				date > 1941.1.1
				date < 1964.1.1
				D_Minister_Allowed = yes
				NOT = { has_country_flag = Thomas_Derrig_unavailable }
			}
			
			
			traits = { ideology_D CoNavy_Power_Projection_Doctrine }
		}
	# Seán T. O'Ceallaigh
		IRE_CoNavy_Sean_T_OCeallaigh = {
			picture = Sean_T_OCeallaigh
			allowed = { tag = IRE }
			available = {
				date > 1944.1.1
				date < 1964.1.1
				D_Minister_Allowed = yes
				NOT = { has_country_flag = Sean_T_OCeallaigh_unavailable }
			}
			
			
			traits = { ideology_D CoNavy_Base_Control_Doctrine }
		}
	# A.H.J. Jerome
		IRE_CoNavy_AHJ_Jerome = {
			picture = AHJ_Jerome
			allowed = { tag = IRE }
			available = {
				date > 1947.1.1
				date < 1964.1.1
				D_Minister_Allowed = yes
				NOT = { has_country_flag = AHJ_Jerome_unavailable }
			}
			
			
			traits = { ideology_D CoNavy_Indirect_Approach_Doctrine }
		}
	# Thomas O'Carroll
		IRE_CoNavy_Thomas_OCarroll = {
			picture = Thomas_OCarroll
			allowed = { tag = IRE }
			available = {
				date > 1971.1.1
				date < 2005.1.1
				D_Minister_Allowed = yes
				NOT = { has_country_flag = Thomas_OCarroll_unavailable }
			}
			
			
			traits = { ideology_D CoNavy_Indirect_Approach_Doctrine }
		}
	# Carl O'Sullivan
		IRE_CoNavy_Carl_OSullivan = {
			picture = Carl_OSullivan
			allowed = { tag = IRE }
			available = {
				date > 1976.1.1
				date < 2008.1.1
				D_Minister_Allowed = yes
				NOT = { has_country_flag = Carl_OSullivan_unavailable }
			}
			
			
			traits = { ideology_D CoNavy_Indirect_Approach_Doctrine }
		}
	# Louis Hogan
		IRE_CoNavy_Louis_Hogan = {
			picture = Louis_Hogan
			allowed = { tag = IRE }
			available = {
				date > 1981.1.1
				date < 2012.1.1
				D_Minister_Allowed = yes
				NOT = { has_country_flag = Louis_Hogan_unavailable }
			}
			
			
			traits = { ideology_D CoNavy_Indirect_Approach_Doctrine }
		}
	# James Parker
		IRE_CoNavy_James_Parker = {
			picture = James_Parker
			allowed = { tag = IRE }
			available = {
				date > 1989.1.1
				date < 2020.1.1
				D_Minister_Allowed = yes
				NOT = { has_country_flag = James_Parker_unavailable }
			}
			
			
			traits = { ideology_D CoNavy_Indirect_Approach_Doctrine }
		}
	# A.T. Lawlor
		IRE_CoNavy_AT_Lawlor = {
			picture = AT_Lawlor
			allowed = { tag = IRE }
			available = {
				date > 1933.1.1
				date < 1964.1.1
				D_Minister_Allowed = yes
				NOT = { has_country_flag = AT_Lawlor_unavailable }
			}
			
			
			traits = { ideology_D CoNavy_Open_Seas_Doctrine }
		}
	# S. O'Muiris
		IRE_CoNavy_S_OMuiris = {
			picture = S_OMuiris
			allowed = { tag = IRE }
			available = {
				date > 1941.1.1
				date < 1964.1.1
				D_Minister_Allowed = yes
				NOT = { has_country_flag = S_OMuiris_unavailable }
			}
			
			
			traits = { ideology_D CoNavy_Decisive_Naval_Battle_Doctrine }
		}
	# William McCullough
		IRE_CoNavy_William_McCullough = {
			picture = William_McCullough
			allowed = { tag = IRE }
			available = {
				date > 1933.1.1
				date < 1964.1.1
				S_Minister_Allowed = yes
				NOT = { has_country_flag = William_McCullough_unavailable }
			}
			
			
			traits = { ideology_S CoNavy_Decisive_Naval_Battle_Doctrine }
		}
}
#################################################
### Chief of Airforce
#################################################
	Chief_of_Airforce = {
	# Jack White
		IRE_CoAir_Jack_White = {
			picture = Jack_White
			allowed = { tag = IRE }
			available = {
				date > 1933.1.1
				date < 1964.1.1
				F_Minister_Allowed = yes
				NOT = { has_country_flag = Jack_White_unavailable }
			}
			
			
			traits = { ideology_F CoAir_Army_Aviation_Doctrine }
		}
	# H.T. Green
		IRE_CoAir_HT_Green = {
			picture = HT_Green
			allowed = { tag = IRE }
			available = {
				date > 1933.1.1
				date < 1964.1.1
				D_Minister_Allowed = yes
				NOT = { has_country_flag = HT_Green_unavailable }
			}
			
			
			traits = { ideology_D CoAir_Naval_Aviation_Doctrine }
		}
	# P. Quinn
		IRE_CoAir_P_Quinn = {
			picture = P_Quinn
			allowed = { tag = IRE }
			available = {
				date > 1944.1.1
				date < 1964.1.1
				D_Minister_Allowed = yes
				NOT = { has_country_flag = P_Quinn_unavailable }
			}
			
			
			traits = { ideology_D CoAir_Carpet_Bombing_Doctrine }
		}
	# Sean MacEoin
		IRE_CoAir_Sean_MacEoin = {
			picture = Sean_MacEoin
			allowed = { tag = IRE }
			available = {
				date > 1960.1.1
				date < 1998.1.1
				D_Minister_Allowed = yes
				NOT = { has_country_flag = Sean_MacEoin_unavailable }
			}
			
			
			traits = { ideology_D CoAir_Vertical_Envelopment_Doctrine }
		}
	# Gerald O'Sullivan
		IRE_CoAir_Gerald_OSullivan = {
			picture = Gerald_OSullivan
			allowed = { tag = IRE }
			available = {
				date > 1984.1.1
				date < 2020.1.1
				D_Minister_Allowed = yes
				NOT = { has_country_flag = Gerald_OSullivan_unavailable }
			}
			
			
			traits = { ideology_D CoAir_Air_Superiority_Doctrine }
		}
	# Tadhg O'Neill
		IRE_CoAir_Tadhg_ONeill = {
			picture = Tadhg_ONeill
			allowed = { tag = IRE }
			available = {
				date > 1986.1.1
				date < 2008.1.1
				D_Minister_Allowed = yes
				NOT = { has_country_flag = Tadhg_ONeill_unavailable }
			}
			
			
			traits = { ideology_D CoAir_Vertical_Envelopment_Doctrine }
		}
	# James Fitzmaurice
		IRE_CoAir_James_Fitzmaurice = {
			picture = James_Fitzmaurice
			allowed = { tag = IRE }
			available = {
				date > 1921.1.1
				date < 1929.1.1
				D_Minister_Allowed = yes
				NOT = { has_country_flag = James_Fitzmaurice_unavailable }
			}
			
			
			traits = { ideology_D CoAir_Air_Superiority_Doctrine }
		}
	# P.A. Mulcahy
		IRE_CoAir_PA_Mulcahy = {
			picture = PA_Mulcahy
			allowed = { tag = IRE }
			available = {
				date > 1933.1.1
				date < 1964.1.1
				D_Minister_Allowed = yes
				NOT = { has_country_flag = PA_Mulcahy_unavailable }
			}
			
			
			traits = { ideology_D CoAir_Air_Superiority_Doctrine }
		}
	# M.J. Costello
		IRE_CoAir_MJ_Costello = {
			picture = MJ_Costello
			allowed = { tag = IRE }
			available = {
				date > 1933.1.1
				date < 1964.1.1
				D_Minister_Allowed = yes
				NOT = { has_country_flag = MJ_Costello_unavailable }
			}
			
			
			traits = { ideology_D CoAir_Army_Aviation_Doctrine }
		}
	# Oscar Traynor
		IRE_CoAir_Oscar_Traynor = {
			picture = Oscar_Traynor
			allowed = { tag = IRE }
			available = {
				date > 1939.1.1
				date < 1964.1.1
				D_Minister_Allowed = yes
				NOT = { has_country_flag = Oscar_Traynor_unavailable }
			}
			
			
			traits = { ideology_D CoAir_Vertical_Envelopment_Doctrine }
		}
	# Charles Casey
		IRE_CoAir_Charles_Casey = {
			picture = Charles_Casey
			allowed = { tag = IRE }
			available = {
				date > 1941.1.1
				date < 1964.1.1
				D_Minister_Allowed = yes
				NOT = { has_country_flag = Charles_Casey_unavailable }
			}
			
			
			traits = { ideology_D CoAir_Air_Superiority_Doctrine }
		}
	# W. Delamere
		IRE_CoAir_W_Delamere = {
			picture = W_Delamere
			allowed = { tag = IRE }
			available = {
				date > 1944.1.1
				date < 1964.1.1
				D_Minister_Allowed = yes
				NOT = { has_country_flag = W_Delamere_unavailable }
			}
			
			
			traits = { ideology_D CoAir_Naval_Aviation_Doctrine }
		}
	# Thomas O'Carroll
		IRE_CoAir_Thomas_OCarroll = {
			picture = Thomas_OCarroll
			allowed = { tag = IRE }
			available = {
				date > 1971.1.1
				date < 2005.1.1
				D_Minister_Allowed = yes
				NOT = { has_country_flag = Thomas_OCarroll_unavailable }
			}
			
			
			traits = { ideology_D CoAir_Army_Aviation_Doctrine }
		}
	# Carl O'Sullivan
		IRE_CoAir_Carl_OSullivan = {
			picture = Carl_OSullivan
			allowed = { tag = IRE }
			available = {
				date > 1976.1.1
				date < 2008.1.1
				D_Minister_Allowed = yes
				NOT = { has_country_flag = Carl_OSullivan_unavailable }
			}
			
			
			traits = { ideology_D CoAir_Army_Aviation_Doctrine }
		}
	# Louis Hogan
		IRE_CoAir_Louis_Hogan = {
			picture = Louis_Hogan
			allowed = { tag = IRE }
			available = {
				date > 1981.1.1
				date < 2012.1.1
				D_Minister_Allowed = yes
				NOT = { has_country_flag = Louis_Hogan_unavailable }
			}
			
			
			traits = { ideology_D CoAir_Air_Superiority_Doctrine }
		}
	# James Parker
		IRE_CoAir_James_Parker = {
			picture = James_Parker
			allowed = { tag = IRE }
			available = {
				date > 1989.1.1
				date < 2020.1.1
				D_Minister_Allowed = yes
				NOT = { has_country_flag = James_Parker_unavailable }
			}
			
			
			traits = { ideology_D CoAir_Army_Aviation_Doctrine }
		}
	# Cearbhall O'Dalaigh
		IRE_CoAir_Cearbhall_ODalaigh = {
			picture = Cearbhall_ODalaigh
			allowed = { tag = IRE }
			available = {
				date > 1933.1.1
				date < 1964.1.1
				D_Minister_Allowed = yes
				NOT = { has_country_flag = Cearbhall_ODalaigh_unavailable }
			}
			
			
			traits = { ideology_D CoAir_Vertical_Envelopment_Doctrine }
		}
	# Pieras Beaslai
		IRE_CoAir_Pieras_Beaslai = {
			picture = Pieras_Beaslai
			allowed = { tag = IRE }
			available = {
				date > 1933.1.1
				date < 1964.1.1
				S_Minister_Allowed = yes
				NOT = { has_country_flag = Pieras_Beaslai_unavailable }
			}
			
			
			traits = { ideology_S CoAir_Air_Superiority_Doctrine }
		}
	}
}
