ideas = {

	#########################################################################
	#  National Spirits
	#########################################################################
	country = {
		#### Home Guard
		SAF_The_Home_Guard = {
			allowed = {
				original_tag = SAF
			}

			allowed_civil_war = {
				has_government = democratic
			}

			removal_cost = -1

			picture = generic_infantry_bonus

			modifier = {
				army_core_defence_factor = 0.1
				army_attack_factor = -0.05
			}
		}
		SAF_The_Home_Guard_1 = {
			allowed = {
				original_tag = SAF
			}

			allowed_civil_war = {
				has_government = democratic
			}

			removal_cost = -1

			picture = generic_infantry_bonus

			modifier = {
				army_core_defence_factor = 0.1
				army_attack_factor = -0.05
				training_time_army_factor = -0.05
				conscription_factor = 0.05
			}
		}
		#### Ossewabrandwag
		SAF_ossewabrandwag = {
			allowed = {
				always = no
			}

			allowed_civil_war = {
				 has_government = fascist
			}

			removal_cost = -1

			picture = saf_ossewabrandwag

			modifier = {
				fascist_drift = 0.01
				industrial_capacity_factory = -0.10
				industrial_capacity_dockyard = -0.10
			}
		}

		SAF_ossewabrandwag_2 = {
			allowed = {
				always = no
			}

			allowed_civil_war = {
				 has_government = fascist
			}

			removal_cost = -1

			picture = saf_ossewabrandwag_2

			modifier = {
				industrial_capacity_factory = -0.10
				industrial_capacity_dockyard = -0.10
			}
		}

		SAF_ossewabrandwag_fascism = {
			allowed = {
				always = no
			}

			allowed_civil_war = {
				 has_government = fascist
			}

			removal_cost = -1

			picture = saf_ossewabrandwag_fascism

			modifier = {
				fascist_drift = 0.01
				# enemy_partisan_effect = -0.1
				foreign_subversive_activites = -0.4
			}
		}

		SAF_history_of_segregation = {
			allowed = {
				always = no
			}

			allowed_civil_war = {
				always = yes
			}

			removal_cost = -1

			picture = saf_history_of_segregation

			modifier = {
				conscription_factor = -0.55
			}

		}

		SAF_history_of_segregation_2 = {
			allowed = {
				always = no
			}

			allowed_civil_war = {
				always = yes
			}

			removal_cost = -1

			picture = saf_history_of_segregation_2

			modifier = {
				conscription_factor = -0.40
			}

		}

		SAF_abandon_westminster = {
			allowed = {
				always = no
			}

			allowed_civil_war = {
				 NOT = { is_democratic = yes }
			}

			removal_cost = -1

			picture = ast_abandon_the_westminster_system

			modifier = {
				autonomy_gain = 0.5
				democratic_drift = -0.03
			}

		}

		SAF_abandon_westminster_fascism = {
			allowed = {
				always = no
			}

			allowed_civil_war = {
				 has_government = fascist
			}

			removal_cost = -1

			picture = ast_abandon_the_westminster_system_fascism

			modifier = {
				autonomy_gain = 0.5
				democratic_drift = -0.03
				fascist_drift = 0.03
			}

		}

		SAF_abandon_westminster_communism = {
			allowed = {
				always = no
			}

			allowed_civil_war = {
				 has_government = communist
			}

			removal_cost = -1

			picture = ast_abandon_the_westminster_system_communism

			modifier = {
				autonomy_gain = 1
				democratic_drift = -0.03
				communist_drift = 0.03
			}

		}

		SAF_emergency_workers = {
			allowed = {
				always = no
			}

			allowed_civil_war = {
				always = yes
			}

			removal_cost = -1

			picture = generic_production_bonus

			modifier = {
				production_speed_industrial_complex_factor = 0.07
				production_speed_arms_factory_factor = 0.07
				production_speed_infrastructure_factor = 0.07
			}

		}

		SAF_cheap_labor_1 = {
			allowed = {
				always = no
			}

			allowed_civil_war = {
				always = yes
			}

			removal_cost = -1

			picture = generic_manpower_bonus

			modifier = {
				industrial_capacity_factory = 0.03
				industrial_capacity_dockyard = 0.03
				conscription_factor = -0.05
			}

		}

		SAF_cheap_labor_2 = {
			allowed = {
				always = no
			}

			allowed_civil_war = {
				always = yes
			}

			removal_cost = -1

			picture = generic_manpower_bonus

			modifier = {
				industrial_capacity_factory = 0.03
				industrial_capacity_dockyard = 0.03
				consumer_goods_factor = -0.03
				conscription_factor = -0.05
			}
		}

		SAF_cheap_labor_3 = {
			allowed = {
				always = no
			}

			allowed_civil_war = {
				always = yes
			}

			removal_cost = -1

			picture = generic_manpower_bonus

			modifier = {
				industrial_capacity_factory = 0.06
				industrial_capacity_dockyard = 0.06
				consumer_goods_factor = -0.08
				conscription_factor = -0.05
			}

		}

		SAF_voortrekker_monument = {
			allowed = {
				always = no
			}

			allowed_civil_war = {
				 has_government = fascist
			}

			removal_cost = -1

			picture = triumphant_will

			modifier = {
				stability_factor = 0.07
				autonomy_gain = 0.5
			}
		}

		SAF_voortrekker_monument_2 = {
			allowed = {
				always = no
			}

			allowed_civil_war = {
				 has_government = fascist
			}

			removal_cost = -1

			picture = triumphant_will

			modifier = {
				stability_factor = 0.07
				conscription = 0.005
				autonomy_gain = 0.75
			}
		}

		SAF_black_volunteers = {
			allowed = {
				always = no
			}

			allowed_civil_war = {
				 has_government = communist
			}

			removal_cost = -1

			picture = generic_infantry_bonus

			modifier = {
				conscription = 0.01
			}
		}

		SAF_equal_opportunities = {
			allowed = {
				always = no
			}

			allowed_civil_war = {
				 has_government = communist
			}

			removal_cost = -1

			picture = ast_all_in

			modifier = {
				industrial_capacity_factory = 0.05
				industrial_capacity_dockyard = 0.05
			}

		}

		SAF_support_the_world_revolution = {
			allowed = {
				always = no
			}

			allowed_civil_war = {
				 has_government = communist
			}

			removal_cost = -1

			picture = generic_spy_political

			modifier = {
				subversive_activites_upkeep = -0.5
			}
		}

		SAF_soviet_advisers = {
			allowed = {
				always = no
			}

			allowed_civil_war = {
				 has_government = communist
			}

			removal_cost = -1

			picture = saf_soviet_advisers

			modifier = {
				army_org_Factor = 0.05
				planning_speed = 0.05
			}
		}

		SAF_scw_veterans = {
			allowed = {
				always = no
			}

			allowed_civil_war = {
				 has_government = communist
			}

			removal_cost = -1

			picture = generic_volunteer_expedition_bonus

			modifier = {
				army_org_Factor = 0.05
			}
		}

		SAF_support_spain = {

			allowed = {
				always = no
			}

			allowed_civil_war = {
				 has_government = communist
			}

			removal_cost = -1

			picture = FRA_scw_intervention_republicans_focus

			rule = {
				can_send_volunteers = yes
			}

			modifier = {
				send_volunteer_size = 3
				send_volunteers_tension = -1
				send_volunteer_divisions_required = -1
			}
		}

		SAF_desert_equipment = {
			allowed = {
				always = no
			}

			allowed_civil_war = {
				always = yes
			}

			removal_cost = -1

			picture = generic_intel_bonus

			modifier = {
					heat_attrition_factor = -0.5
					}
		}
		SAF_king_edward = {
			allowed = {
				always = no
			}

			allowed_civil_war = {
				has_government = fascist
			}

			removal_cost = -1

			picture = king_edward

			modifier = {
				stability_factor = 0.05
				army_morale_factor = 0.02
				army_org_factor = 0.02
			}
		}

		SAF_gold_exports = {
			allowed = {
				always = no
			}

			allowed_civil_war = {
				always = yes
			}

			removal_cost = -1

			picture = generic_goods_red_bonus

			modifier = {
				consumer_goods_factor = -0.05
			}

		}

		SAF_joint_air_training_scheme = {

			allowed = {
				always = no
			}

			allowed_civil_war = {
				 is_in_faction_with = ENG
			}

			removal_cost = -1

			picture = generic_air_bonus

			equipment_bonus = {
				fighter_equipment = {
					air_range = 0.1
					air_attack = 0.05
					instant = yes
				}
				cv_fighter_equipment = {
					air_range = 0.1
					air_attack = 0.05
					instant = yes
				}
				CAS_equipment = {
					air_range = 0.1
					air_ground_attack = 0.05
					instant = yes
				}
				cv_CAS_equipment = {
					air_range = 0.1
					air_ground_attack = 0.05
					instant = yes
				}
				cv_nav_bomber_equipment = {
					air_range = 0.1
					naval_strike_attack = 0.05
					instant = yes
				}
				nav_bomber_equipment = {
					air_range = 0.1
					naval_strike_attack = 0.05
					instant = yes
				}
				tac_bomber_equipment = {
					air_range = 0.1
					air_ground_attack = 0.05
					instant = yes
				}
				heavy_fighter_equipment = {
					air_range = 0.1
					air_attack = 0.05
					instant = yes
				}
				strat_bomber_equipment = {
					air_range = 0.1
					air_bombing = 0.05
					instant = yes
				}
				transport_plane_equipment = {
					air_range = 0.1
					instant = yes
				}
			}

			modifier = {
				air_ace_generation_chance_factor = 0.10
			}
		}

		SAF_all_for_one = {
			allowed = {
				always = no
			}

			allowed_civil_war = {
				always = yes
			}

			removal_cost = -1

			picture = generic_manpower_bonus

			modifier = {
				consumer_goods_factor = -0.03
			}
		}

		SAF_no_rural_funds = {
			allowed = {
				always = no
			}

			allowed_civil_war = {
				always = yes
			}

			removal_cost = -1

			picture = generic_manpower_bonus

			modifier = {
				consumer_goods_factor = 0.05
				war_support_factor = 0.05
			}
		}

		SAF_market_security = {
			allowed = {
				always = no
			}

			allowed_civil_war = {
				always = yes
			}

			removal_cost = -1

			picture = generic_manpower_bonus

			modifier = {
				consumer_goods_factor = -0.10
			}
		}

		SAF_privatization_efforts = {
			allowed = {
				always = no
			}

			allowed_civil_war = {
				always = yes
			}

			removal_cost = -1

			picture = generic_manpower_bonus

			modifier = {
				consumer_goods_factor = -0.05
			}
		}

		SAF_extended_pensions = {
			allowed = {
				always = no
			}

			allowed_civil_war = {
				always = yes
			}

			removal_cost = -1

			picture = generic_manpower_bonus

			modifier = {
				political_power_gain = 0.20
			}
		}

		SAF_natives_in_factories = {
			allowed = {
				always = no
			}

			allowed_civil_war = {
				always = yes
			}

			removal_cost = -1

			picture = generic_manpower_bonus

			modifier = {
				industrial_capacity_factory = 0.10
				production_speed_buildings_factor = -0.05
			}
		}

		SAF_desert_patrols = {
			allowed = {
				always = no
			}

			allowed_civil_war = {
				always = yes
			}

			removal_cost = -1

			picture = generic_manpower_bonus

			modifier = {
				army_speed_factor = 0.10
				army_org_factor = 0.002
			}
		}

		SAF_engineering_corps = {
			allowed = {
				always = no
			}

			allowed_civil_war = {
				always = yes
			}

			removal_cost = -1

			picture = generic_manpower_bonus

			modifier = {
				dig_in_speed_factor = 0.10
				supply_consumption_factor = -0.05
			}
		}

		SAF_sauer_commission = {
			allowed = {
				always = no
			}

			allowed_civil_war = {
				always = yes
			}

			removal_cost = -1

			picture = generic_manpower_bonus

			modifier = {
				stability_factor = -0.05
				consumer_goods_factor = -0.05
			}
		}

		SAF_coordinated_army = {
			allowed = {
				always = no
			}

			allowed_civil_war = {
				always = yes
			}

			removal_cost = -1

			picture = generic_manpower_bonus

			modifier = {
				army_org = 0.05
				army_morale_factor = 0.05
			}
		}
	}

	high_command = {

		SAF_robert_palmer = {

			picture = generic_army_europe_1

			allowed = {
				original_tag = SAF
			}

			traits = { army_regrouping_2 }

			ai_will_do = {
				factor = 1
			}
		}

		SAF_c_de_weenburg_du_toit = {

			picture = generic_army_europe_5

			allowed = {
				original_tag = SAF
			}

			traits = { army_armored_2 }

			ai_will_do = {
				factor = 1
			}
		}

		SAF_marinus_van_osterkamp = {

			picture = generic_air_europe_3

			allowed = {
				original_tag = SAF
			}

			traits = { air_naval_strike_2 }

			ai_will_do = {
				factor = 1
			}
		}

		SAF_jeannot_de_la_tourier = {

			picture = generic_navy_europe_2

			allowed = {
				original_tag = SAF
			}

			traits = { navy_screen_2 }

			ai_will_do = {
				factor = 1
			}
		}
	}
}
