ideas = {
#################################################
### Head of Government
#################################################
	Head_of_Government = {
	# Luang Phibunsongkhram
		SIA_HoG_Luang_Phibunsongkhram = {
			picture = Luang_Phibunsongkhram
			allowed = { tag = SIA }
			available = {
				date > 1938.1.1
				date < 1964.1.1
				F_Minister_Allowed = yes
				NOT = { has_country_flag = Luang_Phibunsongkhram_unavailable }
			}
			
			
			traits = { ideology_F HoG_Old_General }
		}
	# H.M. Rama VI
		SIA_HoG_HM_Rama_VI = {
			picture = HM_Rama_VI
			allowed = { tag = SIA }
			available = {
				date > 1914.1.1
				date < 1933.1.1
				A_Minister_Allowed = yes
				NOT = { has_country_flag = HM_Rama_VI_unavailable }
			}
			
			
			traits = { ideology_A HoG_Silent_Workhorse }
		}
	# Prajadhipok
		SIA_HoS_Prajadhipok = {
			picture = HoS_Prajadhipok
			allowed = { tag = SIA }
			available = {
				date > 1914.1.1
				date < 1935.1.1
				D_Minister_Allowed = yes
				NOT = { has_country_flag = Prajadhipok_unavailable }
			}
			
			
			traits = { ideology_D POSITION_King HoG_Silent_Workhorse }
		}
	# Ananda Mahidol
		SIA_HoS_Ananda_Mahidol = {
			picture = HoS_Ananda_Mahidol
			allowed = { tag = SIA }
			available = {
				date > 1935.1.1
				date < 1946.1.1
				D_Minister_Allowed = yes
				NOT = { has_country_flag = Ananda_Mahidol }
			}
			
			
			traits = { ideology_D POSITION_King HoG_Silent_Workhorse }
		}
	# Phot Bhahalyodin
		SIA_HoG_Phot_Bhahalyodin = {
			picture = Phot_Bhahalyodin
			allowed = { tag = SIA }
			available = {
				date > 1933.1.1
				date < 1964.1.1
				A_Minister_Allowed = yes
				NOT = { has_country_flag = Phot_Bhahalyodin_unavailable }
			}
			
			
			traits = { ideology_A HoG_Happy_Amateur }
		}
	# Kuang Abhayavongsa
		SIA_HoG_Kuang_Abhayavongsa = {
			picture = Kuang_Abhayavongsa
			allowed = { tag = SIA }
			available = {
				date > 1944.1.1
				date < 1964.1.1
				A_Minister_Allowed = yes
				NOT = { has_country_flag = Kuang_Abhayavongsa_unavailable }
			}
			
			
			traits = { ideology_A HoG_Silent_Workhorse }
		}
	# Pridi Phanomyong
		SIA_HoG_Pridi_Phanomyong = {
			picture = Pridi_Phanomyong
			allowed = { tag = SIA }
			available = {
				date > 1946.1.1
				date < 1964.1.1
				A_Minister_Allowed = yes
				NOT = { has_country_flag = Pridi_Phanomyong_unavailable }
			}
			
			
			traits = { ideology_A HoG_Old_Admiral }
		}
	# Thawon Thamrongnawasawat
		SIA_HoG_Thawon_Thamrongnawasawat = {
			picture = Thawon_Thamrongnawasawat
			allowed = { tag = SIA }
			available = {
				date > 1946.1.1
				date < 1964.1.1
				A_Minister_Allowed = yes
				NOT = { has_country_flag = Thawon_Thamrongnawasawat_unavailable }
			}
			
			
			traits = { ideology_A HoG_Political_Protege }
		}
	# Plaek Pibulsongkram
		SIA_HoG_Plaek_Pibulsongkram = {
			picture = Plaek_Pibulsongkram
			allowed = { tag = SIA }
			available = {
				date > 1948.1.1
				date < 1964.1.1
				A_Minister_Allowed = yes
				NOT = { has_country_flag = Plaek_Pibulsongkram_unavailable }
			}
			
			
			traits = { ideology_A HoG_Smiling_Oilman }
		}
	# Pote Sarasin
		SIA_HoG_Pote_Sarasin = {
			picture = Pote_Sarasin
			allowed = { tag = SIA }
			available = {
				date > 1957.1.1
				date < 2001.1.1
				A_Minister_Allowed = yes
				NOT = { has_country_flag = Pote_Sarasin_unavailable }
			}
			
			
			traits = { ideology_A HoG_Silent_Workhorse }
		}
	# Thanom Kittikachorn
		SIA_HoG_Thanom_Kittikachorn = {
			picture = Thanom_Kittikachorn
			allowed = { tag = SIA }
			available = {
				date > 1958.1.1
				date < 2005.1.1
				A_Minister_Allowed = yes
				NOT = { has_country_flag = Thanom_Kittikachorn_unavailable }
			}
			
			
			traits = { ideology_A HoG_Flamboyant_Tough_Guy }
		}
	# Sarit Thanarat
		SIA_HoG_Sarit_Thanarat = {
			picture = Sarit_Thanarat
			allowed = { tag = SIA }
			available = {
				date > 1959.1.1
				date < 1963.1.1
				A_Minister_Allowed = yes
				NOT = { has_country_flag = Sarit_Thanarat_unavailable }
			}
			
			
			traits = { ideology_A HoG_Backroom_Backstabber }
		}
	# Sanya Dharmasakti
		SIA_HoG_Sanya_Dharmasakti = {
			picture = Sanya_Dharmasakti
			allowed = { tag = SIA }
			available = {
				date > 1973.1.1
				date < 2003.1.1
				A_Minister_Allowed = yes
				NOT = { has_country_flag = Sanya_Dharmasakti_unavailable }
			}
			
			
			traits = { ideology_A HoG_Silent_Workhorse }
		}
	# Kukrit Pramoj
		SIA_HoG_Kukrit_Pramoj = {
			picture = Kukrit_Pramoj
			allowed = { tag = SIA }
			available = {
				date > 1975.1.1
				date < 1996.1.1
				A_Minister_Allowed = yes
				NOT = { has_country_flag = Kukrit_Pramoj_unavailable }
			}
			
			
			traits = { ideology_A HoG_Naive_Optimist }
		}
	# Thanin Kraivichien
		SIA_HoG_Thanin_Kraivichien = {
			picture = Thanin_Kraivichien
			allowed = { tag = SIA }
			available = {
				date > 1976.1.1
				date < 2020.1.1
				A_Minister_Allowed = yes
				NOT = { has_country_flag = Thanin_Kraivichien_unavailable }
			}
			
			
			traits = { ideology_A HoG_Silent_Workhorse }
		}
	# Kriangsak Chomanan
		SIA_HoG_Kriangsak_Chomanan = {
			picture = Kriangsak_Chomanan
			allowed = { tag = SIA }
			available = {
				date > 1977.1.1
				date < 2004.1.1
				A_Minister_Allowed = yes
				NOT = { has_country_flag = Kriangsak_Chomanan_unavailable }
			}
			
			
			traits = { ideology_A HoG_Political_Protege }
		}
	# Chatichai Choonhavan
		SIA_HoG_Chatichai_Choonhavan = {
			picture = Chatichai_Choonhavan
			allowed = { tag = SIA }
			available = {
				date > 1988.1.1
				date < 1999.1.1
				A_Minister_Allowed = yes
				NOT = { has_country_flag = Chatichai_Choonhavan_unavailable }
			}
			
			
			traits = { ideology_A HoG_Old_General }
		}
	# Anand Panyarachun
		SIA_HoG_Anand_Panyarachun = {
			picture = Anand_Panyarachun
			allowed = { tag = SIA }
			available = {
				date > 1991.1.1
				date < 1993.1.1
				A_Minister_Allowed = yes
				NOT = { has_country_flag = Anand_Panyarachun_unavailable }
			}
			
			
			traits = { ideology_A HoG_Smiling_Oilman }
		}
	# Phot Bhahalyodin
		SIA_HoG_Phot_Bhahalyodin_2 = {
			picture = Phot_Bhahalyodin_2
			allowed = { tag = SIA }
			available = {
				date > 1939.1.1
				date < 1964.1.1
				D_Minister_Allowed = yes
				NOT = { has_country_flag = Phot_Bhahalyodin_unavailable }
			}
			
			
			traits = { ideology_D HoG_Happy_Amateur }
		}
	# Thawee Punyaketu
		SIA_HoG_Thawee_Punyaketu = {
			picture = Thawee_Punyaketu
			allowed = { tag = SIA }
			available = {
				date > 1945.1.1
				date < 1964.1.1
				D_Minister_Allowed = yes
				NOT = { has_country_flag = Thawee_Punyaketu_unavailable }
			}
			
			
			traits = { ideology_D HoG_Smiling_Oilman }
		}
	# Seni Pramoja
		SIA_HoG_Seni_Pramoja = {
			picture = Seni_Pramoja
			allowed = { tag = SIA }
			available = {
				date > 1946.1.1
				date < 1964.1.1
				D_Minister_Allowed = yes
				NOT = { has_country_flag = Seni_Pramoja_unavailable }
			}
			
			
			traits = { ideology_D HoG_Corporate_Suit }
		}
	# Luang Phibunsongkhram
		SIA_HoG_Luang_Phibunsongkhram_2 = {
			picture = Luang_Phibunsongkhram_2
			allowed = { tag = SIA }
			available = {
				date > 1948.1.1
				date < 1964.1.1
				D_Minister_Allowed = yes
				NOT = { has_country_flag = Luang_Phibunsongkhram_unavailable }
			}
			
			
			traits = { ideology_D HoG_Backroom_Backstabber }
		}
	# Prem Tinsulanonda
		SIA_HoG_Prem_Tinsulanonda = {
			picture = Prem_Tinsulanonda
			allowed = { tag = SIA }
			available = {
				date > 1980.1.1
				date < 2020.1.1
				D_Minister_Allowed = yes
				NOT = { has_country_flag = Prem_Tinsulanonda_unavailable }
			}
			
			
			traits = { ideology_D HoG_Backroom_Backstabber }
		}
	# H.M. Rama VI
		SIA_HoG_HM_Rama_VI_2 = {
			picture = HM_Rama_VI_2
			allowed = { tag = SIA }
			available = {
				date > 1914.1.1
				date < 1933.1.1
				D_Minister_Allowed = yes
				NOT = { has_country_flag = HM_Rama_VI_unavailable }
			}
			
			
			traits = { ideology_D HoG_Silent_Workhorse }
		}
	# Kuang Abhayavongsa
		SIA_HoG_Kuang_Abhayavongsa_2 = {
			picture = Kuang_Abhayavongsa_2
			allowed = { tag = SIA }
			available = {
				date > 1946.1.1
				date < 1964.1.1
				D_Minister_Allowed = yes
				NOT = { has_country_flag = Kuang_Abhayavongsa_unavailable }
			}
			
			
			traits = { ideology_D HoG_Silent_Workhorse }
		}
	# Damri Ruangsutham
		SIA_HoG_Damri_Ruangsutham = {
			picture = Damri_Ruangsutham
			allowed = { tag = SIA }
			available = {
				date > 1985.1.1
				date < 1992.1.1
				C_Minister_Allowed = yes
				NOT = { has_country_flag = Damri_Ruangsutham_unavailable }
			}
			
			
			traits = { ideology_C HoG_Ambitious_Union_Boss }
		}
}
#################################################
### Foreign Minister
#################################################
	Foreign_Minister = {
	# Phraya Chitnasongkhla
		SIA_FM_Phraya_Chitnasongkhla = {
			picture = Phraya_Chitnasongkhla
			allowed = { tag = SIA }
			available = {
				date > 1938.1.1
				date < 1964.1.1
				F_Minister_Allowed = yes
				NOT = { has_country_flag = Phraya_Chitnasongkhla_unavailable }
			}
			
			
			traits = { ideology_F FM_Apologetic_Clerk }
		}
	# Wichit Wichitwathakarn
		SIA_FM_Wichit_Wichitwathakarn = {
			picture = Wichit_Wichitwathakarn
			allowed = { tag = SIA }
			available = {
				date > 1942.1.1
				date < 1964.1.1
				F_Minister_Allowed = yes
				NOT = { has_country_flag = Wichit_Wichitwathakarn_unavailable }
			}
			
			
			traits = { ideology_F FM_Ideological_Crusader }
		}
	# Luang Phibunsongkhram
		SIA_FM_Luang_Phibunsongkhram = {
			picture = Luang_Phibunsongkhram
			allowed = { tag = SIA }
			available = {
				date > 1943.1.1
				date < 1964.1.1
				F_Minister_Allowed = yes
				NOT = { has_country_flag = Luang_Phibunsongkhram_unavailable }
			}
			
			
			traits = { ideology_F FM_General_Staffer }
		}
	# Pridi Phanomyong
		SIA_FM_Pridi_Phanomyong = {
			picture = Pridi_Phanomyong
			allowed = { tag = SIA }
			available = {
				date > 1943.1.1
				date < 1964.1.1
				F_Minister_Allowed = yes
				NOT = { has_country_flag = Pridi_Phanomyong_unavailable }
			}
			
			
			traits = { ideology_F FM_Iron_Fisted_Brute }
		}
	# Devawongse Varoprakar
		SIA_FM_Devawongse_Varoprakar = {
			picture = Devawongse_Varoprakar
			allowed = { tag = SIA }
			available = {
				date > 1914.1.1
				date < 1933.1.1
				A_Minister_Allowed = yes
				NOT = { has_country_flag = Devawongse_Varoprakar_unavailable }
			}
			
			
			traits = { ideology_A FM_Great_Compromiser }
		}
	# Ha Samptasiri
		SIA_FM_Ha_Samptasiri = {
			picture = Ha_Samptasiri
			allowed = { tag = SIA }
			available = {
				date > 1933.1.1
				date < 1964.1.1
				A_Minister_Allowed = yes
				NOT = { has_country_flag = Ha_Samptasiri_unavailable }
			}
			
			
			traits = { ideology_A FM_Apologetic_Clerk }
		}
	# Atthakitti Banomyong
		SIA_FM_Atthakitti_Banomyong = {
			picture = Atthakitti_Banomyong
			allowed = { tag = SIA }
			available = {
				date > 1944.1.1
				date < 1964.1.1
				A_Minister_Allowed = yes
				NOT = { has_country_flag = Atthakitti_Banomyong_unavailable }
			}
			
			
			traits = { ideology_A FM_Biased_Intellectual }
		}
	# Tianliang Huntrakool
		SIA_FM_Tianliang_Huntrakool = {
			picture = Tianliang_Huntrakool
			allowed = { tag = SIA }
			available = {
				date > 1946.1.1
				date < 1964.1.1
				A_Minister_Allowed = yes
				NOT = { has_country_flag = Tianliang_Huntrakool_unavailable }
			}
			
			
			traits = { ideology_A FM_Apologetic_Clerk }
		}
	# Thawon Thamrongnawasawat
		SIA_FM_Thawon_Thamrongnawasawat = {
			picture = Thawon_Thamrongnawasawat
			allowed = { tag = SIA }
			available = {
				date > 1946.1.1
				date < 1964.1.1
				A_Minister_Allowed = yes
				NOT = { has_country_flag = Thawon_Thamrongnawasawat_unavailable }
			}
			
			
			traits = { ideology_A FM_The_Cloak_N_Dagger_Schemer }
		}
	# Thawee Punyaketu
		SIA_FM_Thawee_Punyaketu = {
			picture = Thawee_Punyaketu
			allowed = { tag = SIA }
			available = {
				date > 1945.1.1
				date < 1964.1.1
				D_Minister_Allowed = yes
				NOT = { has_country_flag = Thawee_Punyaketu_unavailable }
			}
			
			
			traits = { ideology_D FM_General_Staffer }
		}
	# Seni Pramoja
		SIA_FM_Seni_Pramoja = {
			picture = Seni_Pramoja
			allowed = { tag = SIA }
			available = {
				date > 1945.1.1
				date < 1964.1.1
				D_Minister_Allowed = yes
				NOT = { has_country_flag = Seni_Pramoja_unavailable }
			}
			
			
			traits = { ideology_D FM_Ideological_Crusader }
		}
	# Pote Sarasin
		SIA_FM_Pote_Sarasin = {
			picture = Pote_Sarasin
			allowed = { tag = SIA }
			available = {
				date > 1948.1.1
				date < 1964.1.1
				D_Minister_Allowed = yes
				NOT = { has_country_flag = Pote_Sarasin_unavailable }
			}
			
			
			traits = { ideology_D FM_Great_Compromiser }
		}
	# Siddhi Savetsila
		SIA_FM_Siddhi_Savetsila = {
			picture = Siddhi_Savetsila
			allowed = { tag = SIA }
			available = {
				date > 1980.1.1
				date < 1992.1.1
				D_Minister_Allowed = yes
				NOT = { has_country_flag = Siddhi_Savetsila_unavailable }
			}
			
			
			traits = { ideology_D FM_General_Staffer }
		}
	# Direk Phajayanama
		SIA_FM_Direk_Phajayanama = {
			picture = Direk_Phajayanama
			allowed = { tag = SIA }
			available = {
				date > 1945.1.1
				date < 1964.1.1
				D_Minister_Allowed = yes
				NOT = { has_country_flag = Direk_Phajayanama_unavailable }
			}
			
			
			traits = { ideology_D FM_Great_Compromiser }
		}
	# Damri Ruangsutham
		SIA_FM_Damri_Ruangsutham = {
			picture = Damri_Ruangsutham
			allowed = { tag = SIA }
			available = {
				date > 1985.1.1
				date < 1992.1.1
				C_Minister_Allowed = yes
				NOT = { has_country_flag = Damri_Ruangsutham_unavailable }
			}
			
			
			traits = { ideology_C FM_Ideological_Crusader }
		}
}
#################################################
### Minister of Security
#################################################
	Minister_of_Security = {
	# Luang Phibunsongkhram
		SIA_MoS_Luang_Phibunsongkhram = {
			picture = Luang_Phibunsongkhram
			allowed = { tag = SIA }
			available = {
				date > 1938.1.1
				date < 1964.1.1
				F_Minister_Allowed = yes
				NOT = { has_country_flag = Luang_Phibunsongkhram_unavailable }
			}
			
			
			traits = { ideology_F MoS_Efficient_Sociopath }
		}
	# Srisena Sampatisiri
		SIA_MoS_Srisena_Sampatisiri = {
			picture = Srisena_Sampatisiri
			allowed = { tag = SIA }
			available = {
				date > 1943.1.1
				date < 1964.1.1
				F_Minister_Allowed = yes
				NOT = { has_country_flag = Srisena_Sampatisiri_unavailable }
			}
			
			
			traits = { ideology_F MoS_Silent_Lawyer }
		}
	# Damrong Rajanubhab
		SIA_MoS_Damrong_Rajanubhab = {
			picture = Damrong_Rajanubhab
			allowed = { tag = SIA }
			available = {
				date > 1914.1.1
				date < 1933.1.1
				A_Minister_Allowed = yes
				NOT = { has_country_flag = Damrong_Rajanubhab_unavailable }
			}
			
			
			traits = { ideology_A MoS_Silent_Lawyer }
		}
	# Pridi Phanomyong
		SIA_MoS_Pridi_Phanomyong = {
			picture = Pridi_Phanomyong
			allowed = { tag = SIA }
			available = {
				date > 1933.1.1
				date < 1964.1.1
				A_Minister_Allowed = yes
				NOT = { has_country_flag = Pridi_Phanomyong_unavailable }
			}
			
			
			traits = { ideology_A MoS_Back_Stabber }
		}
	# Chuei Maghaviphulaya
		SIA_MoS_Chuei_Maghaviphulaya = {
			picture = Chuei_Maghaviphulaya
			allowed = { tag = SIA }
			available = {
				date > 1933.1.1
				date < 1964.1.1
				A_Minister_Allowed = yes
				NOT = { has_country_flag = Chuei_Maghaviphulaya_unavailable }
			}
			
			
			traits = { ideology_A MoS_Efficient_Sociopath }
		}
	# Ha Samptasiri
		SIA_MoS_Ha_Samptasiri = {
			picture = Ha_Samptasiri
			allowed = { tag = SIA }
			available = {
				date > 1944.1.1
				date < 1964.1.1
				A_Minister_Allowed = yes
				NOT = { has_country_flag = Ha_Samptasiri_unavailable }
			}
			
			
			traits = { ideology_A MoS_Back_Stabber }
		}
	# Chuang Chawengsangsongkram
		SIA_MoS_Chuang_Chawengsangsongkram = {
			picture = Chuang_Chawengsangsongkram
			allowed = { tag = SIA }
			available = {
				date > 1946.1.1
				date < 1964.1.1
				A_Minister_Allowed = yes
				NOT = { has_country_flag = Chuang_Chawengsangsongkram_unavailable }
			}
			
			
			traits = { ideology_A MoS_Silent_Lawyer }
		}
	# Thawon Thamrongnawasawat
		SIA_MoS_Thawon_Thamrongnawasawat = {
			picture = Thawon_Thamrongnawasawat
			allowed = { tag = SIA }
			available = {
				date > 1946.1.1
				date < 1964.1.1
				A_Minister_Allowed = yes
				NOT = { has_country_flag = Thawon_Thamrongnawasawat_unavailable }
			}
			
			
			traits = { ideology_A MoS_Crime_Fighter }
		}
	# Bung Suphachahlasai
		SIA_MoS_Bung_Suphachahlasai = {
			picture = Bung_Suphachahlasai
			allowed = { tag = SIA }
			available = {
				date > 1946.1.1
				date < 1964.1.1
				A_Minister_Allowed = yes
				NOT = { has_country_flag = Bung_Suphachahlasai_unavailable }
			}
			
			
			traits = { ideology_A MoS_Compassionate_Gentleman }
		}
	# Phot Bhahalyodin
		SIA_MoS_Phot_Bhahalyodin = {
			picture = Phot_Bhahalyodin
			allowed = { tag = SIA }
			available = {
				date > 1939.1.1
				date < 1964.1.1
				D_Minister_Allowed = yes
				NOT = { has_country_flag = Phot_Bhahalyodin_unavailable }
			}
			
			
			traits = { ideology_D MoS_Crime_Fighter }
		}
	# Seni Pramoja
		SIA_MoS_Seni_Pramoja = {
			picture = Seni_Pramoja
			allowed = { tag = SIA }
			available = {
				date > 1944.1.1
				date < 1964.1.1
				D_Minister_Allowed = yes
				NOT = { has_country_flag = Seni_Pramoja_unavailable }
			}
			
			
			traits = { ideology_D MoS_Compassionate_Gentleman }
		}
	# Thawee Punyaketu
		SIA_MoS_Thawee_Punyaketu = {
			picture = Thawee_Punyaketu
			allowed = { tag = SIA }
			available = {
				date > 1945.1.1
				date < 1964.1.1
				D_Minister_Allowed = yes
				NOT = { has_country_flag = Thawee_Punyaketu_unavailable }
			}
			
			
			traits = { ideology_D MoS_Man_Of_The_People }
		}
	# Chit Munsilpa Sinadyodharaksa
		SIA_MoS_Chit_Munsilpa_Sinadyodharaksa = {
			picture = Chit_Munsilpa_Sinadyodharaksa
			allowed = { tag = SIA }
			available = {
				date > 1945.1.1
				date < 1964.1.1
				D_Minister_Allowed = yes
				NOT = { has_country_flag = Chit_Munsilpa_Sinadyodharaksa_unavailable }
			}
			
			
			traits = { ideology_D MoS_Prince_Of_Terror }
		}
	# Sitthi Chirarot
		SIA_MoS_Sitthi_Chirarot = {
			picture = Sitthi_Chirarot
			allowed = { tag = SIA }
			available = {
				date > 1980.1.1
				date < 1992.1.1
				D_Minister_Allowed = yes
				NOT = { has_country_flag = Sitthi_Chirarot_unavailable }
			}
			
			
			traits = { ideology_D MoS_Back_Stabber }
		}
	# Surachai Sae Dan
		SIA_MoS_Surachai_Sae_Dan = {
			picture = Surachai_Sae_Dan
			allowed = { tag = SIA }
			available = {
				date > 1980.1.1
				date < 2020.1.1
				C_Minister_Allowed = yes
				NOT = { has_country_flag = Surachai_Sae_Dan_unavailable }
			}
			
			
			traits = { ideology_C MoS_Man_Of_The_People }
		}
}
#################################################
### Armaments Minister
#################################################
	Armaments_Minister = {
	# Pridi Phanomyong
		SIA_AM_Pridi_Phanomyong = {
			picture = Pridi_Phanomyong
			allowed = { tag = SIA }
			available = {
				date > 1938.1.1
				date < 1964.1.1
				F_Minister_Allowed = yes
				NOT = { has_country_flag = Pridi_Phanomyong_unavailable }
			}
			
			
			traits = { ideology_F AM_Tank_Proponent }
		}
	# Phra Vechayanrangsarit
		SIA_AM_Phra_Vechayanrangsarit = {
			picture = Phra_Vechayanrangsarit
			allowed = { tag = SIA }
			available = {
				date > 1941.1.1
				date < 1964.1.1
				F_Minister_Allowed = yes
				NOT = { has_country_flag = Phra_Vechayanrangsarit_unavailable }
			}
			
			
			traits = { ideology_F AM_Air_To_Ground_Proponent }
		}
	# H.R.H. Prince Charoon
		SIA_AM_HRH_Prince_Charoon = {
			picture = HRH_Prince_Charoon
			allowed = { tag = SIA }
			available = {
				date > 1943.1.1
				date < 1964.1.1
				F_Minister_Allowed = yes
				NOT = { has_country_flag = HRH_Prince_Charoon_unavailable }
			}
			
			
			traits = { ideology_F AM_Military_Entrepreneur }
		}
	# Phraya Chalermarkiart
		SIA_AM_Phraya_Chalermarkiart = {
			picture = Phraya_Chalermarkiart
			allowed = { tag = SIA }
			available = {
				date > 1943.1.1
				date < 1964.1.1
				F_Minister_Allowed = yes
				NOT = { has_country_flag = Phraya_Chalermarkiart_unavailable }
			}
			
			
			traits = { ideology_F AM_Strategic_Air_Proponent }
		}
	# Purachatra Jayakara
		SIA_AM_Purachatra_Jayakara = {
			picture = Purachatra_Jayakara
			allowed = { tag = SIA }
			available = {
				date > 1914.1.1
				date < 1933.1.1
				A_Minister_Allowed = yes
				NOT = { has_country_flag = Purachatra_Jayakara_unavailable }
			}
			
			
			traits = { ideology_A AM_Administrative_Genius }
		}
	# Phot Bhahalyodin
		SIA_AM_Phot_Bhahalyodin = {
			picture = Phot_Bhahalyodin
			allowed = { tag = SIA }
			available = {
				date > 1933.1.1
				date < 1964.1.1
				A_Minister_Allowed = yes
				NOT = { has_country_flag = Phot_Bhahalyodin_unavailable }
			}
			
			
			traits = { ideology_A AM_Corrupt_Kleptocrat }
		}
	# Phya Bidadhkosha
		SIA_AM_Phya_Bidadhkosha = {
			picture = Phya_Bidadhkosha
			allowed = { tag = SIA }
			available = {
				date > 1937.1.1
				date < 1964.1.1
				A_Minister_Allowed = yes
				NOT = { has_country_flag = Phya_Bidadhkosha_unavailable }
			}
			
			
			traits = { ideology_A AM_Administrative_Genius }
		}
	# Phraya Wichcitcholathai
		SIA_AM_Phraya_Wichcitcholathai = {
			picture = Phraya_Wichcitcholathai
			allowed = { tag = SIA }
			available = {
				date > 1937.1.1
				date < 1964.1.1
				A_Minister_Allowed = yes
				NOT = { has_country_flag = Phraya_Wichcitcholathai_unavailable }
			}
			
			
			traits = { ideology_A AM_Battle_Fleet_Proponent }
		}
	# Phraya Thayarnpikart
		SIA_AM_Phraya_Thayarnpikart = {
			picture = Phraya_Thayarnpikart
			allowed = { tag = SIA }
			available = {
				date > 1944.1.1
				date < 1964.1.1
				A_Minister_Allowed = yes
				NOT = { has_country_flag = Phraya_Thayarnpikart_unavailable }
			}
			
			
			traits = { ideology_A AM_Air_Superiority_Proponent }
		}
	# Tianliang Huntrakool
		SIA_AM_Tianliang_Huntrakool = {
			picture = Tianliang_Huntrakool
			allowed = { tag = SIA }
			available = {
				date > 1946.1.1
				date < 1964.1.1
				A_Minister_Allowed = yes
				NOT = { has_country_flag = Tianliang_Huntrakool_unavailable }
			}
			
			
			traits = { ideology_A AM_Tank_Proponent }
		}
	# Luang Sinthusongkhramchai
		SIA_AM_Luang_Sinthusongkhramchai = {
			picture = Luang_Sinthusongkhramchai
			allowed = { tag = SIA }
			available = {
				date > 1946.1.1
				date < 1964.1.1
				A_Minister_Allowed = yes
				NOT = { has_country_flag = Luang_Sinthusongkhramchai_unavailable }
			}
			
			
			traits = { ideology_A AM_Air_To_Sea_Proponent }
		}
	# Phao Peeralert
		SIA_AM_Phao_Peeralert = {
			picture = Phao_Peeralert
			allowed = { tag = SIA }
			available = {
				date > 1946.1.1
				date < 1964.1.1
				A_Minister_Allowed = yes
				NOT = { has_country_flag = Phao_Peeralert_unavailable }
			}
			
			
			traits = { ideology_A AM_Laissez-faire_Capitalist }
		}
	# Serm Khrishnamra
		SIA_AM_Serm_Khrishnamra = {
			picture = Serm_Khrishnamra
			allowed = { tag = SIA }
			available = {
				date > 1939.1.1
				date < 1964.1.1
				D_Minister_Allowed = yes
				NOT = { has_country_flag = Serm_Khrishnamra_unavailable }
			}
			
			
			traits = { ideology_D AM_Air_Superiority_Proponent }
		}
	# A.G. Ellis
		SIA_AM_AG_Ellis = {
			picture = AG_Ellis
			allowed = { tag = SIA }
			available = {
				date > 1939.1.1
				date < 1964.1.1
				D_Minister_Allowed = yes
				NOT = { has_country_flag = AG_Ellis_unavailable }
			}
			
			
			traits = { ideology_D AM_Theoretical_Scientist }
		}
	# Phya Burinavarasth
		SIA_AM_Phya_Burinavarasth = {
			picture = Phya_Burinavarasth
			allowed = { tag = SIA }
			available = {
				date > 1941.1.1
				date < 1964.1.1
				D_Minister_Allowed = yes
				NOT = { has_country_flag = Phya_Burinavarasth_unavailable }
			}
			
			
			traits = { ideology_D AM_Resource_Industrialist }
		}
	# Direk Phajayanama
		SIA_AM_Direk_Phajayanama = {
			picture = Direk_Phajayanama
			allowed = { tag = SIA }
			available = {
				date > 1945.1.1
				date < 1964.1.1
				D_Minister_Allowed = yes
				NOT = { has_country_flag = Direk_Phajayanama_unavailable }
			}
			
			
			traits = { ideology_D AM_Laissez-faire_Capitalist }
		}
	# Pridi Phanomyong
		SIA_AM_Pridi_Phanomyong_2 = {
			picture = Pridi_Phanomyong_2
			allowed = { tag = SIA }
			available = {
				date > 1945.1.1
				date < 1964.1.1
				D_Minister_Allowed = yes
				NOT = { has_country_flag = Pridi_Phanomyong_unavailable }
			}
			
			
			traits = { ideology_D AM_Air_To_Ground_Proponent }
		}
	# Prem Tinsulanonda
		SIA_AM_Prem_Tinsulanonda = {
			picture = Prem_Tinsulanonda
			allowed = { tag = SIA }
			available = {
				date > 1980.1.1
				date < 2020.1.1
				D_Minister_Allowed = yes
				NOT = { has_country_flag = Prem_Tinsulanonda_unavailable }
			}
			
			
			traits = { ideology_D AM_Military_Entrepreneur }
		}
	# Phraya Preechacholayudha
		SIA_AM_Phraya_Preechacholayudha = {
			picture = Phraya_Preechacholayudha
			allowed = { tag = SIA }
			available = {
				date > 1944.1.1
				date < 1964.1.1
				D_Minister_Allowed = yes
				NOT = { has_country_flag = Phraya_Preechacholayudha_unavailable }
			}
			
			
			traits = { ideology_D AM_Submarine_Proponent }
		}
	# Kuang Abhayavongsa
		SIA_AM_Kuang_Abhayavongsa = {
			picture = Kuang_Abhayavongsa
			allowed = { tag = SIA }
			available = {
				date > 1946.1.1
				date < 1964.1.1
				D_Minister_Allowed = yes
				NOT = { has_country_flag = Kuang_Abhayavongsa_unavailable }
			}
			
			
			traits = { ideology_D AM_Infantry_Proponent }
		}
	# Surachai Sae Dan
		SIA_AM_Surachai_Sae_Dan = {
			picture = Surachai_Sae_Dan
			allowed = { tag = SIA }
			available = {
				date > 1980.1.1
				date < 2020.1.1
				C_Minister_Allowed = yes
				NOT = { has_country_flag = Surachai_Sae_Dan_unavailable }
			}
			
			
			traits = { ideology_C AM_Infantry_Proponent }
		}
}
#################################################
### Head of Intelligence
#################################################
	Head_of_Intelligence = {
	# Luang Phibunsongkhram
		SIA_HoI_Luang_Phibunsongkhram = {
			picture = Luang_Phibunsongkhram
			allowed = { tag = SIA }
			available = {
				date > 1938.1.1
				date < 1964.1.1
				F_Minister_Allowed = yes
				NOT = { has_country_flag = Luang_Phibunsongkhram_unavailable }
			}
			
			
			traits = { ideology_F HoI_Logistics_Specialist }
		}
	# Sawat Phutianands
		SIA_HoI_Sawat_Phutianands = {
			picture = Sawat_Phutianands
			allowed = { tag = SIA }
			available = {
				date > 1943.1.1
				date < 1964.1.1
				F_Minister_Allowed = yes
				NOT = { has_country_flag = Sawat_Phutianands_unavailable }
			}
			
			
			traits = { ideology_F HoI_Naval_Intelligence_Specialist }
		}
	# Pridi Phanomyong
		SIA_HoI_Pridi_Phanomyong = {
			picture = Pridi_Phanomyong
			allowed = { tag = SIA }
			available = {
				date > 1933.1.1
				date < 1964.1.1
				A_Minister_Allowed = yes
				NOT = { has_country_flag = Pridi_Phanomyong_unavailable }
			}
			
			
			traits = { ideology_A HoI_Industrial_Specialist }
		}
	# Serm Khrishnamra
		SIA_HoI_Serm_Khrishnamra = {
			picture = Serm_Khrishnamra
			allowed = { tag = SIA }
			available = {
				date > 1944.1.1
				date < 1964.1.1
				A_Minister_Allowed = yes
				NOT = { has_country_flag = Serm_Khrishnamra_unavailable }
			}
			
			
			traits = { ideology_A HoI_Industrial_Specialist }
		}
	# A.G. Ellis
		SIA_HoI_AG_Ellis = {
			picture = AG_Ellis
			allowed = { tag = SIA }
			available = {
				date > 1937.1.1
				date < 1964.1.1
				D_Minister_Allowed = yes
				NOT = { has_country_flag = AG_Ellis_unavailable }
			}
			
			
			traits = { ideology_D HoI_Technical_Specialist }
		}
	# Phraya Chitnasongkhla
		SIA_HoI_Phraya_Chitnasongkhla = {
			picture = Phraya_Chitnasongkhla
			allowed = { tag = SIA }
			available = {
				date > 1945.1.1
				date < 1964.1.1
				D_Minister_Allowed = yes
				NOT = { has_country_flag = Phraya_Chitnasongkhla_unavailable }
			}
			
			
			traits = { ideology_D HoI_Political_Specialist }
		}
	# Prem Tinsulanonda
		SIA_HoI_Prem_Tinsulanonda = {
			picture = Prem_Tinsulanonda
			allowed = { tag = SIA }
			available = {
				date > 1975.1.1
				date < 2020.1.1
				D_Minister_Allowed = yes
				NOT = { has_country_flag = Prem_Tinsulanonda_unavailable }
			}
			
			
			traits = { ideology_D HoI_Logistics_Specialist }
		}
	# Chuang Chawengsangsongkram
		SIA_HoI_Chuang_Chawengsangsongkram = {
			picture = Chuang_Chawengsangsongkram
			allowed = { tag = SIA }
			available = {
				date > 1945.1.1
				date < 1964.1.1
				D_Minister_Allowed = yes
				NOT = { has_country_flag = Chuang_Chawengsangsongkram_unavailable }
			}
			
			
			traits = { ideology_D HoI_Dismal_Enigma }
		}
	# Surachai Sae Dan
		SIA_HoI_Surachai_Sae_Dan = {
			picture = Surachai_Sae_Dan
			allowed = { tag = SIA }
			available = {
				date > 1980.1.1
				date < 1992.1.1
				C_Minister_Allowed = yes
				NOT = { has_country_flag = Surachai_Sae_Dan_unavailable }
			}
			
			
			traits = { ideology_C HoI_Political_Specialist }
		}
}
#################################################
### Chief of Staff
#################################################
	Chief_of_Staff = {
	# Mangkon Phromyothi
		SIA_CoStaff_Mangkon_Phromyothi = {
			picture = Mangkon_Phromyothi
			allowed = { tag = SIA }
			available = {
				date > 1938.1.1
				date < 1964.1.1
				F_Minister_Allowed = yes
				NOT = { has_country_flag = Mangkon_Phromyothi_unavailable }
			}
			
			
			traits = { ideology_F CoStaff_School_Of_Mass_Combat }
		}
	# Chakrabongse Bhuvanath
		SIA_CoStaff_Chakrabongse_Bhuvanath = {
			picture = Chakrabongse_Bhuvanath
			allowed = { tag = SIA }
			available = {
				date > 1914.1.1
				date < 1933.1.1
				A_Minister_Allowed = yes
				NOT = { has_country_flag = Chakrabongse_Bhuvanath_unavailable }
			}
			
			
			traits = { ideology_A CoStaff_School_Of_Psychology }
		}
	# Luang Phibunsongkhram
		SIA_CoStaff_Luang_Phibunsongkhram = {
			picture = Luang_Phibunsongkhram
			allowed = { tag = SIA }
			available = {
				date > 1933.1.1
				date < 1964.1.1
				A_Minister_Allowed = yes
				NOT = { has_country_flag = Luang_Phibunsongkhram_unavailable }
			}
			
			
			traits = { ideology_A CoStaff_School_Of_Mass_Combat }
		}
	# Sindhu Kamalanavin
		SIA_CoStaff_Sindhu_Kamalanavin = {
			picture = Sindhu_Kamalanavin
			allowed = { tag = SIA }
			available = {
				date > 1944.1.1
				date < 1964.1.1
				A_Minister_Allowed = yes
				NOT = { has_country_flag = Sindhu_Kamalanavin_unavailable }
			}
			
			
			traits = { ideology_A CoStaff_School_Of_Psychology }
		}
	# Suk Nakrob
		SIA_CoStaff_Suk_Nakrob = {
			picture = Suk_Nakrob
			allowed = { tag = SIA }
			available = {
				date > 1946.1.1
				date < 1964.1.1
				A_Minister_Allowed = yes
				NOT = { has_country_flag = Suk_Nakrob_unavailable }
			}
			
			
			traits = { ideology_A CoStaff_School_Of_Fire_Support }
		}
	# Thawon Thamrongnawasawat
		SIA_CoStaff_Thawon_Thamrongnawasawat = {
			picture = Thawon_Thamrongnawasawat
			allowed = { tag = SIA }
			available = {
				date > 1946.1.1
				date < 1964.1.1
				A_Minister_Allowed = yes
				NOT = { has_country_flag = Thawon_Thamrongnawasawat_unavailable }
			}
			
			
			traits = { ideology_A CoStaff_School_Of_Manoeuvre }
		}
	# Chit Munsilpa Sinadyodharaksa
		SIA_CoStaff_Chit_Munsilpa_Sinadyodharaksa = {
			picture = Chit_Munsilpa_Sinadyodharaksa
			allowed = { tag = SIA }
			available = {
				date > 1945.1.1
				date < 1964.1.1
				D_Minister_Allowed = yes
				NOT = { has_country_flag = Chit_Munsilpa_Sinadyodharaksa_unavailable }
			}
			
			
			traits = { ideology_D CoStaff_School_Of_Defence }
		}
	# Arthit Kamlang-ek
		SIA_CoStaff_Arthit_Kamlangek = {
			picture = Arthit_Kamlangek
			allowed = { tag = SIA }
			available = {
				date > 1980.1.1
				date < 2015.1.1
				D_Minister_Allowed = yes
				NOT = { has_country_flag = Arthit_Kamlangek_unavailable }
			}
			
			
			traits = { ideology_D CoStaff_School_Of_Fire_Support }
		}
	# Jiri Wichitsongkram
		SIA_CoStaff_Jiri_Wichitsongkram = {
			picture = Jiri_Wichitsongkram
			allowed = { tag = SIA }
			available = {
				date > 1945.1.1
				date < 1964.1.1
				D_Minister_Allowed = yes
				NOT = { has_country_flag = Jiri_Wichitsongkram_unavailable }
			}
			
			
			traits = { ideology_D CoStaff_School_Of_Manoeuvre }
		}
}
#################################################
### Chief of Army
#################################################
	Chief_of_Army = {
	# Manphya Khanphialong
		SIA_CoArmy_Manphya_Khanphialong = {
			picture = Manphya_Khanphialong
			allowed = { tag = SIA }
			available = {
				date > 1938.1.1
				date < 1964.1.1
				F_Minister_Allowed = yes
				NOT = { has_country_flag = Manphya_Khanphialong_unavailable }
			}
			
			
			traits = { ideology_F CoArmy_Static_Defence_Doctrine }
		}
	# Nakhon Jaisri Suradej
		SIA_CoArmy_Nakhon_Jaisri_Suradej = {
			picture = Nakhon_Jaisri_Suradej
			allowed = { tag = SIA }
			available = {
				date > 1914.1.1
				date < 1933.1.1
				A_Minister_Allowed = yes
				NOT = { has_country_flag = Nakhon_Jaisri_Suradej_unavailable }
			}
			
			
			traits = { ideology_A CoArmy_Decisive_Battle_Doctrine }
		}
	# Luang Phibunsongkhram
		SIA_CoArmy_Luang_Phibunsongkhram = {
			picture = Luang_Phibunsongkhram
			allowed = { tag = SIA }
			available = {
				date > 1933.1.1
				date < 1964.1.1
				A_Minister_Allowed = yes
				NOT = { has_country_flag = Luang_Phibunsongkhram_unavailable }
			}
			
			
			traits = { ideology_A CoArmy_Guns_And_Butter_Doctrine }
		}
	# Thawi Bunyaket
		SIA_CoArmy_Thawi_Bunyaket = {
			picture = Thawi_Bunyaket
			allowed = { tag = SIA }
			available = {
				date > 1944.1.1
				date < 1964.1.1
				A_Minister_Allowed = yes
				NOT = { has_country_flag = Thawi_Bunyaket_unavailable }
			}
			
			
			traits = { ideology_A CoArmy_Guns_And_Butter_Doctrine }
		}
	# Tianliang Huntrakool
		SIA_CoArmy_Tianliang_Huntrakool = {
			picture = Tianliang_Huntrakool
			allowed = { tag = SIA }
			available = {
				date > 1946.1.1
				date < 1964.1.1
				A_Minister_Allowed = yes
				NOT = { has_country_flag = Tianliang_Huntrakool_unavailable }
			}
			
			
			traits = { ideology_A CoArmy_Armoured_Spearhead_Doctrine }
		}
	# Sindhu Kamalanavin
		SIA_CoArmy_Sindhu_Kamalanavin = {
			picture = Sindhu_Kamalanavin
			allowed = { tag = SIA }
			available = {
				date > 1945.1.1
				date < 1964.1.1
				D_Minister_Allowed = yes
				NOT = { has_country_flag = Sindhu_Kamalanavin_unavailable }
			}
			
			
			traits = { ideology_D CoArmy_Elastic_Defence_Doctrine }
		}
	# Arthit Kamlang-ek
		SIA_CoArmy_Arthit_Kamlangek = {
			picture = Arthit_Kamlangek
			allowed = { tag = SIA }
			available = {
				date > 1980.1.1
				date < 2015.1.1
				D_Minister_Allowed = yes
				NOT = { has_country_flag = Arthit_Kamlangek_unavailable }
			}
			
			
			traits = { ideology_D CoArmy_Decisive_Battle_Doctrine }
		}
	# Phraya Chitnasongkhla
		SIA_CoArmy_Phraya_Chitnasongkhla = {
			picture = Phraya_Chitnasongkhla
			allowed = { tag = SIA }
			available = {
				date > 1945.1.1
				date < 1964.1.1
				D_Minister_Allowed = yes
				NOT = { has_country_flag = Phraya_Chitnasongkhla_unavailable }
			}
			
			
			traits = { ideology_D CoArmy_Decisive_Battle_Doctrine }
		}
}
#################################################
### Chief of Navy
#################################################
	Chief_of_Navy = {
	# Sawat Phutianands
		SIA_CoNavy_Sawat_Phutianands = {
			picture = Sawat_Phutianands
			allowed = { tag = SIA }
			available = {
				date > 1938.1.1
				date < 1964.1.1
				F_Minister_Allowed = yes
				NOT = { has_country_flag = Sawat_Phutianands_unavailable }
			}
			
			
			traits = { ideology_F CoNavy_Power_Projection_Doctrine }
		}
	# Chao Phraya Ram Raghop
		SIA_CoNavy_Chao_Phraya_Ram_Raghop = {
			picture = Chao_Phraya_Ram_Raghop
			allowed = { tag = SIA }
			available = {
				date > 1914.1.1
				date < 1933.1.1
				A_Minister_Allowed = yes
				NOT = { has_country_flag = Chao_Phraya_Ram_Raghop_unavailable }
			}
			
			
			traits = { ideology_A CoNavy_Decisive_Naval_Battle_Doctrine }
		}
	# Asdang Dejavudh
		SIA_CoNavy_Asdang_Dejavudh = {
			picture = Asdang_Dejavudh
			allowed = { tag = SIA }
			available = {
				date > 1917.1.1
				date < 1933.1.1
				A_Minister_Allowed = yes
				NOT = { has_country_flag = Asdang_Dejavudh_unavailable }
			}
			
			
			traits = { ideology_A CoNavy_Base_Control_Doctrine }
		}
	# Pridi Phanomyong
		SIA_CoNavy_Pridi_Phanomyong = {
			picture = Pridi_Phanomyong
			allowed = { tag = SIA }
			available = {
				date > 1933.1.1
				date < 1964.1.1
				A_Minister_Allowed = yes
				NOT = { has_country_flag = Pridi_Phanomyong_unavailable }
			}
			
			
			traits = { ideology_A CoNavy_Base_Control_Doctrine }
		}
	# Phraya Wichcitcholathai
		SIA_CoNavy_Phraya_Wichcitcholathai = {
			picture = Phraya_Wichcitcholathai
			allowed = { tag = SIA }
			available = {
				date > 1944.1.1
				date < 1964.1.1
				A_Minister_Allowed = yes
				NOT = { has_country_flag = Phraya_Wichcitcholathai_unavailable }
			}
			
			
			traits = { ideology_A CoNavy_Decisive_Naval_Battle_Doctrine }
		}
	# Thawon Thamrongnawasawat
		SIA_CoNavy_Thawon_Thamrongnawasawat = {
			picture = Thawon_Thamrongnawasawat
			allowed = { tag = SIA }
			available = {
				date > 1946.1.1
				date < 1964.1.1
				A_Minister_Allowed = yes
				NOT = { has_country_flag = Thawon_Thamrongnawasawat_unavailable }
			}
			
			
			traits = { ideology_A CoNavy_Open_Seas_Doctrine }
		}
	# Phraya Preechacholayudha
		SIA_CoNavy_Phraya_Preechacholayudha = {
			picture = Phraya_Preechacholayudha
			allowed = { tag = SIA }
			available = {
				date > 1945.1.1
				date < 1964.1.1
				D_Minister_Allowed = yes
				NOT = { has_country_flag = Phraya_Preechacholayudha_unavailable }
			}
			
			
			traits = { ideology_D CoNavy_Indirect_Approach_Doctrine }
		}
	# Somboon Chuaphiboon
		SIA_CoNavy_Somboon_Chuaphiboon = {
			picture = Somboon_Chuaphiboon
			allowed = { tag = SIA }
			available = {
				date > 1980.1.1
				date < 1999.1.1
				D_Minister_Allowed = yes
				NOT = { has_country_flag = Somboon_Chuaphiboon_unavailable }
			}
			
			
			traits = { ideology_D CoNavy_Power_Projection_Doctrine }
		}
	# Luang Chamnanarthayutha
		SIA_CoNavy_Luang_Chamnanarthayutha = {
			picture = Luang_Chamnanarthayutha
			allowed = { tag = SIA }
			available = {
				date > 1945.1.1
				date < 1964.1.1
				D_Minister_Allowed = yes
				NOT = { has_country_flag = Luang_Chamnanarthayutha_unavailable }
			}
			
			
			traits = { ideology_D CoNavy_Base_Control_Doctrine }
		}
}
#################################################
### Chief of Airforce
#################################################
	Chief_of_Airforce = {
	# Luang Sinthusongkhramchai
		SIA_CoAir_Luang_Sinthusongkhramchai = {
			picture = Luang_Sinthusongkhramchai
			allowed = { tag = SIA }
			available = {
				date > 1938.1.1
				date < 1964.1.1
				F_Minister_Allowed = yes
				NOT = { has_country_flag = Luang_Sinthusongkhramchai_unavailable }
			}
			
			
			traits = { ideology_F CoAir_Naval_Aviation_Doctrine }
		}
	# Nakhon Jaisri Suradej
		SIA_CoAir_Nakhon_Jaisri_Suradej = {
			picture = Nakhon_Jaisri_Suradej
			allowed = { tag = SIA }
			available = {
				date > 1914.1.1
				date < 1933.1.1
				A_Minister_Allowed = yes
				NOT = { has_country_flag = Nakhon_Jaisri_Suradej_unavailable }
			}
			
			
			traits = { ideology_A CoAir_Air_Superiority_Doctrine }
		}
	# Phra Vechayanrangsarit
		SIA_CoAir_Phra_Vechayanrangsarit = {
			picture = Phra_Vechayanrangsarit
			allowed = { tag = SIA }
			available = {
				date > 1933.1.1
				date < 1964.1.1
				A_Minister_Allowed = yes
				NOT = { has_country_flag = Phra_Vechayanrangsarit_unavailable }
			}
			
			
			traits = { ideology_A CoAir_Army_Aviation_Doctrine }
		}
	# Phraya Chalermarkiart
		SIA_CoAir_Phraya_Chalermarkiart = {
			picture = Phraya_Chalermarkiart
			allowed = { tag = SIA }
			available = {
				date > 1944.1.1
				date < 1964.1.1
				A_Minister_Allowed = yes
				NOT = { has_country_flag = Phraya_Chalermarkiart_unavailable }
			}
			
			
			traits = { ideology_A CoAir_Carpet_Bombing_Doctrine }
		}
	# Luang Kajsongkram
		SIA_CoAir_Luang_Kajsongkram = {
			picture = Luang_Kajsongkram
			allowed = { tag = SIA }
			available = {
				date > 1946.1.1
				date < 1964.1.1
				A_Minister_Allowed = yes
				NOT = { has_country_flag = Luang_Kajsongkram_unavailable }
			}
			
			
			traits = { ideology_A CoAir_Army_Aviation_Doctrine }
		}
	# Phraya Thayarnpikart
		SIA_CoAir_Phraya_Thayarnpikart = {
			picture = Phraya_Thayarnpikart
			allowed = { tag = SIA }
			available = {
				date > 1945.1.1
				date < 1964.1.1
				D_Minister_Allowed = yes
				NOT = { has_country_flag = Phraya_Thayarnpikart_unavailable }
			}
			
			
			traits = { ideology_D CoAir_Air_Superiority_Doctrine }
		}
	# Prapan Dhupatemiya
		SIA_CoAir_Prapan_Dhupatemiya = {
			picture = Prapan_Dhupatemiya
			allowed = { tag = SIA }
			available = {
				date > 1980.1.1
				date < 1995.1.1
				D_Minister_Allowed = yes
				NOT = { has_country_flag = Prapan_Dhupatemiya_unavailable }
			}
			
			
			traits = { ideology_D CoAir_Army_Aviation_Doctrine }
		}
	# Phra Silpasakrakorn
		SIA_CoAir_Phra_Silpasakrakorn = {
			picture = Phra_Silpasakrakorn
			allowed = { tag = SIA }
			available = {
				date > 1945.1.1
				date < 1964.1.1
				D_Minister_Allowed = yes
				NOT = { has_country_flag = Phra_Silpasakrakorn_unavailable }
			}
			
			
			traits = { ideology_D CoAir_Vertical_Envelopment_Doctrine }
		}
	}
}
