ideas = {
#################################################
### Head of Government
#################################################
	Head_of_Government = {
		YEM_HoS_Ahmed_bin_Yahya = {
			picture = HoS_Ahmed_bin_Yahya
			allowed = { tag = YEM }
			available = {
				date > 1933.1.1
				date < 1964.1.1
				A_Minister_Allowed = yes
				NOT = { has_country_flag = Ahmed_bin_Yahya_unavailable }
			}
			
			traits = { 
				ideology_A 
				POSITION_Crown_Prince
				SUBIDEOLOGY_Monarchism
			}
		}		
	}
#################################################
### Foreign Minister
#################################################

#################################################
### Minister of Security
#################################################

#################################################
### Armaments Minister
#################################################

#################################################
### Head of Intelligence
#################################################

#################################################
### Chief of Staff
#################################################

#################################################
### Chief of Army
#################################################

#################################################
### Chief of Navy
#################################################

#################################################
### Chief of Airforce
#################################################

}