sub_units = {
	carrier = {
		sprite = carrier
		map_icon_category = ship
		priority = 10
		active = yes
		type = { 
			#capital_ship
			carrier 
		}
		need = { CV_equipment = 1 }
		supply_consumption = 0.3
		

		max_organisation = 40

	}
}
