state={
	id=1011
	name="STATE_1011"
	
	history={
		owner = MAL
		victory_points = {
			10313 3
		}
		victory_points = {
			4424 2
		}
		buildings = {
			infrastructure = 3

		}
		add_core_of = MAL
		1942.11.22 = {
			owner = MAL
			controller = JAP

		}
		1946.1.1 = {
			owner = MAL
			controller = MAL

		}

	}
	
	provinces={
		4424 10313 13303 13304 
	}
	manpower=497067
	buildings_max_level_factor=1.000
	state_category=rural
}
