state={
	id=1087
	name="STATE_1087"
	
	history={
		owner = YUG
		victory_points = {
		    11872 2
		}
		buildings = {
			infrastructure = 4

		}
		add_core_of = YUG
		add_core_of = BOS
		1941.6.22 = {
			owner = CRO

		}
		1945.1.1 = {
			YUG = {
				set_province_controller = 6942
				set_province_controller = 9894
			}
		}
		1946.1.1 = {
			owner = YUG

		}
		2000.1.1 = {
			owner = BOS
			controller = BOS
			remove_core_of = YUG

		}
	}
	
	provinces={
		6942 9894 11872 
	}
	manpower=320000
	buildings_max_level_factor=1.000
	state_category=rural
}
