state={
	id=1096
	name="STATE_1096"
	
	history={
		owner = BUL
		buildings = {
			infrastructure = 2
		}
		add_core_of = BUL
	}
	
	provinces={
		878 893 11813 
	}
	manpower=41452
	buildings_max_level_factor=1.000
	state_category=enclave
}
