state={
	id=1131
	name="STATE_1131"
	
	history={
		owner = FIN
		buildings = {
			infrastructure = 4
			13662 = {
				naval_base = 3

			}

		}
		add_core_of = FIN
		1945.1.1 = {
		    owner = SOV
			controller = SOV

		}
		1960.1.1 = {
		    owner = FIN
			controller = FIN

		}

	}
	
	provinces={
		13662 
	}
	manpower=39291
	buildings_max_level_factor=1.000
	state_category=enclave
}
