state={
	id=1138
	name="STATE_1138"
	
	history={
		owner = FIN
		buildings = {
			infrastructure = 3

		}
		add_core_of = FIN
		1940.5.10 = {
			owner = SOV
			controller = SOV
			add_core_of = SOV
			set_state_name = "Rybachy"

		}
		1942.11.22 = {
			controller = FIN

		}
		1945.1.1 = {
			controller = SOV

		}

	}
	
	provinces={
		13665 
	}
	manpower=500
	buildings_max_level_factor=1.000
	state_category=enclave
}
