state={
	id=1198
	name="STATE_1198"
	
	history={
		owner = FRA
		victory_points = {
			13814 1
		}
		buildings = {
			infrastructure = 1

		}
		add_core_of = RCG
		1972.1.1 = {
			owner = RCG

		}

	}
	
	provinces={
		13814 13816 
	}
	manpower=40654
	buildings_max_level_factor=1.000
	state_category=pastoral
}
