state={
	id=1199
	name="STATE_1199"
	
	history={
		owner = FRA
		victory_points = {
			13813 1
		}
		buildings = {
			infrastructure = 1

		}
		add_core_of = RCG
		1972.1.1 = {
			owner = RCG

		}

	}
	
	provinces={
		6008 13813 
	}
	manpower=120000
	buildings_max_level_factor=1.000
	state_category=pastoral
}
