state={
	id=1215
	name="STATE_1215"

	history={
		owner = ENG
		victory_points = {
			13893 2
		}
		buildings = {
			infrastructure = 2

		}
		add_core_of = MLW
		1972.1.1 = {
			owner = MLW

		}

	}

	provinces={
		12908 13483 13893 
	}
	manpower=746724
	buildings_max_level_factor=1.000
	state_category=pastoral
}
