state={
	id=1231
	name="STATE_1231"

	history={
		owner = SOV
		buildings = {
			infrastructure = 1

		}
		add_core_of = SOV
		1942.11.22 = {
			controller = FIN
		}
		1945.1.1 = {
			controller = SOV
		}
	}

	provinces={
		80 2998 11146 14001 14002 
	}
	manpower=1465
	buildings_max_level_factor=1.000
	state_category=wasteland
}
