state={
	id=1246
	name="STATE_1246"

	history={
		owner = HON
		victory_points = {
			14073 2
		}
		victory_points = {
			2031 2
		}
		buildings = {
			infrastructure = 3
			industrial_complex = 1
			14073 = {
				naval_base = 1

			}

		}
		add_core_of = HON

	}

	provinces={
		2031 14071 14073 14074 
	}
	manpower=1621762
	buildings_max_level_factor=1.000
	state_category=rural
}
