
state={
	id=1261
	name="STATE_1261"

	history={
		owner = ENG
		victory_points = {
			12911 5 
		}
		victory_points = {
			2206 3 
		}
		buildings = {
			infrastructure = 3

		}
		add_core_of = TZN
		1972.1.1 = {
			owner = TZN

		}

	}

	provinces={
		2206 5224 12911 14106 14108 14111 14112 
	}
	manpower=410956
	buildings_max_level_factor=1.000
	state_category=rural
}
