state={
	id=1326
	name="STATE_1326"

	history={
		owner = FRA
		buildings = {
			infrastructure = 1
			14298 = {
				naval_base = 1

			}
			14300 = {
				naval_base = 1

			}
			14302 = {
				naval_base = 1

			}

		}

	}

	provinces={
		14298 14300 14302 
	}
	manpower=6820
	buildings_max_level_factor=1.000
	state_category=tiny_island
}
