state={
	id=1328
	name="STATE_1328"

	history={
		owner = FRA
		buildings = {
			infrastructure = 1
			14314 = {
				naval_base = 1

			}

		}

	}

	provinces={
		14314 
	}
	manpower=8632
	buildings_max_level_factor=1.000
	state_category=tiny_island
}
