state={
	id=1329
	name="STATE_1329"

	history={
		owner = NZL
		add_core_of = NIU
		victory_points = {
			14306 1
		}
		buildings = {
			infrastructure = 2
			14306 = {
				naval_base = 1

			}

		}

	}

	provinces={
		14306 
	}
	manpower=1624
	buildings_max_level_factor=1.000
	state_category=small_island
}
