state={
	id=1346
	name="STATE_1346"

	history={
		owner = POR
		victory_points = {
		    14350 2
		}
		buildings = {
			infrastructure = 2

		}
		add_core_of = ANG
		1980.1.1 = {
			owner = ANG

		}

	}

	provinces={
		2126 8138 12391 12985 14349 14350 14351 
	}
	manpower=2497422
	buildings_max_level_factor=1.000
	state_category=rural
}
