state={
	id=1355
	name="STATE_1355"

	history={
		owner = SOV
		victory_points = {
			685 2
		}
		buildings = {
			infrastructure = 3

		}
		add_core_of = SOV
		add_core_of = KBA
		1942.11.22 = {
			controller = GER

		}
		1943.7.26 = {
			controller = SOV

		}

	}

	provinces={
		685 6674 9647 14368 
	}
	manpower=859939
	buildings_max_level_factor=1.000
	state_category=rural
}
