state={
	id=1359
	name="STATE_1359"

	history={
		owner = SOV
		victory_points = {
			1839 1
		}
		buildings = {
			infrastructure = 2

		}
		add_core_of = SOV

	}
	provinces={
		1823 1839 14094 14377 14378 
	}
	manpower=18759
	buildings_max_level_factor=1.000
	state_category=wasteland
}
