state={
	id=1370
	name="STATE_1370"

	history={
		owner = RAJ
		victory_points = {
			7179 2
		}
		buildings = {
			infrastructure = 3

		}
		add_core_of = RAJ
		add_core_of = TRP

	}

	provinces={
		7179 14414 
	}
	manpower=3671032
	buildings_max_level_factor=1.000
	state_category=rural
}
