state={
	id=1371
	name="STATE_1371"

	history={
		owner = RAJ
		victory_points = {
			10090 2
		}
		buildings = {
			infrastructure = 2

		}
		add_core_of = RAJ

	}

	provinces={
		997 10090 
	}
	manpower=1091014
	buildings_max_level_factor=1.000
	state_category=pastoral
}
