state={
	id=1380
	name="STATE_1380"

	history={
		owner = BEL
		victory_points = {
			14441 3
		}
		buildings = {
			infrastructure = 3

		}
		add_core_of = COG
		1972.1.1 = {
			owner = COG
			set_province_name = { id = 14441 name = "Kananga" }

		}

	}

	provinces={
		1731 2024 4128 7716 8016 9986 14439 14441 14446 14449 14452 14455 
	}
	manpower=6556917
	buildings_max_level_factor=1.000
	state_category=rural
}
