state={
	id=1418
	name="STATE_1418"

	history={
		owner = FRA
		buildings = {
			infrastructure = 2

		}
		add_core_of = SYR
		1950.1.1 = {
			owner = SYR

		}
		1960.1.1 = {
			owner = EGY

		}
		1972.1.1 = {
			owner = SYR

		}

	}

	provinces={
		901 1634 
	}
	manpower=37935
	buildings_max_level_factor=1.000
	state_category=pastoral
}
