state={
	id=1427
	name="STATE_1427"

	history={
		owner = POL
		victory_points = {
			6413 2 
		}
		buildings = {
			infrastructure = 4

		}
		add_core_of = POL
		add_core_of = BLR
		1940.5.10 = {
			owner = SOV
			add_core_of = SOV

		}
		1942.11.22 = {
			owner = ROS

		}
		1945.1.1 = {
			controller = SOV

		}
		1946.1.1 = {
			owner = SOV
			remove_core_of = POL

		}
		2000.1.1 = {
			owner = BLR
			remove_core_of = SOV

		}

	}

	provinces={
		3366 6359 6413 14592 
	}
	manpower=99976
	buildings_max_level_factor=1.000
	state_category=rural
}
