state={
	id=1440
	name="STATE_1440"

	history={
		owner = CHL
		buildings = {
			infrastructure = 1
			14627 = {
				naval_base = 1

			}
			14628 = {
				naval_base = 1

			}

		}
		add_core_of = CHL

	}

	provinces={
		14627 14628 
	}
	manpower=900
	buildings_max_level_factor=1.000
	state_category=tiny_island
}
