state={
	id=1478
	name="STATE_1478"

	history={
		owner = ECU
		victory_points = {
			14787 2
		}
		buildings = {
			infrastructure = 3

		}
		add_core_of = ECU
		add_core_of = PRU
		1942.11.22 = {
			owner = PRU
			remove_core_of = ECU

		}

	}

	provinces={
		14787 
	}
	manpower=224863
	buildings_max_level_factor=1.000
	state_category=enclave
}
