state={
	id=1482
	name="STATE_1482"

	history={
		owner = CHI
		buildings = {
			infrastructure = 3
			14792 = {
				naval_base = 1

			}

		}
		add_core_of = CHI
		add_core_of = PRC
		1939.9.1 = {
			controller = JAP

		}
		1946.1.1 = {
			controller = CHI

		}

	}

	provinces={
		14792 
	}
	manpower=127723
	buildings_max_level_factor=1.000
	state_category=tiny_island
}
