state={
	id=1488
	name="STATE_1488"

	history={
		owner = RAJ
		victory_points = {
			5157 2
		}
		victory_points = {
			14811 1
		}
		buildings = {
			infrastructure = 2

		}
		add_core_of = RAJ

	}
	
	provinces={
		1898 3989 5157 10021 14811 14812 
	}
	manpower=10086292
	buildings_max_level_factor=1.000
	state_category=rural
}
