
state={
	id=170
	name="STATE_170"
	resources={
		tungsten=6.000
	}

	history={
		owner = SPR
		victory_points = {
			6902 3 
		}
		victory_points = {
			6866 2 
		}
		buildings = {
			infrastructure = 5
			industrial_complex = 1

		}
		add_core_of = SPR
		1939.9.1 = {
			owner = SPA
			add_core_of = SPA
			remove_core_of = SPR

		}

	}

	provinces={
		809 931 985 3930 6866 6902 6948 6954 9839 9877 9917 9925 11756 11780 11798 11851 
	}
	manpower=1782253
	buildings_max_level_factor=1.000
	state_category=large_town
}
