
state={
	id=172
	name="STATE_172"
	resources={
		steel=12.000
	}

	history={
		owner = SPR
		victory_points = {
		    3933 2
		}
		buildings = {
			infrastructure = 5
			industrial_complex = 1
		}
		add_core_of = SPR
		1939.9.1 = {
			owner = SPA
			add_core_of = SPA
			remove_core_of = SPR

		}
	}

	provinces={
		932 3737 3931 3933 9857 
	}
	manpower=352108	
	buildings_max_level_factor=1.000
	state_category=rural
}
