
state={
	id=178
	name="STATE_178"

	history={
		owner = SPR
		victory_points = {
			13071 2 
		}
		victory_points = {
			13258 2 
		}
		buildings = {
			infrastructure = 3
			13071 = {
				naval_base = 1

			}

		}
		add_core_of = SPR
		1939.9.1 = {
			owner = SPA
			add_core_of = SPA
			remove_core_of = SPR

		}

	}

	provinces={
		13071 13258 
	}
	manpower=561347
	buildings_max_level_factor=1.000
	state_category=small_island
}
