
state={
	id=208
	name="STATE_208"

	history={
		owner = SOV
		victory_points = {
			6174 1
		}
		victory_points = {
			9097 1
		}
		victory_points = {
			3120 1
		}
		buildings = {
			infrastructure = 5
			air_base = 3
			9097 = {
				bunker = 3
				coastal_bunker = 4

			}

		}
		add_core_of = SOV
		1942.11.22 = {
			controller = GER
			SOV = {
				set_province_controller = 9097

			}

		}
		1944.6.20 = {
			controller = SOV
			set_province_name = {
				id = 6174
				name = Gatchina
				
			}

		}

	}

	provinces={
		79 104 126 181 3072 3120 6139 6174 6197 9097 9098 11032 11080 11139 11186 
	}
	manpower=341819
	buildings_max_level_factor=1.000
	state_category=rural
}
