
state={
	id=231
	name="STATE_231"

	history={
		owner = SOV
		victory_points = {
			12309 5
		}
		victory_points = {
			6671 1
		}
		buildings = {
			infrastructure = 3
			industrial_complex = 1
			air_base = 3

		}
		add_core_of = SOV
		add_core_of = GEO
		1939.1.1 = {
			buildings = {
				industrial_complex = 3

			}

		}
		2000.1.1 = {
			owner = GEO
			remove_core_of = SOV
			
		}

	}

	provinces={
		1599 4534 6436 6669 6671 9702 12309 14081 14082 14083 
	}
	manpower=2949413
	buildings_max_level_factor=1.000
	state_category=town
}
