
state={
	id=263
	name="STATE_263"

	history={
		owner = SOV
		victory_points = {
			117 5 
		}
		victory_points = {
			11109 1
		}
		buildings = {
			infrastructure = 5
			air_base = 2

		}
		add_core_of = SOV
		1942.11.22 = {
			owner = SOV
			controller = GER

		}
		1944.6.20 = {
			owner = SOV
			controller = SOV

		}

	}

	provinces={
		117 320 3089 9234 9331 11072 11109 14115 
	}
	manpower=1092577
	buildings_max_level_factor=1.000
	state_category=town
}
