
state={
	id=276
	name="STATE_276"

	history={
		owner = CAN
		victory_points = {
			3778 20 
		}
		victory_points = {
			3775 15
		}
		victory_points = {
			3763 3
		}
		victory_points = {
			722 3
		}
		victory_points = {
			9667 2
		}
		buildings = {
			infrastructure = 7
			arms_factory = 2
			industrial_complex = 4
			air_base = 5

		}
		add_core_of = CAN

	}

	provinces={
		605 722 749 774 779 3605 3608 3635 3661 3763 3775 3778 4270 6607 6610 6625 6630 6662 6797 9580 9583 9585 9667 9711 9743 11567 11569 11585 11695 11725 13156 13237 13238 14200 14201 
	}
	manpower=3317017
	buildings_max_level_factor=1.000
	state_category=large_city
}
