
state={
	id=286
	name="STATE_286"
	resources={
		rubber=11.000
	}

	history={
		owner = VIN
		victory_points = {
			4401 5
		}
		victory_points = {
			12232 3
		}
		victory_points = {
			10232 2
		}
		buildings = {
			infrastructure = 3
			industrial_complex = 1
			air_base = 2
			4401 = {
				naval_base = 4

			}

		}
		add_core_of = VIN
		1942.11.22 = {
			owner = JAP

		}
		1946.1.1 = {
			owner = VIN
			add_core_of = VIE

		}
		1980.1.1 = {
			owner = VIE
			remove_core_of = VIN

		}

	}

	provinces={
		1396 1423 4401 7238 7347 10232 10261 12232 12288 
	}
	manpower=2373000
	buildings_max_level_factor=1.000
	state_category=town
}
