
state={
	id=297
	name="STATE_297"

	history={
		owner = SPR
		victory_points = {
			1903 2
		}
		buildings = {
			infrastructure = 2
			1903 = {
				naval_base = 1

			}
			
		}
		add_core_of = EQG
		1939.9.1 = {
			owner = SPA

		}
		1972.1.1 = {
			owner = EQG
			set_state_name = Bioko

		}
		1980.1.1 = {
			set_province_name = {
				id = 1903
				name = Malabo

			}

		}

	}

	provinces={
		1903 
	}
	manpower=185000
	buildings_max_level_factor=1.000
	state_category=small_island
}
