
state={
	id=349
	name="STATE_349"

	history={
		owner = TUR
		buildings = {
			infrastructure = 3
			industrial_complex = 1

		}
		add_core_of = TUR

	}

	provinces={
		3903 3950 6919 6950 9761 9777 9868 14534 
	}
	manpower=592821
	buildings_max_level_factor=1.000
	state_category=rural
}
