
state={
	id=397
	name="STATE_397"

	history={
		owner = SOV
		buildings = {
			infrastructure = 2

		}
		add_core_of = SOV

	}

	provinces={
		6 99 154 1295 1307 3000 3155 4298 6016 6121 6177 6202 6538 7318 7712 7898 9121 9145 9225 9230 10579 10723 11179 11182 11200 11203 12558 
	}
	manpower=137203
	buildings_max_level_factor=1.000
	state_category=wasteland
}
