
state={
	id=424
	name="STATE_424"

	history={
		owner = RAJ
		victory_points = {
			14816 5
		}
		victory_points = {
			7340 3
		}
		victory_points = {
			4321 2
		}
		victory_points = {
			10152 1
		}
		victory_points = {
			10756 1
		}
		buildings = {
			infrastructure = 4
			industrial_complex = 1

		}
		add_core_of = RAJ

	}

	provinces={
		1228 1344 1430 4237 4321 4365 4414 7297 7310 7340 10001 10152 10255 10296 10756 10897 12180 12779 14816 
	}
	manpower=15791700
	buildings_max_level_factor=1.000
	state_category=rural
}
