
state={
	id=445
	name="STATE_445"

	history={
		owner = RAJ
		victory_points = {
			5105 2
		}
		buildings = {
			infrastructure = 3
			air_base = 4

		}
		add_core_of = RAJ
		add_core_of = PAK
		1950.1.1 = {
			owner = PAK
			remove_core_of = RAJ

		}

	}

	provinces={
		4990 5075 5105 7847 7975 8044 14384 
	}
	manpower=405100
	buildings_max_level_factor=1.000
	state_category=wasteland
}
