
state={
	id=451
	name="STATE_451"

	history={
		owner = ITA
		victory_points = {
			7082 2
		}
		victory_points = {
			4151 2
		}
		buildings = {
			infrastructure = 2

		}
		add_core_of = LBA
		1942.11.22 = {
			owner = ITA
			controller = ENG

		}
		1944.6.20 = {
			owner = ENG
			controller = ENG

		}
		1950.1.1 = {
			owner = LBA
			controller = LBA

		}

	}

	provinces={
		1204 4151 7082 12094 
	}
	manpower=25628
	buildings_max_level_factor=1.000
	state_category=wasteland
}
