
state={
	id=497
	name="STATE_497"
	resources={
		rubber=23.000
	}

	history={
		owner = BRA
		victory_points = {
			12933 2
		}
		buildings = {
			infrastructure = 3
			industrial_complex = 1
			air_base = 1

		}
		add_core_of = BRA

	}

	provinces={
		2150 5220 12913 12933 12947 
	}
	manpower=2950100
	buildings_max_level_factor=1.000
	state_category=rural
}
