
state={
	id=519
	name="STATE_519"

	history={
		owner = AST
	    victory_points = {
			12910 5 
		}
		victory_points = {
			1773 1
		}
		buildings = {
			infrastructure = 3
			12910 = {
				naval_base = 2
			}

		}
		add_core_of = AST

	}

	provinces={
		1773 2219 5183 5197 5211 5225 7567 8165 8186 8220 10925 10927 12910 12918 12924 13169 13170 
	}
	manpower=200800
	buildings_max_level_factor=1.000
	state_category=pastoral
}
