
state={
	id=530
	name="STATE_530"

	history={
		owner = JAP
		victory_points = {
			4179 5
		}
		victory_points = {
			7197 3
		}
		victory_points = {
			9965 3
		}
		buildings = {
			infrastructure = 3
			air_base = 3
			arms_factory = 1
			industrial_complex = 2

		}
		add_core_of = JAP

	}

	provinces={
		4094 4179 7046 7197 9965 11997 12028 
	}
	manpower=3310000
	buildings_max_level_factor=1.000
	state_category=large_city
}
