
state={
	id=556
	name="STATE_556"
	resources={
		rubber=2.000
	}

	history={
		owner = FRA
		victory_points = {
			10803 5
		}
		victory_points = {
			13963 1
		}
		buildings = {
			infrastructure = 4
			10803 = {
				naval_base = 3

			}

		}
		add_core_of = IVO
		1941.6.22 = {
			owner = VIC

		}
		1942.11.22 = {
			owner = FRA

		}
		1972.1.1 = {
			owner = IVO

		}

	}

	provinces={
		10803 13963 13964 13965 13968 
	}
	manpower=3850700
	buildings_max_level_factor=1.000
	state_category=town
}
