
state={
	id=569
	name="STATE_569"

	history={
		owner = SOV
		buildings = {
			infrastructure = 3
			industrial_complex = 1

		}
		add_core_of = SOV

	}

	provinces={
		1369 1685 4665 4789 4793 7757 7822 7886 12631 
	}
	manpower=1567322
	buildings_max_level_factor=1.000
	state_category=town
}
