
state={
	id=579
	name="STATE_579"
    
    impassable = yes
	history={
		owner = SOV
		buildings = {
			infrastructure = 1

		}
		add_core_of = SOV

	}

	provinces={
		96 1664 1684 1729 1757 3169 3336 3415 4669 4733 4761 7689 7738 7809 8461 9142 10536 10564 10635 12517 12545 
	}
	manpower=45484
	buildings_max_level_factor=1.000
	state_category=wasteland
}
