
state={
	id=593
	name="STATE_593"
	resources={
		tungsten=15.000
		steel=15.000
		chromium=3.000
	}

	history={
		owner = GND
		victory_points = {
			7108 5 
		}
		victory_points = {
			9938 3
		}
		victory_points = {
			4050 2
		}
		victory_points = {
			9970 2
		}
		victory_points = {
			1162 2
		}
		buildings = {
			infrastructure = 2
			industrial_complex = 1
			9938 = {
				naval_base = 1
				coastal_bunker = 1
				bunker = 1

			}

		}
		add_core_of = GND
		add_core_of = PRC
		add_core_of = CHI
		1939.9.1 = {
			JAP = {
				set_province_controller = 7108

			}

		}
		1946.1.1 = {
			owner = CHI
			controller = CHI
			remove_core_of = GND

		}
		1950.1.1 = {
			owner = PRC
			controller = PRC

		}

	}

	provinces={
		1120 1162 1202 4050 4165 4207 7067 7108 7182 9938 9970 9978 10080 12014 12095 
	}
	manpower=11700000
	buildings_max_level_factor=1.000
	state_category=town
}
