
state={
	id=628
	name="STATE_628"

	history={
		owner = PHI
		victory_points = {
			12118 3
		}
		victory_points = {
			7385 1
		}
		buildings = {
			infrastructure = 3
			12118 = {
				naval_base = 1

			}

		}
		add_core_of = PHI
		1942.11.22 = {
			controller = JAP

		}
		1946.1.1 = {
			controller = PHI

		}

	}

	provinces={
		7385 12118 12153 
	}
	manpower=3525715
	buildings_max_level_factor=1.000
	state_category=rural
}
