
state={
	id=630
	name="STATE_630"

	history={
		owner = USA
		buildings = {
			infrastructure = 1
			13051 = {
				naval_base = 1

			}

		}

	}

	provinces={
		13051 
	}
	manpower=1
	buildings_max_level_factor=1.000
	state_category=tiny_island
}
