
state={
	id=657
	name="STATE_657"
	resources={
		steel=18.000
	}

	history={
		owner = SOV
		victory_points = {
			7672 1
		}
		buildings = {
			infrastructure = 3
			air_base = 2

		}
		add_core_of = SOV

	}

	provinces={
		7672 10722 12678 14420 
	}
	manpower=308380
	buildings_max_level_factor=1.000
	state_category=pastoral
}
