
state={
	id=705
	name="STATE_705"

	history={
		owner = POR
		victory_points = {
			13015 1
		}
		buildings = {
			infrastructure = 2
			13015 = {
				naval_base = 1

			}

		}
		add_core_of = STP
		1980.1.1 = {
			owner = STP

		}

	}

	provinces={
		13015 
	}
	manpower=24725
	buildings_max_level_factor=1.000
	state_category=tiny_island
}
