
state={
	id=748
	name="STATE_748"

	history={
		owner = GUZ
		victory_points = {
			4325 3
		}
		victory_points = {
			10763 2
		}
		buildings = {
			infrastructure = 2

		}
		add_core_of = GUZ
		add_core_of = CHI
		add_core_of = PRC
		1936.1.1 = {
			owner = CHI
			remove_core_of = GUZ

		}
		1950.1.1 = {
			owner = PRC

		}	
	}

	provinces={
		1010 4325 9939 10763 
	}
	manpower=1500000
	buildings_max_level_factor=1.000
	state_category=pastoral
}
