
state={
	id=776
	name="STATE_776"

	history={
		owner = SPR
		victory_points = {
			740 3
		}
		victory_points = {
			3735 2
		}
		buildings = {
			infrastructure = 6
			arms_factory = 1
			industrial_complex = 1
			air_base = 1
			740 = {
				naval_base = 1

			}

		}
		add_core_of = SPR
		add_core_of = BSQ
		1939.9.1 = {
			owner = SPA
			add_core_of = SPA
			remove_core_of = SPR

		}

	}

	provinces={
		740 3735 6756 13979 
	}
	manpower=891710
	buildings_max_level_factor=1.000
	state_category=city
}
