
state={
	id=780
	name="STATE_780"

	history={
		owner = USA
		victory_points = {
			10441 1
		}
		victory_points = {
			6971 1
		}
		buildings = {
			infrastructure = 5
			industrial_complex = 2

		}
		add_core_of = USA

	}

	provinces={
		801 3941 3975 4627 6850 6958 6971 7466 7588 7646 9923 10441 11888 
	}
	manpower=1808000
	buildings_max_level_factor=1.000
	state_category=town
}
