
state={
	id=816
	name="STATE_816"

	history={
		owner = JAP
		victory_points = {
			11958 1
		}
		buildings = {
			infrastructure = 2

		}
		add_core_of = KOR
		add_core_of = PRK

		1946.1.1 = {
			owner = SOV
		}
		1950.1.1 = {
			owner = PRK
		}	
		1956.1.1 = {
			owner = KOR
		}			
	}

	provinces={
		9981 11958 
	}
	manpower=62000
	buildings_max_level_factor=1.000
	state_category=pastoral
}
