
state={
	id=83
	name="STATE_83"
	manpower = 632900

	resources = {
			steel = 6
	}
	
	state_category = town

	history={
		owner = ROM
		1945.1.1 = {
			controller = SOV
		}
		1946.1.1 = {
			owner = ROM
			controller = ROM
		}
		victory_points = {
			6682 2
		}
		buildings = {
			infrastructure = 5
			arms_factory = 1
			industrial_complex = 1
		}
		add_core_of = ROM
	}

	provinces={
		696 6682 6697 9640 
	}
}
