
state={
	id=832
	name="STATE_832"

	history={
		owner = GND
		victory_points = {
			4023 3
		}
		victory_points = {
			1018 2
		}
		victory_points = {
			10004 1
		}
		buildings = {
			infrastructure = 3

		}
		add_core_of = GND
		add_core_of = CHI
		add_core_of = PRC
		1950.1.1 = {
			owner = PRC

		}

	}

	provinces={
		1018 4023 7192 10004 10105 11926 
	}
	manpower=4830000
	buildings_max_level_factor=1.000
	state_category=city
}
