
state={
	id=889
	name="STATE_889"

	history={
		owner = SAF
		add_core_of = SAF
		victory_points = {
			12648 2
		}
		buildings = {
			infrastructure = 4
			industrial_complex = 1

		}

	}

	provinces={
		5231 12064 12648 13388 13392 13393 13399 13400 
	}
	manpower=747431
	buildings_max_level_factor=1.000
	state_category=rural
}
