
state={
	id=898
	name="STATE_898"

	history={
		owner = OMA
		victory_points = {
			13577 1
		}
		buildings = {
			infrastructure = 2

		}
		add_core_of = OMA

	}

	provinces={
		2018 5049 13570 13573 13574 13577 
	}
	manpower=120000
	buildings_max_level_factor=1.000
	state_category=rural
}
