
state={
	id=917
	name="STATE_917"

	history={
		owner = MON
		victory_points = {
			12544 1
		}
		buildings = {
			infrastructure = 2

		}
		add_core_of = MON
		add_claim_by = CHI

	}

	provinces={
		1689 1781 1855 4777 4858 7799 10560 10563 10634 10695 12544 13897 13909 13917 13924 13925 13932 13934 13935 
	}
	manpower=15001
	buildings_max_level_factor=1.000
	state_category=town
}
