
state={
	id=926
	name="STATE_926"

	history={
		owner = SOV
		victory_points = {
			13364 2
		}
		buildings = {
			infrastructure = 1

		}
		add_core_of = SOV
		add_core_of = UZB
		add_core_of = KPK
		2000.1.1 = {
			owner = UZB
			remove_core_of = SOV

		}

	}

	provinces={
		1479 1614 1721 7541 7641 10348 10395 10435 12233 12383 12454 12474 12849 13363 13364 13365 13366 
	}
	manpower=255600
	buildings_max_level_factor=1.000
	state_category=pastoral
}
