
state={
	id=941
	name="STATE_941"

	history={
		owner = ENG
		add_core_of = TUR
        victory_points = {
			13349 2
		}
		buildings = {
			infrastructure = 3

		}
		1980.1.1 = {
			owner = TUR

		}

	}

	provinces={
		11984 13349 
	}
	manpower=146054
	buildings_max_level_factor=1.000
	state_category=pastoral
}
