state={
	id=980
	name="STATE_980"

	resources = {
			steel = 5
			aluminium = 8
	}
	
	history={
		owner = JAP
		victory_points = {
			11835 2
		}
		victory_points = {
		    11775 2
		}
		buildings = {
			infrastructure = 3

		}
		add_core_of = KOR
		add_core_of = PRK
		1946.1.1 = {
			owner = SOV

		}
		1950.1.1 = {
			owner = PRK
			add_core_of = PRK

		}

	}
	
	provinces={
		906 912 3912 6963 9795 9918 11775 11828 11835 11896 
	}
	manpower=736738
	buildings_max_level_factor=1.000
	state_category=rural
}
