state={
	id=983
	name="STATE_983"
	
	history={
		owner = JAP
		victory_points = {
		    10065 2
		}
		buildings = {
			infrastructure = 3

		}
		add_core_of = KOR
		add_core_of = PRK
		1946.1.1 = {
			owner = SOV

		}
		1950.1.1 = {
			owner = PRK
			add_core_of = PRK

		}

	}
	
	provinces={
		4107 7155 10065 13213 13275 
	}
	manpower=570691
	buildings_max_level_factor=1.000
	state_category=town
}
