﻿division_template = {
	name = "Infantry Division"			# Infantry Division
	division_names_group = ENG_INF_01
	
	regiments = {
		infantry = { x = 0 y = 0 }
		infantry = { x = 0 y = 1 }
		infantry = { x = 0 y = 2 }
 		infantry = { x = 0 y = 3 }	# deleted 1938
        infantry = { x = 1 y = 0 }
		infantry = { x = 1 y = 1 }
		infantry = { x = 1 y = 2 }
		infantry = { x = 1 y = 3 }	# deleted 1938
        infantry = { x = 2 y = 0 }
		infantry = { x = 2 y = 1 }
		infantry = { x = 2 y = 2 }
		infantry = { x = 2 y = 3 }	# deleted 1938
        artillery_battalion = { x = 2 y = 0 }
		artillery_battalion = { x = 2 y = 1 }
		artillery_battalion = { x = 2 y = 2 }
		artillery_battalion = { x = 2 y = 3 }	# deleted 1938
        #anti_tank_brigade = { x = 2 y = 3 }	# added 1938
	}
	support = {
		recon = { x = 0 y = 0 }
		engineer = { x = 0 y = 1 }
	}
}

division_template = { 
	name = "Cavalry Brigade"
	division_names_group = ENG_CAV_02

	regiments = {
		cavalry = { x = 0 y = 0 }
		cavalry = { x = 0 y = 1 }
		cavalry = { x = 1 y = 0 }
	}
	support = {
        recon = { x = 0 y = 0 }
		artillery = { x = 0 y = 1 } 

	}
}
division_template = {
	name = "Tank Brigade"
	division_names_group = ENG_ARM_02
	regiments = {
		medium_armor = { x = 0 y = 0 }
		medium_armor = { x = 0 y = 1 }
		medium_armor = { x = 0 y = 2 }
		medium_armor = { x = 0 y = 3 }
	}
}

division_template = {
	name = "Colonial Garrison"
	division_names_group = ENG_COL_01
    is_locked = yes
	regiments = {
		garrison = { x = 0 y = 0 }
		garrison = { x = 0 y = 1 }
		garrison = { x = 0 y = 2 }
		garrison = { x = 0 y = 3 }
        artillery_battalion = { x = 1 y = 0 }
		anti_air_brigade = { x = 1 y = 1 }
	}
	support = {
		engineer = { x = 0 y = 0 }
	}
    priority = 0
}

division_template = {
	name = "Colonial Brigade"
	division_names_group = ENG_COL_01
    is_locked = yes

	regiments = {
		garrison = { x = 0 y = 0 }
		garrison = { x = 0 y = 1 }
		garrison = { x = 0 y = 2 }
		garrison = { x = 1 y = 0 }
		garrison = { x = 1 y = 1 }
		garrison = { x = 1 y = 2 }
    }
    priority = 0
}

units = {
	##### Infantry #####
	division = { # 1st Infantry Division
		division_name = {
			is_name_ordered = yes
			name_order = 1
		}
		location = 507 # Aldershot
        division_template = "Infantry Division"
        start_experience_factor = 0.3
	    start_equipment_factor = 0.9

	}
	division = { # 2nd Infantry Division
		division_name = {
			is_name_ordered = yes
			name_order = 2
		}
		location = 507 # Aldershot
        division_template = "Infantry Division"
        start_experience_factor = 0.3
        start_equipment_factor = 0.9

	}
	division = { # 3rd Infantry Division
		division_name = {
			is_name_ordered = yes
			name_order = 3
		}
		location = 11471 # Bulford
        division_template = "Infantry Division"
        start_experience_factor = 0.3
        start_equipment_factor = 0.9

	}
	division = { # 4th Infantry Division
		division_name = {
			is_name_ordered = yes
			name_order = 4
		}
		location = 221 # Colchester
        division_template = "Infantry Division"
        start_experience_factor = 0.3
        start_equipment_factor = 0.9
	}
	division = { # 5th Infantry Division
		division_name = {
			is_name_ordered = yes
			name_order = 5
		}
		location = 9397 # Catterick
        division_template = "Infantry Division"
        start_experience_factor = 0.3
        start_equipment_factor = 0.9
	}
	
	##### Cavalry #####
	division = { # 1st Cavalry Bde
		division_name = {
			is_name_ordered = yes
			name_order = 1
		}
		location = 507 # Aldershot
        division_template = "Cavalry Brigade"
		start_experience_factor = 0.18
		start_equipment_factor = 0.7 # Brigade HQ not organized
	}
	division = { # 2nd Cavalry Bde
		division_name = {
			is_name_ordered = yes
			name_order = 2
		}
		location = 11471 # Bulford
        division_template = "Cavalry Brigade"
		start_experience_factor = 0.18
		start_equipment_factor = 0.7 # Brigade HQ not organized
	}

	##### Armor #####
	division= {	
		name = "Royal Tank Corps"
		location = 9239
		division_template = "Tank Brigade"
		start_experience_factor = 0.22
		start_equipment_factor = 0.7 # Brigade HQ not organized
		force_equipment_variants = { Medium_Tank_equipment_1926 = { owner = "ENG" } }
	}
	
   ##### China Command #####
    division = {
        name = "Hong Kong Defence Force"
        location = 10062 # Hong Kong
        division_template = "Colonial Garrison"
        start_experience_factor = 0.1
        start_equipment_factor = 0.75
    }
    ##### Malaya Command #####
    division = {
        name = "Singapore Fortress"
        location = 12299 # Singapore
        division_template = "Colonial Garrison"
        start_experience_factor = 0.1
        start_equipment_factor = 0.4
    }
    ##### Royal West African Frontier Force #####
    division = {
        name = "The Nigeria Regiment"
        location = 2050 # Lagos
        division_template = "Colonial Brigade"
        start_experience_factor = 0.1
        start_equipment_factor = 0.7
    }
    ##### British Troops on Gibraltar #####
    division = {
        name = "Gibraltar Defence Force"
        location = 4135 # Gibraltar
        division_template = "Colonial Garrison"
        start_experience_factor = 0.1
        start_equipment_factor = 0.25
    }
    ##### Ceylon Command #####
    division = {
        name = "Ceylon Defence Force"
        location = 7260 # Colombo
        division_template = "Colonial Brigade"
        start_experience_factor = 0.1
        start_equipment_factor = 0.7
    }
    ##### Malta Command #####
    division = {
        name = "Malta Defence Force"
        location = 12003 # Malta
        division_template = "Colonial Garrison"
        start_experience_factor = 0.1
        start_equipment_factor = 0.35
    }
	##### Middle East Command #####
	division = {
		name = "The Cavalry Brigade"
		location = 4076 # Alexandria
        division_template = "Cavalry Brigade"
        start_experience_factor = 0.18
        start_equipment_factor = 0.7
	}
	division = {
		name = "Canal Brigade"
		location = 12049 # Ismailia
        division_template = "Colonial Garrison"
        start_experience_factor = 0.18
        start_equipment_factor = 0.7
	}
	division = {
		name = "Cairo Brigade"
		location = 4143 # Cairo
        division_template = "Colonial Garrison"
        start_experience_factor = 0.18
        start_equipment_factor = 0.7
	}
    ##### British Forces in Palestine and Transjordan #####
    division = {
        name = "British Forces in Palestine and Trans-Jordan"
        location = 13214 # Jerusalem
        division_template = "Colonial Garrison"
        start_experience_factor = 0.1
        start_equipment_factor = 0.15
    }
    ##### Gold Coast Defence Force #####
    division = {
        name = "The Gold Coast Regiment"
        location = 10862 # Accra
        division_template = "Colonial Brigade"
        start_experience_factor = 0.1
        start_equipment_factor = 0.2
    }
    ##### British troops in the Sudan #####
    division = {
        name = "Sudan Defence Force"
        location = 12806 # Khartoum
        division_template = "Colonial Brigade"
        start_experience_factor = 0.1
    }
    ##### Southern Rhodesia Defence Force #####
    division = {
        name = "Southern Rhodesia Defence Force"
        location = 10929 # Salisbury
        division_template = "Colonial Brigade"
        start_experience_factor = 0.1
        start_equipment_factor = 0.4
    }
    ##### East Africa Force #####
    division = {
        name = "King's African Rifles"
        location = 1939 # Nairobi
        division_template = "Colonial Brigade"
        start_experience_factor = 0.1
        start_equipment_factor = 0.7
    }
    ##### British Troops on Jamaica #####
    division = {
        name = "Jamaica Defence Force"
        location = 12304 # Jamaica
        division_template = "Colonial Brigade"
        start_experience_factor = 0.1
        start_equipment_factor = 0.4
    }
    ##### British Colony of Bermuda #####
    division = {
        name = "Bermuda Volunteer Rifle Corps"
        location = 13010 # Bermuda
        division_template = "Colonial Brigade"
        start_experience_factor = 0.1
        start_equipment_factor = 0.1
    }
    ##### British Troops in Somaliland #####
    division = {
        name = "Somaliland Camel Corps"
        location = 5068 # Hargeisa
        division_template = "Colonial Brigade"
        start_experience_factor = 0.1
        start_equipment_factor = 0.1
    }
    ##### British Troops in Sierra Leone #####
    division = {
        name = "The Sierra Leone Battalion"
        location = 2038 # Freetown
        division_template = "Colonial Brigade"
        start_experience_factor = 0.1
        start_equipment_factor = 0.1
    }
    ##### British Troops in Fiji #####
    division = {
        name = "Fiji Defence Force"
        location = 4286 # Suva
        division_template = "Colonial Brigade"
        start_experience_factor = 0.1
        start_equipment_factor = 0.1   
    }

	##### British Honduras #####
	division = {
		name = "British Honduras Defense Force"
		location = 2077 # Belize
        division_template = "Colonial Garrison"
        start_experience_factor = 0.1
        start_equipment_factor = 0.7
	}

	
	
    ##### navy oob #####
    fleet = {
        name = "Home Fleet"
        naval_base = 11064 # Scapa Flow
        task_force = {
            name = "Home Fleet"
            location = 11064 # Scapa Flow
            ship = { name = "HMS Nelson" definition = battleship equipment = { BB_equipment_1922 = { amount = 1 owner = ENG } } }
            ship = { name = "HMS Rodney" definition = battleship equipment = { BB_equipment_1922 = { amount = 1 owner = ENG } } }
            ship = { name = "HMS Royal Sovereign" definition = battleship equipment = { BB_equipment_1912 = { amount = 1 owner = ENG } } }
            ship = { name = "HMS Resolution" definition = battleship equipment = { BB_equipment_1912 = { amount = 1 owner = ENG } } }
            ship = { name = "HMS Ramillies" definition = battleship equipment = { BB_equipment_1912 = { amount = 1 owner = ENG } } }
            ship = { name = "HMS Valiant" definition = battleship equipment = { BB_equipment_1912 = { amount = 1 owner = ENG } } }
            ship = { name = "HMS Warspite" definition = battleship equipment = { BB_equipment_1912 = { amount = 1 owner = ENG } } }
            ship = { name = "HMS Hood" definition = battle_cruiser equipment = { BC_equipment_1916 = { amount = 1 owner = ENG } } }
            ship = { name = "HMS Renown" definition = battle_cruiser equipment = { BC_equipment_1912 = { amount = 1 owner = ENG } } }
            ship = { name = "HMS Repulse" definition = battle_cruiser equipment = { BC_equipment_1912 = { amount = 1 owner = ENG } } }
            ship = { name = "HMS Furious" definition = carrier equipment = { CV_equipment_1922 = { amount = 1 owner = ENG } } air_wings = {} }
            ship = { name = "HMS Courageous" definition = carrier equipment = { CV_equipment_1922 = { amount = 1 owner = ENG } } air_wings = {} }
            ship = { name = "HMS Argus" definition = escort_carrier equipment = { CV_equipment_1916 = { amount = 1 owner = ENG } } air_wings = {} }
            ship = { name = "HMS Pegasus" definition = escort_carrier equipment = { CV_equipment_1916 = { amount = 1 owner = ENG } } air_wings = {} }
            ship = { name = "HMS Exeter" definition = heavy_cruiser equipment = { CA_equipment_1922 = { amount = 1 owner = ENG } } }
            ship = { name = "HMS Dragon" definition = light_cruiser equipment = { CL_equipment_1912 = { amount = 1 owner = ENG } } }
            ship = { name = "HMS Cairo" definition = light_cruiser equipment = { CL_equipment_1912 = { amount = 1 owner = ENG } } }
            ship = { name = "HMS Caledon" definition = light_cruiser equipment = { CL_equipment_1912 = { amount = 1 owner = ENG } } }
            ship = { name = "HMS Calypso" definition = light_cruiser equipment = { CL_equipment_1912 = { amount = 1 owner = ENG } } }
            ship = { name = "HMS Caradoc" definition = light_cruiser equipment = { CL_equipment_1912 = { amount = 1 owner = ENG } } }
            ship = { name = "HMS Calcutta" definition = light_cruiser equipment = { CL_equipment_1912 = { amount = 1 owner = ENG } } }
            ship = { name = "HMS Curacoa" definition = light_cruiser equipment = { CL_equipment_1912 = { amount = 1 owner = ENG } } }
            ship = { name = "Destroyer Division 11" definition = destroyer equipment = { DD_equipment_1916 = { amount = 1 owner = ENG } } }
            ship = { name = "Destroyer Division 12" definition = destroyer equipment = { DD_equipment_1916 = { amount = 1 owner = ENG } } }
            ship = { name = "Destroyer Division 15" definition = destroyer equipment = { DD_equipment_1916 = { amount = 1 owner = ENG } } }
            ship = { name = "Destroyer Division 16" definition = destroyer equipment = { DD_equipment_1916 = { amount = 1 owner = ENG } } }
            ship = { name = "Destroyer Division 21" definition = destroyer equipment = { DD_equipment_1916 = { amount = 1 owner = ENG } } }
            ship = { name = "Destroyer Division 22" definition = destroyer equipment = { DD_equipment_1916 = { amount = 1 owner = ENG } } }
            ship = { name = "Destroyer Division 33" definition = destroyer equipment = { DD_equipment_1916 = { amount = 1 owner = ENG } } }
            ship = { name = "Destroyer Division 34" definition = destroyer equipment = { DD_equipment_1916 = { amount = 1 owner = ENG } } }
            ship = { name = "Destroyer Division 25" definition = destroyer equipment = { DD_equipment_1916 = { amount = 1 owner = ENG } } }
            ship = { name = "6th Submarine Flotilla" definition = submarine equipment = { SS_equipment_1916 = { amount = 1 owner = ENG } } }
            ship = { name = "I/2nd Submarine Flotilla" definition = submarine equipment = { SS_equipment_1916 = { amount = 1 owner = ENG } } }
            ship = { name = "II/2nd Submarine Flotilla" definition = submarine equipment = { SS_equipment_1916 = { amount = 1 owner = ENG } } }
            ship = { name = "III/2nd Submarine Flotilla" definition = submarine equipment = { SS_equipment_1916 = { amount = 1 owner = ENG } } }
        }
    }

    fleet = {
        name = "Rosyth Command"
        naval_base = 6300 # Rosyth
        task_force = {
            name = "Rosyth Command"
            location = 6300 # Rosyth
            ship = { name = "Destroyer Division 29" definition = destroyer equipment = { DD_equipment_1916 = { amount = 1 owner = ENG } } }
            ship = { name = "Destroyer Division 30" definition = destroyer equipment = { DD_equipment_1916 = { amount = 1 owner = ENG } } }   
        }
    }

    fleet = {
        name = "Nore Command"
        naval_base = 3501 # Dover
        task_force = {
            name = "Nore Command"
            location = 3501 # Dover
            ship = { name = "Destroyer Division 37" definition = destroyer equipment = { DD_equipment_1922 = { amount = 1 owner = ENG } } }
            ship = { name = "Destroyer Division 38" definition = destroyer equipment = { DD_equipment_1922 = { amount = 1 owner = ENG } } }
        }         
    }

    fleet = {
        name = "Portsmouth Command"
        naval_base = 6489 # Portsmouth
        task_force = {
            name = "Portsmouth Command"
            location = 6489 # Portsmouth
            ship = { name = "Destroyer Division 35" definition = destroyer equipment = { DD_equipment_1922 = { amount = 1 owner = ENG } } }
            ship = { name = "Destroyer Division 36" definition = destroyer equipment = { DD_equipment_1922 = { amount = 1 owner = ENG } } }
            ship = { name = "Destroyer Division 31" definition = destroyer equipment = { DD_equipment_1916 = { amount = 1 owner = ENG } } }
            ship = { name = "Destroyer Division 32" definition = destroyer equipment = { DD_equipment_1916 = { amount = 1 owner = ENG } } }
            ship = { name = "I/5th Submarine Flotilla" definition = submarine equipment = { SS_equipment_1916 = { amount = 1 owner = ENG } } }
            ship = { name = "II/5th Submarine Flotilla" definition = submarine equipment = { SS_equipment_1916 = { amount = 1 owner = ENG } } }
        }   
    }

    fleet = {
        name = "Mediterranean Fleet"
        naval_base = 12003 # Malta
        task_force = {
            name = "Mediterranean Fleet"
            location = 12003 # Malta
            ship = { name = "HMS Royal Oak" definition = battleship equipment = { BB_equipment_1912 = { amount = 1 owner = ENG } } }
            ship = { name = "HMS Queen Elizabeth" definition = battleship equipment = { BB_equipment_1912 = { amount = 1 owner = ENG } } }
            ship = { name = "HMS Revenge" definition = battleship equipment = { BB_equipment_1912 = { amount = 1 owner = ENG } } }
            ship = { name = "HMS Malaya" definition = battleship equipment = { BB_equipment_1912 = { amount = 1 owner = ENG } } }
            ship = { name = "HMS Glorious" definition = carrier equipment = { CV_equipment_1922 = { amount = 1 owner = ENG } } air_wings = {} }
            ship = { name = "HMS Eagle" definition = escort_carrier equipment = { CV_equipment_1916 = { amount = 1 owner = ENG } } air_wings = {} }
            ship = { name = "HMS London" definition = heavy_cruiser equipment = { CA_equipment_1922 = { amount = 1 owner = ENG } } }
            ship = { name = "HMS Shropshire" definition = heavy_cruiser equipment = { CA_equipment_1922 = { amount = 1 owner = ENG } } }
            ship = { name = "HMS Sussex" definition = heavy_cruiser equipment = { CA_equipment_1922 = { amount = 1 owner = ENG } } }
            ship = { name = "HMS Dunedin" definition = light_cruiser equipment = { CL_equipment_1912 = { amount = 1 owner = ENG } } }
            ship = { name = "HMS Coventry" definition = light_cruiser equipment = { CL_equipment_1912 = { amount = 1 owner = ENG } } }
            ship = { name = "HMS Delhi" definition = light_cruiser equipment = { CL_equipment_1912 = { amount = 1 owner = ENG } } }
            ship = { name = "Destroyer Division 1" definition = destroyer equipment = { DD_equipment_1916 = { amount = 1 owner = ENG } } }
            ship = { name = "Destroyer Division 2" definition = destroyer equipment = { DD_equipment_1916 = { amount = 1 owner = ENG } } }
            ship = { name = "Destroyer Division 3" definition = destroyer equipment = { DD_equipment_1916 = { amount = 1 owner = ENG } } }
            ship = { name = "Destroyer Division 5" definition = destroyer equipment = { DD_equipment_1916 = { amount = 1 owner = ENG } } }
            ship = { name = "Destroyer Division 6" definition = destroyer equipment = { DD_equipment_1916 = { amount = 1 owner = ENG } } }
            ship = { name = "Destroyer Division 7" definition = destroyer equipment = { DD_equipment_1916 = { amount = 1 owner = ENG } } }
            ship = { name = "Destroyer Division 8" definition = destroyer equipment = { DD_equipment_1916 = { amount = 1 owner = ENG } } }
            ship = { name = "I/1st Submarine Flotilla" definition = submarine equipment = { SS_equipment_1922 = { amount = 1 owner = ENG } } }
            ship = { name = "II/1st Submarine Flotilla" definition = submarine equipment = { SS_equipment_1916 = { amount = 1 owner = ENG } } }
        }        
    }
    
    fleet = {
        name = "South Atlantic Division"
        naval_base = 2038 # Freetown
        task_force = {
            name = "South Atlantic Division"
            location = 2038 # Freetown
            ship = { name = "HMS Despatch" definition = light_cruiser equipment = { CL_equipment_1912 = { amount = 1 owner = ENG } } }
            ship = { name = "HMS Durban" definition = light_cruiser equipment = { CL_equipment_1912 = { amount = 1 owner = ENG } } }
            ship = { name = "HMS Dauntless" definition = light_cruiser equipment = { CL_equipment_1912 = { amount = 1 owner = ENG } } }
            ship = { name = "Destroyer Division 4" definition = destroyer equipment = { DD_equipment_1916 = { amount = 1 owner = ENG } } }
        }  
    }

    fleet = {
        name = "America & West Indies Station"
        naval_base = 13010 # Bermuda
        task_force = {
            name = "America & West Indies Station"
            location = 13010 # Bermuda
            ship = { name = "HMS Norfolk" definition = heavy_cruiser equipment = { CA_equipment_1922 = { amount = 1 owner = ENG } } }
            ship = { name = "HMS York" definition = heavy_cruiser equipment = { CA_equipment_1922 = { amount = 1 owner = ENG } } }
            ship = { name = "HMS Danae" definition = light_cruiser equipment = { CL_equipment_1912 = { amount = 1 owner = ENG } } }
        }
    }

    fleet = {
        name = "Africa Station"
        naval_base = 12589 # Cape Town
        task_force = {
            name = "Africa Station"
            location = 12589 # Cape Town
            ship = { name = "HMS Dorsetshire" definition = heavy_cruiser equipment = { CA_equipment_1922 = { amount = 1 owner = ENG } } }
            ship = { name = "HMS Carlisle" definition = light_cruiser equipment = { CL_equipment_1912 = { amount = 1 owner = ENG } } }
            ship = { name = "HMS Cardiff" definition = light_cruiser equipment = { CL_equipment_1912 = { amount = 1 owner = ENG } } }
        }   
    }

    fleet = {
        name = "East Indies Station"
        naval_base = 7260 # Colombo
        task_force = {
            name = "East Indies Station"
            location = 7260 # Colombo
            ship = { name = "HMS Hawkins" definition = heavy_cruiser equipment = { CA_equipment_1922 = { amount = 1 owner = ENG } } }
            ship = { name = "HMS Emerald" definition = light_cruiser equipment = { CL_equipment_1922 = { amount = 1 owner = ENG } } }
            ship = { name = "HMS Enterprise" definition = light_cruiser equipment = { CL_equipment_1922 = { amount = 1 owner = ENG } } }
            ship = { name = "HMS Capetown" definition = light_cruiser equipment = { CL_equipment_1912 = { amount = 1 owner = ENG } } }
            ship = { name = "HMS Colombo" definition = light_cruiser equipment = { CL_equipment_1912 = { amount = 1 owner = ENG } } } 
        }
    }

    fleet = {
        name = "China Station"
        naval_base = 12299 # Singapore
        task_force = {
            name = "China Station"
            location = 12299 # Singapore
            ship = { name = "HMS Hermes" definition = escort_carrier equipment = { CV_equipment_1916 = { amount = 1 owner = ENG } } air_wings = {} }
            ship = { name = "HMS Devonshire" definition = heavy_cruiser equipment = { CA_equipment_1922 = { amount = 1 owner = ENG } } }
            ship = { name = "HMS Berwick" definition = heavy_cruiser equipment = { CA_equipment_1922 = { amount = 1 owner = ENG } } }
            ship = { name = "HMS Cornwall" definition = heavy_cruiser equipment = { CA_equipment_1922 = { amount = 1 owner = ENG } } }
            ship = { name = "HMS Cumberland" definition = heavy_cruiser equipment = { CA_equipment_1922 = {amount = 1 owner = ENG } } }
            ship = { name = "HMS Suffolk" definition = heavy_cruiser equipment = { CA_equipment_1922 = { amount = 1 owner = ENG } } }
            ship = { name = "HMS Kent" definition = heavy_cruiser equipment = { CA_equipment_1922 = { amount = 1 owner = ENG } } }
            ship = { name = "HMS Cavendish" definition = heavy_cruiser equipment = { CA_equipment_1906 = { amount = 1 owner = ENG } } }
            ship = { name = "Destroyer Division 41" definition = destroyer equipment = { DD_equipment_1922 = { amount = 1 owner = ENG } } }
            ship = { name = "Destroyer Division 42" definition = destroyer equipment = { DD_equipment_1922 = { amount = 1 owner = ENG } } }
            ship = { name = "I/4th Submarine Flotilla" definition = submarine equipment = { SS_equipment_1922 = { amount = 1 owner = ENG } } }
            ship = { name = "II/4th Submarine Flotilla" definition = submarine equipment = { SS_equipment_1922 = { amount = 1 owner = ENG } } }
            ship = { name = "III/4th Submarine Flotilla" definition = submarine equipment = { SS_equipment_1922 = { amount = 1 owner = ENG } } } 
        }  
    }

    fleet = {
        name = "Reserve Fleet"
        naval_base = 6489 # Portsmouth
        task_force = {
            name = "Reserve Fleet"
            location = 6489 # Portsmouth
            ship = { name = "HMS Effingham" definition = heavy_cruiser equipment = { CA_equipment_1922 = { amount = 1 owner = ENG } } }
            ship = { name = "HMS Frobisher" definition = heavy_cruiser equipment = { CA_equipment_1922 = { amount = 1 owner = ENG } } }
            ship = { name = "HMS Erebus" definition = heavy_cruiser equipment = { CA_equipment_1906 = { amount = 1 owner = ENG } } }
            ship = { name = "HMS Terror" definition = heavy_cruiser equipment = { CA_equipment_1906 = { amount = 1 owner = ENG } } }
            ship = { name = "HMS Ceres" definition = light_cruiser equipment = { CL_equipment_1912 = { amount = 1 owner = ENG } } }
            ship = { name = "HMS Curlew" definition = light_cruiser equipment = { CL_equipment_1912 = { amount = 1 owner = ENG } } }
            ship = { name = "HMS Centaur" definition = light_cruiser equipment = { CL_equipment_1912 = { amount = 1 owner = ENG } } }
            ship = { name = "HMS Concord" definition = light_cruiser equipment = { CL_equipment_1912 = { amount = 1 owner = ENG } } }
            ship = { name = "HMS Cambrian" definition = light_cruiser equipment = { CL_equipment_1912 = { amount = 1 owner = ENG } } }
            ship = { name = "HMS Canterbury" definition = light_cruiser equipment = { CL_equipment_1912 = { amount = 1 owner = ENG } } }
            ship = { name = "HMS Castor" definition = light_cruiser equipment = { CL_equipment_1912 = { amount = 1 owner = ENG } } }
            ship = { name = "HMS Constance" definition = light_cruiser equipment = { CL_equipment_1912 = { amount = 1 owner = ENG } } }
            ship = { name = "HMS Champion" definition = light_cruiser equipment = { CL_equipment_1912 = { amount = 1 owner = ENG } } }
            ship = { name = "HMS Comus" definition = light_cruiser equipment = { CL_equipment_1912 = { amount = 1 owner = ENG } } }
            ship = { name = "Destroyer Division 9" definition = destroyer equipment = { DD_equipment_1912 = { amount = 1 owner = ENG } } }
            ship = { name = "Destroyer Division 10" definition = destroyer equipment = { DD_equipment_1912 = { amount = 1 owner = ENG } } }
        }
    }  
}

air_wings = {
    127 = {
        # Wessex Bombing Area
        Tactical_Bomber_equipment_1933 = { # Boulton Paul Sidestrand
            owner = "ENG"
            amount = 126
        }
        # Coastal Area
        Naval_Bomber_equipment_1936 = { # Supermarine Southampton
            owner = "ENG"
            amount = 106
        }
        # Air Defence Group
        Fighter_Bomber_equipment_1933 = { # Armstrong Whitworth Sisskin
            owner = "ENG"
            amount = 173
        }
        # Fighting Area
        Fighter_equipment_1933 = { # Bristol Bulldog
            owner = "ENG"
            amount = 248
        }
    }
}
   
### Starting Production ###
instant_effect = {
    add_equipment_production = {
        equipment = {
            type = Small_Arms_equipment_1900
            creator = "ENG"
        }
        requested_factories = 3
        progress = 0.1
        efficiency = 50
    }

    add_equipment_production = {
        equipment = {
            type = support_equipment_1
            creator = "ENG"
        }
        requested_factories = 1
        progress = 0.3
        efficiency = 50
    }

    add_equipment_production = {
        equipment = {
            type = artillery_equipment_1
            creator = "ENG"
        }
        requested_factories = 1
        progress = 0.28
        efficiency = 50
    }

    add_equipment_production = {
        equipment = {
            type = Anti_Aircraft_Gun_equipment_1935
            creator = "ENG"
        }
        requested_factories = 2
        progress = 0.24
        efficiency = 50
    }

    add_equipment_production = {
        equipment = {
            type = truck_equipment_1936
            creator = "ENG"
        }
        requested_factories = 2
        progress = 0.1
        efficiency = 50
    }

    add_equipment_production = {
        equipment = {
            type = Light_Tank_equipment_1934
            creator = "ENG"
        }
        requested_factories = 2
        progress = 0.4
        efficiency = 50
    }

    add_equipment_production = {
        equipment = {
            type = Fighter_equipment_1933
            creator = "ENG"
        }
        requested_factories = 2
        progress = 0.15
        efficiency = 50
    }

    add_equipment_production = {
        equipment = {
            type = Tactical_Bomber_equipment_1933
            creator = "ENG"
        }
        requested_factories = 1
        progress = 0.12
        efficiency = 50
    }

    add_equipment_production = {
		equipment = {
			type = DD_equipment_1912
			creator = "ENG" 
		}
		requested_factories = 3
		progress = 0.33
		amount = 3
	}
    
    add_equipment_production = {
		equipment = {
			type = DD_equipment_1912
			creator = "ENG" 
		}
		requested_factories = 3
		progress = 0.33
		amount = 3
	}
    
    add_equipment_production = {
		equipment = {
			type = DD_equipment_1912
			creator = "ENG" 
		}
		requested_factories = 3
		progress = 0.33
		amount = 3
    }
    
    add_equipment_production = {
		equipment = {
			type = SS_equipment_1912
			creator = "ENG" 
		}
		requested_factories = 2
		progress = 0.50
		amount = 3
    }
    
    add_equipment_production = {
		equipment = {
			type = CL_equipment_1900
			creator = "ENG" 
		}
		requested_factories = 1
		progress = 0.95
		amount = 1
	}
    
    add_equipment_production = {
		equipment = {
			type = CL_equipment_1900
			creator = "ENG" 
		}
		requested_factories = 1
		progress = 0.50
		amount = 1
	}
    
    add_equipment_production = {
		equipment = {
			type = CL_equipment_1900
			creator = "ENG" 
		}
		requested_factories = 1
		progress = 0.15
		amount = 1
	}
	
}
    