﻿division_template = {
	name = "División de Infantería"			# Infantry Division
	division_names_group = SPAN_INF_01

	regiments = {
		infantry = { x = 0 y = 0 }
		infantry = { x = 0 y = 1 }
		infantry = { x = 0 y = 2 }
		infantry = { x = 1 y = 0 }
		infantry = { x = 1 y = 1 }
		infantry = { x = 1 y = 2 }
		infantry = { x = 2 y = 0 }
		infantry = { x = 2 y = 1 }
		infantry = { x = 2 y = 2 }
	}
}

division_template = {
	name = "Brigada Agrarista"
	division_names_group = MEX_INF_02
	is_locked = yes

	regiments = {
		militia = { x = 0 y = 0 }
		militia = { x = 0 y = 1 }
		militia = { x = 0 y = 2 }
	}
	priority = 0
}

division_template = {
	name = "División de Caballería"       	# Cavalry Division
	division_names_group = SPAN_CAV_01

	regiments = {
		cavalry = { x = 0 y = 0 }
		cavalry = { x = 0 y = 1 }
		cavalry = { x = 0 y = 2 }
		cavalry = { x = 1 y = 0 }
		cavalry = { x = 1 y = 1 }
		cavalry = { x = 1 y = 2 }
	}
}

units = {
	##### Ejercito de Mexico #####
	division = {
		name = "Estado Mayor Presidencial"
		location = 1965 # Mexico City 
		division_template = "División de Infantería"
		start_experience_factor = 0.26
		start_equipment_factor = 0.5
	}

	division = { # I División de Infantería
		division_name = {
			is_name_ordered = yes
			name_order = 1
		}
		location = 1965 # Mexico City
		division_template = "División de Infantería"
		start_experience_factor = 0.14
		start_equipment_factor = 0.5 
	}

	division = { # II División de Infantería
		division_name = {
			is_name_ordered = yes
			name_order = 2
		}
		location = 1892 # Baja
		division_template = "División de Infantería"
		start_experience_factor = 0.14
		start_equipment_factor = 0.5 
	}

	division = { # III División de Infantería
		division_name = {
			is_name_ordered = yes
			name_order = 3
		}
		location = 13089 # Guadalajara
		division_template = "División de Infantería"
		start_experience_factor = 0.14
		start_equipment_factor = 0.5 
	}
	##### Caballería de Mexico #####
	division = { # I División de Caballería
		division_name = {
			is_name_ordered = yes
			name_order = 1
		}
		location = 12835 # Saltillo (Monterrey)
		division_template = "División de Caballería"
		start_experience_factor = 0.18
		start_equipment_factor = 0.5
	}

	division = { # II División de Caballería
		division_name = {
			is_name_ordered = yes
			name_order = 2
		}
		location = 4904 # Compeche
		division_template = "División de Caballería"
		start_experience_factor = 0.18
		start_equipment_factor = 0.5
	}

	division = {
		division_name = {
			is_name_ordered = yes
			name_order = 1
		}
		location = 1965 # Mexico City
		division_template = "Brigada Agrarista"
		start_experience_factor = 0.1
		start_equipment_factor = 0.6
	}

	division = {
		division_name = {
			is_name_ordered = yes
			name_order = 2
		}
		location = 7913
		division_template = "Brigada Agrarista"
		start_experience_factor = 0.1
		start_equipment_factor = 0.6
	}

	division = {
		division_name = {
			is_name_ordered = yes
			name_order = 3
		}
		location = 12810 # Veracruz
		division_template = "Brigada Agrarista"
		start_experience_factor = 0.1
		start_equipment_factor = 0.6
	}

	division = {
		division_name = {
			is_name_ordered = yes
			name_order = 4
		}
		location = 1900
		division_template = "Brigada Agrarista"
		start_experience_factor = 0.1
		start_equipment_factor = 0.6
	}

	division = {
		division_name = {
			is_name_ordered = yes
			name_order = 5
		}
		location = 2021
		division_template = "Brigada Agrarista"
		start_experience_factor = 0.1
		start_equipment_factor = 0.6
	}

	division = {
		division_name = {
			is_name_ordered = yes
			name_order = 6
		}
		location = 10889
		division_template = "Brigada Agrarista"
		start_experience_factor = 0.1
		start_equipment_factor = 0.6
	}

	division = {
		division_name = {
			is_name_ordered = yes
			name_order = 7
		}
		location = 12715
		division_template = "Brigada Agrarista"
		start_experience_factor = 0.1
		start_equipment_factor = 0.6
	}

	division = {
		division_name = {
			is_name_ordered = yes
			name_order = 8
		}
		location = 8032
		division_template = "Brigada Agrarista"
		start_experience_factor = 0.1
		start_equipment_factor = 0.6
	}

	division = {
		division_name = {
			is_name_ordered = yes
			name_order = 9
		}
		location = 12461
		division_template = "Brigada Agrarista"
		start_experience_factor = 0.1
		start_equipment_factor = 0.6
	}

	division = {
		division_name = {
			is_name_ordered = yes
			name_order = 10
		}
		location = 10765
		division_template = "Brigada Agrarista"
		start_experience_factor = 0.1
		start_equipment_factor = 0.6
	}

	division = {
		division_name = {
			is_name_ordered = yes
			name_order = 11
		}
		location = 4908
		division_template = "Brigada Agrarista"
		start_experience_factor = 0.1
		start_equipment_factor = 0.6
	}

	division = {
		division_name = {
			is_name_ordered = yes
			name_order = 12
		}
		location = 4977
		division_template = "Brigada Agrarista"
		start_experience_factor = 0.1
		start_equipment_factor = 0.6
	}

	division = {
		division_name = {
			is_name_ordered = yes
			name_order = 13
		}
		location = 10730
		division_template = "Brigada Agrarista"
		start_experience_factor = 0.1
		start_equipment_factor = 0.6
	}

	division = {
		division_name = {
			is_name_ordered = yes
			name_order = 14
		}
		location = 2051
		division_template = "Brigada Agrarista"
		start_experience_factor = 0.1
		start_equipment_factor = 0.6
	}

	division = {
		division_name = {
			is_name_ordered = yes
			name_order = 15
		}
		location = 5015
		division_template = "Brigada Agrarista"
		start_experience_factor = 0.1
		start_equipment_factor = 0.6
	}

	##### Naval OOB #####
	fleet = {
		name = "Armada de la Republica Mexicana"
		naval_base = 4965 # Yucatan
		task_force = {				
			name = "Armada de la Republica Mexicana"
			location = 4965 # Yucatan
			ship = { name = "ARM Anahuac" definition = heavy_cruiser equipment = { CA_equipment_1906 = { amount = 1 owner = MEX } } }
		}
	}				
}


air_wings = {
	### Fuerza Aérea Mexicana -- Mexico City
	277 = {
		# 1a Grupo Aéreo de Caza
		Fighter_equipment_1933 = { # Ansaldo A.1 Balilla
			owner = "MEX"
			amount = 35
		}
	}
}
### Starting Production ###
instant_effect = {
	add_equipment_production = {
		equipment = {
			type = Small_Arms_equipment_1936
			creator = "MEX"
		}
		requested_factories = 2
		progress = 0.28
		efficiency = 100
	}

	add_equipment_production = {
		equipment = {
			type = artillery_equipment_1
			creator = "MEX"
		}
		requested_factories = 2
		progress = 0.22
		efficiency = 100
	}
}