﻿division_template = {
	name = "Policía Nacional"		# Only had a national police force since 1904
	regiments = {
		militia = { x = 0 y = 0 }
		militia = { x = 0 y = 1 }
		militia = { x = 1 y = 0 }
		militia = { x = 1 y = 1 }
	}
}

units = {
    ##### Policia Nacional #####
    division = {
        name = "Policía Nacional"
        location = 7630 # Ciudad de Panama
        division_template = "Policía Nacional"
        start_experience_factor = 0.12 #During the latter half of the 1930s, Panamanian officers started to attend foreign military academies.
        start_equipment_factor = 0.2
    }
}
### Starting Production ###
instant_effect = {
	add_equipment_production = {
		equipment = {
			type = Small_Arms_equipment_1900
			creator = "PAN"
		}
		requested_factories = 1
		progress = 0.46
		efficiency = 100
	}
}