﻿##### Division Templates #####
division_template = {
	name = "Strelkovaya Diviziya"			# Rifle Division
	division_names_group = SOV_INF_01

	regiments = {
		infantry = { x = 0 y = 0 } 
		infantry = { x = 0 y = 1 }
		infantry = { x = 0 y = 2 }
		infantry = { x = 1 y = 0 }
		infantry = { x = 1 y = 1 }
		infantry = { x = 1 y = 2 }
		infantry = { x = 2 y = 0 }
		infantry = { x = 2 y = 1 }
		infantry = { x = 2 y = 2 }
	}
	support = {
		recon = { x = 0 y = 0 } 		
		engineer = { x = 0 y = 1 } 		
		artillery = { x = 0 y = 2 } 		# Heavy Arty Regiment had 1x 152mm bn + 2x 122mm bn
	}
}
division_template = {
	name = "Gornostrelkovaya Diviziya"		# Mountain Rifle Division
	division_names_group = SOV_MTN_01

	regiments = {
		mountaineers = { x = 0 y = 0 }	
		mountaineers = { x = 0 y = 1 }
		mountaineers = { x = 0 y = 2 }	
		mountaineers = { x = 1 y = 0 }
		mountaineers = { x = 1 y = 1 }
		mountaineers = { x = 1 y = 2 }
		mountaineers = { x = 2 y = 0 }	
		mountaineers = { x = 2 y = 1 }	
		mountaineers = { x = 2 y = 2 }	
		mountaineers = { x = 3 y = 0 }	
		mountaineers = { x = 3 y = 1 }	
		mountaineers = { x = 3 y = 2 }	
	}
	support = {
		engineer = { x = 0 y = 0 } 
		artillery = { x = 0 y = 1 } 		# Heavy Arty Regiment had 2x 122mm bn
	}
}
division_template = {
	name = "Motostrelkovaya Diviziya"		# Motor Rifle Division
	division_names_group = SOV_MOT_01

	regiments = {
		medium_armor = { x = 0 y = 0 }		# BT-7 tanks
		medium_armor = { x = 0 y = 1 }
		medium_armor = { x = 0 y = 2 }
		motorized = { x = 1 y = 0 }
		motorized = { x = 1 y = 1 }
		motorized = { x = 1 y = 2 }
		motorized = { x = 2 y = 0 }
		motorized = { x = 2 y = 1 }
		motorized = { x = 2 y = 2 }
	}
	support = {
		recon = { x = 0 y = 0 } 		
		engineer = { x = 0 y = 1 } 		
	}
}
division_template = {
	name = "Kavaleriyskaya Diviziya" 			# Cavalry Division
	division_names_group = SOV_CAV_01

	regiments = {
		cavalry = { x = 0 y = 0 }
		cavalry = { x = 0 y = 1 }
		cavalry = { x = 1 y = 0 }
		cavalry = { x = 1 y = 1 }
	}
	support = {
		recon = { x = 0 y = 0 } 				# Recon bn had 16x L tanks, 45 ACs
	}
}
division_template = {
	name = "NKVD Pogranichnaya Diviziya"		# NKVD Border Guard Division
	division_names_group = SOV_GAR_01
												# Note: garrison units (all have oldest equipment, low experience)
	regiments = {
		garrison = { x = 0 y = 0 }
		garrison = { x = 0 y = 1 }
		garrison = { x = 0 y = 2 }
		garrison = { x = 1 y = 0 }
		garrison = { x = 1 y = 1 }
		garrison = { x = 1 y = 2 }
	}
	support = 	{
		military_police = { x = 0 y = 0 }
	}
	priority = 0
}
division_template = {
	name = "Vozdushno-Desantnaya"				# Represents a pair of independent airborne brigades
	division_names_group = SOV_PAR_01
	regiments = {
		paratrooper = { x = 0 y = 0 }
		paratrooper = { x = 0 y = 1 }
		paratrooper = { x = 0 y = 2 }
		paratrooper = { x = 1 y = 0 }
		paratrooper = { x = 1 y = 1 }
		paratrooper = { x = 1 y = 2 }
	}
}
division_template = {
	name = "Tankovaya Korpus" 					# Note: Represents regular tank corps (formerly mechanized corps; 4 existed in 1938-40) 
	division_names_group = SOV_ARM_02
	regiments = {
		medium_armor = { x = 0 y = 0 }		# BT-7 tanks
		medium_armor = { x = 0 y = 1 }
		medium_armor = { x = 0 y = 2 }	
		medium_armor = { x = 1 y = 0 }		# BT-7 tanks	 Light tanks
		medium_armor = { x = 1 y = 1 }		
		medium_armor = { x = 1 y = 2 }			
		motorized = { x = 2 y = 0 }		
		motorized = { x = 2 y = 1 }		
		motorized = { x = 3 y = 0 }		
		motorized = { x = 3 y = 1 }
	}
	support = {
		recon = { x = 0 y = 0 } 		
		engineer = { x = 0 y = 1 } 		
	}
}
division_template = {
	name = "Legko-Tankovaya Brigada" 				# Light Tank Brigades - Represents a pair of independent tank brigades (2 regular (light) brigades) 
	division_names_group = SOV_ARM_04
	regiments = {
		medium_armor = { x = 0 y = 0 }		# T-26 or BT-5/7 tanks
		medium_armor = { x = 0 y = 1 }
		medium_armor = { x = 0 y = 2 }	
		medium_armor = { x = 1 y = 0 }		# T-26 or BT-5/7 tanks		
		medium_armor = { x = 1 y = 1 }		
		medium_armor = { x = 1 y = 2 }		
		motorized = { x = 2 y = 0 }		
		motorized = { x = 2 y = 1 }	
	}
	support = {
		engineer = { x = 0 y = 0 } 		
	}
}
division_template = {
	name = "Tankovaya Brigada" 				# Tank Brigade - Represents a pair of independent tank brigades (1 heavy (medium) + 1 regular (light) brigades) 
	division_names_group = SOV_ARM_04
	regiments = {
		medium_armor = { x = 0 y = 0 }		# T-28 (medium) infantry tanks
		medium_armor = { x = 0 y = 1 }
		medium_armor = { x = 0 y = 2 }		# T-26 or BT-5/7 tanks		
		medium_armor = { x = 1 y = 0 }		# T-26 or BT-5/7 tanks		
		medium_armor = { x = 1 y = 1 }		
		medium_armor = { x = 1 y = 2 }		
		motorized = { x = 2 y = 0 }	
		motorized = { x = 2 y = 1 }
	}
	support = {
		engineer = { x = 0 y = 0 } 		
	}
}
division_template = {
	name = "Tyazolaya-Tankovaya Brigada" 	# Heavy Tank Brigades - Represents a pair of independent tank brigades (1 heavy (truly heavy) + 1 regular (light) brigades) 
	division_names_group = SOV_ARM_04
	regiments = {
		heavy_armor = { x = 0 y = 0 }		# T-35 heavy tanks
		heavy_armor = { x = 0 y = 1 }
		medium_armor = { x = 0 y = 2 }		# T-26 or BT-5/7 tanks			
		medium_armor = { x = 1 y = 0 }		# T-26 or BT-5/7 tanks		
		medium_armor = { x = 1 y = 1 }		
		medium_armor = { x = 1 y = 2 }		
		motorized = { x = 2 y = 0 }		
		motorized = { x = 2 y = 1 }	
	}
	support = {
		engineer = { x = 0 y = 0 } 		
	}
}

### Note: OOB abstracts away the following:
#	Marine Brigade (3x marine bn, engineers), 2 Brigades: Leningrad, Sevastopol

##### OOB #####
units = {
	################FINLAND AREA################(my notes to help you other devs :)
	##Leningradskyi Voennyi Okrug## (Leningrad Boys)
	division= {	# "177ya Strelkovaya Diviziya"		
		division_name = {
			is_name_ordered = yes
			name_order = 177 
		}
		location = 3151 #Leningrad
		division_template = "Strelkovaya Diviziya"
		start_experience_factor = 0.3
		start_equipment_factor = 0.6
		
	}	
	division= {	# "191ya Strelkovaya Diviziya"		
		division_name = {
			is_name_ordered = yes
			name_order = 191
		}
		location = 3151 #Leningrad
		division_template = "Strelkovaya Diviziya"
		start_experience_factor = 0.3
		start_equipment_factor = 0.6
		
	}	
	division= {	# "8ya Minskaya Strelkovaya Diviziya"		
		division_name = {
			is_name_ordered = yes
			name_order = 8
		}
		location = 3151 #Leningrad
		division_template = "Strelkovaya Diviziya"
		start_experience_factor = 0.3
		start_equipment_factor = 0.8
		
	}	

	##23-ya Armiya##

	division= {	# "142ya Strelkovaya Diviziya"		
		division_name = {
			is_name_ordered = yes
			name_order = 142
		}
		location = 11162 #Viipuri
		division_template = "Strelkovaya Diviziya"
		start_experience_factor = 0.3
		start_equipment_factor = 0.7
		
	}	
	division= {	# "115ya Strelkovaya Diviziya"		
		division_name = {
			is_name_ordered = yes
			name_order = 115
		}
		location = 9206 #Viipuri
		division_template = "Strelkovaya Diviziya"
		start_experience_factor = 0.3
		start_equipment_factor = 0.6
		
	}	
	division= {	# "1-i Mekhanizirovannyi Korpus"		
		name = "1-i Mekhanizirovannyi Korpus"
		location = 9206 #Viipuri
		division_template = "Tyazolaya-Tankovaya Brigada" #Heavy tanks
		start_experience_factor = 0.3
		
	}	
	
	##7-ya Armiya##

	division= {	# "54ya Strelkovaya Diviziya"		
		division_name = {
			is_name_ordered = yes
			name_order = 54
		}
		location = 3187 #Sortavala
		division_template = "Strelkovaya Diviziya"
		start_experience_factor = 0.3
		start_equipment_factor = 0.5
		
	}	

	division= {	# "71ya Strelkovaya Diviziya"		
		division_name = {
			is_name_ordered = yes
			name_order = 71
		}
		location = 3187 #Sortavala
		division_template = "Strelkovaya Diviziya"
		start_experience_factor = 0.3
		start_equipment_factor = 0.5
		
	}	

	division= {	# "168ya Strelkovaya Diviziya"		
		division_name = {
			is_name_ordered = yes
			name_order = 168
		}
		location = 11156 #Sortavala
		division_template = "Strelkovaya Diviziya"
		start_experience_factor = 0.3
		start_equipment_factor = 0.5
		
	}	
	division= {	# "237ya Strelkovaya Diviziya"		
		division_name = {
			is_name_ordered = yes
			name_order = 237
		}
		location = 11156 #Sortavala
		division_template = "Strelkovaya Diviziya"
		start_experience_factor = 0.3
		start_equipment_factor = 0.5
		
	}

	##14-ya Armiya##

	division= {	# "14ya Krivorozhskaya Strelkovaya Diviziya"		
		division_name = {
			is_name_ordered = yes
			name_order = 14
		}
		location = 74 #Murmansk
		division_template = "Strelkovaya Diviziya"
		start_experience_factor = 0.3
		start_equipment_factor = 0.6
		
	}
	division= {	# "52ya Strelkovaya Diviziya"		
		division_name = {
			is_name_ordered = yes
			name_order = 52
		}
		location = 9203 #Murmansk
		division_template = "Strelkovaya Diviziya"
		start_experience_factor = 0.3
		start_equipment_factor = 0.6
		
	}
	
	##42-i Strelkovyi Korpus##

	division= {	# "122ya Strelkovaya Diviziya"		
		division_name = {
			is_name_ordered = yes
			name_order = 122
		}
		location = 197 #Salla
		division_template = "Strelkovaya Diviziya"
		start_experience_factor = 0.3
		start_equipment_factor = 0.5
		
	}

	division= {	# "104ya Strelkovaya Diviziya"		
		division_name = {
			is_name_ordered = yes
			name_order = 104
		}
		location = 9158 #Salla
		division_template = "Strelkovaya Diviziya"
		start_experience_factor = 0.3
		start_equipment_factor = 0.5
		
	}

	##50-i Strelkovyi Korpus##

	division= {	# "43ya Strelkovaya Diviziya"		
		division_name = {
			is_name_ordered = yes
			name_order = 43
		}
		location = 9206 #Viipuri
		division_template = "Strelkovaya Diviziya"
		start_experience_factor = 0.3
		start_equipment_factor = 0.5
		
	}
	division= {	# "70ya Strelkovaya Diviziya"		
		division_name = {
			is_name_ordered = yes
			name_order = 70
		}
		location = 6150 #Viipuri
		division_template = "Strelkovaya Diviziya"
		start_experience_factor = 0.3
		start_equipment_factor = 0.5
		
	}
	division= {	# "123ya Strelkovaya Diviziya"		
		division_name = {
			is_name_ordered = yes
			name_order = 123
		}
		location = 3050 #Viipuri
		division_template = "Strelkovaya Diviziya"
		start_experience_factor = 0.3
		start_equipment_factor = 0.6
		
	}
	division= {	# "10-i Mekhanizirovannyi Korpus"		
		name = "10-i Mekhanizirovannyi Korpus"	
		location = 3050 #Viipuri
		division_template = "Tankovaya Korpus"
		force_equipment_variants = { Light_Tank_1936 = { owner = SOV } }
		start_experience_factor = 0.4
		
	}

	##############WESTERN FRONT##################

	##8-ya Armiya##

	division= {	# "10ya Strelkovaya Diviziya"		
		division_name = {
			is_name_ordered = yes
			name_order = 10
		}
		location = 341 #Opochka
		division_template = "Strelkovaya Diviziya"
		start_experience_factor = 0.4
		start_equipment_factor = 0.6
		
	}
	division= {	# "48ya Strelkovaya Diviziya"		
		division_name = {
			is_name_ordered = yes
			name_order = 48
		}
		location = 3310 #Opochka
		division_template = "Strelkovaya Diviziya"
		start_experience_factor = 0.4
		start_equipment_factor = 0.6
		
	}
	division= {	# "90ya Strelkovaya Diviziya"		
		division_name = {
			is_name_ordered = yes
			name_order = 90
		}
		location = 3333 #Opochka
		division_template = "Strelkovaya Diviziya"
		start_experience_factor = 0.3
		start_equipment_factor = 0.6
		
	}

	##10-i Strelkovyi Korpus##

	division= {	# "125ya Strelkovaya Diviziya"		
		division_name = {
			is_name_ordered = yes
			name_order = 125
		}
		location = 3219 #Polotska
		division_template = "Strelkovaya Diviziya"
		start_experience_factor = 0.3
		start_equipment_factor = 0.5
		
	}
	division= {	# "11ya Strelkovaya Diviziya"		
		division_name = {
			is_name_ordered = yes
			name_order = 11
		}
		location = 358 #Polotska
		division_template = "Strelkovaya Diviziya"
		start_experience_factor = 0.3
		start_equipment_factor = 0.6
		
	}
	division= {	# "12-i Mekhanizirovannyi Korpus"		
		name = "12-i Mekhanizirovannyi Korpus"	
		location = 11259 #Polotska
		division_template = "Tankovaya Korpus"
		force_equipment_variants = { Light_Tank_1936 = { owner = SOV } }
		start_experience_factor = 0.4
		start_equipment_factor = 0.6
		
	}

	##11-ya Armiya##

	division= {	# 5-ya Vitebskaya Strelkovaya Diviziya		
		name = "5-ya Vitebskaya Strelkovaya Diviziya"
		location = 6413 #Vilejka
		division_template = "Strelkovaya Diviziya"
		start_experience_factor = 0.3
		start_equipment_factor = 0.6
		
	}
	
	division= {	# 33-ya Belorusskaya Strelkovaya Diviziya		
		name = "33-ya Belorusskaya Strelkovaya Diviziya"
		location = 6340 #Vilejka
		division_template = "Strelkovaya Diviziya"
		start_experience_factor = 0.3
		start_equipment_factor = 0.7
		
	}
	division= {	# "188ya Strelkovaya Diviziya"		
		division_name = {
			is_name_ordered = yes
			name_order = 188
		}
		location = 11391 #Vilejka
		division_template = "Strelkovaya Diviziya"
		force_equipment_variants = { Small_Arms_1935 = { owner = SOV } }
		start_experience_factor = 0.3
		start_equipment_factor = 0.8
		
	}

	division= {	# "126ya Strelkovaya Diviziya"		
		division_name = {
			is_name_ordered = yes
			name_order = 126
		}
		location = 3320 #Wilno (Glebokie)
		division_template = "Strelkovaya Diviziya"
		start_experience_factor = 0.3
		start_equipment_factor = 0.5
		
	}
	division= {	# "128ya Strelkovaya Diviziya"		
		division_name = {
			is_name_ordered = yes
			name_order = 128
		}
		location = 11342 #Glebokie
		division_template = "Strelkovaya Diviziya"
		start_experience_factor = 0.3
		start_equipment_factor = 0.6
		
	}
	division= {	# "	23-ya Har'kovskaya Strelkovaya Diviziya"		
		name = "23-ya Har'kovskaya Strelkovaya Diviziya"
		location = 11226 #Glebokie
		division_template = "Strelkovaya Diviziya"
		start_experience_factor = 0.3
		start_equipment_factor = 0.6
		
	}

	##29-i Strelkovyi Korpus##

	division= {	# "179ya Strelkovaya Diviziya"		
		division_name = {
			is_name_ordered = yes
			name_order = 179
		}
		location = 11202 #Pskov
		division_template = "Strelkovaya Diviziya"
		start_experience_factor = 0.3
		start_equipment_factor = 0.6
		
	}
	division= {	# "184ya Strelkovaya Diviziya"		
		division_name = {
			is_name_ordered = yes
			name_order = 184
		}
		location = 415 #Pskov
		division_template = "Strelkovaya Diviziya"
		start_experience_factor = 0.3
		start_equipment_factor = 0.6
		
	}
	division= {	# "3-i Mekhanizirovannyi Korpus"		
		name = "3-i Mekhanizirovannyi Korpus"	
		location = 11202 #Pskov
		division_template = "Tyazolaya-Tankovaya Brigada" #Medium Tanks
		start_experience_factor = 0.4
		start_equipment_factor = 0.4
		
	}

	##27-ya Armiya##

	division= {	# "180ya Strelkovaya Diviziya"		
		division_name = {
			is_name_ordered = yes
			name_order = 180
		}
		location = 13270 #Kingisepp
		division_template = "Strelkovaya Diviziya"
		start_experience_factor = 0.3
		start_equipment_factor = 0.6
		
	}
	division= {	# "181ya Strelkovaya Diviziya"		
		division_name = {
			is_name_ordered = yes
			name_order = 181
		}
		location = 9120 #Kingisepp
		division_template = "Strelkovaya Diviziya"
		force_equipment_variants = { Small_Arms_1935 = { owner = SOV } }
		start_experience_factor = 0.3
		start_equipment_factor = 0.6
		
	}
	division= {	# "182ya Strelkovaya Diviziya"		
		division_name = {
			is_name_ordered = yes
			name_order = 182
		}
		location = 4640 #Kingisepp
		division_template = "Strelkovaya Diviziya"
		force_equipment_variants = { Small_Arms_1935 = { owner = SOV } }
		start_experience_factor = 0.3
		start_equipment_factor = 0.6
		
	}
	division= {	# 16-ya Ul'yanovskaya Strelkovaya Diviziya	
		name = "16-ya Ul'yanovskaya Strelkovaya Diviziya"
		location = 9408 #Kinisepp
		division_template = "Strelkovaya Diviziya"
		start_experience_factor = 0.3
		start_equipment_factor = 0.6
		
	}
	division= {	# "67ya Strelkovaya Diviziya"		
		division_name = {
			is_name_ordered = yes
			name_order = 67
		}
		location = 9408 #Kingisepp
		division_template = "Strelkovaya Diviziya"
		force_equipment_variants = { Small_Arms_1916 = { owner = SOV } }
		start_experience_factor = 0.3
		start_equipment_factor = 0.6
		
	}
	division= {	# "183ya Strelkovaya Diviziya"		
		division_name = {
			is_name_ordered = yes
			name_order = 183
		}
		location = 13270 #Kingisepp
		division_template = "Strelkovaya Diviziya"
		force_equipment_variants = { Small_Arms_1935 = { owner = SOV } }
		start_experience_factor = 0.3
		start_equipment_factor = 0.8
		
	}

	##47-i Strelkovyi Korpus##

	division= {	# "121ya Strelkovaya Diviziya"		
		division_name = {
			is_name_ordered = yes
			name_order = 121
		}
		location = 104 #Kingisepp
		division_template = "Strelkovaya Diviziya"
		start_experience_factor = 0.3
		start_equipment_factor = 0.6
		
	}
	division= {	# "143ya Strelkovaya Diviziya"		
		division_name = {
			is_name_ordered = yes
			name_order = 143
		}
		location = 126 #Kingisepp
		division_template = "Strelkovaya Diviziya"
		force_equipment_variants = { Small_Arms_1935 = { owner = SOV } }
		start_experience_factor = 0.05
		start_equipment_factor = 0.5
		
	}
	division= {	# "67ya Strelkovaya Diviziya"		
		division_name = {
			is_name_ordered = yes
			name_order = 67
		}
		location = 9408 #Kingisepp
		division_template = "Strelkovaya Diviziya"
		force_equipment_variants = { Small_Arms_1935 = { owner = SOV } }
		start_experience_factor = 0.3
		start_equipment_factor = 0.5
		
	}
	division= {	# "17-i Mekhanizirovannyi Korpus"		
		name = "17-i Mekhanizirovannyi Korpus"	
		location = 13270 #Pskov
		division_template = "Tankovaya Korpus" #Light Tanks
		force_equipment_variants = { Light_Tank_1934 = { owner = SOV } } #BT-5
		start_experience_factor = 0.3
		start_equipment_factor = 0.2
		
	}
	division= {	# "20-i Mekhanizirovannyi Korpus"		
		name = "20-i Mekhanizirovannyi Korpus"	
		location = 126 #Pskov
		division_template = "Tankovaya Korpus" #Light Tanks
		force_equipment_variants = { Light_Tank_1934 = { owner = SOV } } #BT-5
		start_experience_factor = 0.3
		start_equipment_factor = 0.2
		
	}

	#3-ya Armiya##

	division= {	# "27-ya Omskaya Strelkovaya Diviziya"		
		name = "27-ya Omskaya Strelk. Div."
		location = 3393 #Grodno
		division_template = "Strelkovaya Diviziya"
		start_experience_factor = 0.4
		start_equipment_factor = 0.8
		
	}
	division= {	#56-ya Moskovskaya Strelkovaya Diviziya	
		name = "56-ya Moskovskaya Strelk. Div."
		location = 318 #Grodno
		division_template = "Strelkovaya Diviziya"
		force_equipment_variants = { Small_Arms_1935 = { owner = SOV } }
		start_experience_factor = 0.3
		start_equipment_factor = 0.5
		
	}
	division= {	# "85ya Strelkovaya Diviziya"		
		division_name = {
			is_name_ordered = yes
			name_order = 85
		}
		location = 3281 #Grodno
		division_template = "Strelkovaya Diviziya"
		force_equipment_variants = { Small_Arms_1935 = { owner = SOV } }
		start_experience_factor = 0.3
		start_equipment_factor = 0.5
		
	}

	##21-i Strelkovyi Korpus##

	division= {	#24-ya Samaro-Ul'yanovsk Strelkovaya Diviziya
		name = "24-ya Samaro-Ul'yanovsk Strelk. Div."
		location = 13722 #Grodno
		division_template = "Strelkovaya Diviziya"
		start_experience_factor = 0.4
		start_equipment_factor = 0.6
		
	}
	division= {	#17-ya Gor'kovskaya Strelkovaya Diviziya
		name = "17-ya Gor'kovskaya Strelk. Div."
		location = 13721 #Grodno
		division_template = "Strelkovaya Diviziya"
		start_experience_factor = 0.4
		start_equipment_factor = 0.6
		
	}
	division= {	#50-ya Tamanskaya Strelkovaya Diviziya
		name = "50-ya Tamanskaya Strelk. Div."
		location = 6281 #Grodno
		division_template = "Strelkovaya Diviziya"
		start_experience_factor = 0.4
		start_equipment_factor = 0.6
		
	}
	division= {	# "37ya Strelkovaya Diviziya"		
		division_name = {
			is_name_ordered = yes
			name_order = 37
		}
		location = 3393 #Grodno
		division_template = "Strelkovaya Diviziya"
		start_experience_factor = 0.3
		start_equipment_factor = 0.6
		
	}
	division= {	# "11-i Mekhanizirovannyi Korpus"		
		name = "11-i Mekhanizirovannyi Korpus"	
		location = 318 #Grodno
		division_template = "Tankovaya Korpus" #Light Tanks
		force_equipment_variants = { Light_Tank_1934 = { owner = SOV } } #BT-5
		start_experience_factor = 0.3
		start_equipment_factor = 0.6
		
	}

	##4-ya Armiya##

	division= {	#6-ya Orlovskaya Strelkovaya Diviziya
		name = "6-ya Orlovskaya Strelk. Div."
		location = 11329 #Lomza
		division_template = "Strelkovaya Diviziya"
		start_experience_factor = 0.4
		start_equipment_factor = 0.8
		
	}
	division= {	# "42ya Strelkovaya Diviziya"		
		division_name = {
			is_name_ordered = yes
			name_order = 42
		}
		location = 11274 #Lomza
		division_template = "Strelkovaya Diviziya"
		start_experience_factor = 0.3
		start_equipment_factor = 0.7
		
	}
	division= {	# "49ya Strelkovaya Diviziya"		
		division_name = {
			is_name_ordered = yes
			name_order = 49
		}
		location = 11357 #Lomza
		division_template = "Strelkovaya Diviziya"
		force_equipment_variants = { Small_Arms_1935 = { owner SOV } }
		start_experience_factor = 0.3
		start_equipment_factor = 0.86
		
	}
	division= {	# "75ya Strelkovaya Diviziya"		
		division_name = {
			is_name_ordered = yes
			name_order = 75
		}
		location = 290 #Lomza
		division_template = "Strelkovaya Diviziya"
		start_experience_factor = 0.3
		start_equipment_factor = 0.5
		
	}
	division= {	# "14-i Mekhanizirovannyi Korpus"		
		name = "14-i Mekhanizirovannyi Korpus"	
		location = 11274 #Lomza
		division_template = "Tankovaya Korpus" #Light Tanks
		force_equipment_variants = { Light_Tank_1934 = { owner = SOV } } #BT-5
		start_experience_factor = 0.4
		start_equipment_factor = 0.6
		
	}

	##10-ya Armiya##

	division= {	# "155ya Strelkovaya Diviziya"		
		division_name = {
			is_name_ordered = yes
			name_order = 155
		}
		location = 11301 #Bialystok
		division_template = "Strelkovaya Diviziya"
		start_experience_factor = 0.3
		start_equipment_factor = 0.5
		
	}
	division= {	#2-ya Belorusskaya Strelkovaya Diviziya
		name = "2-ya Belorusskaya Strelkovaya Diviziya"
		location = 400 #Bialystok
		division_template = "Strelkovaya Diviziya"
		start_experience_factor = 0.4
		start_equipment_factor = 0.8
		
	}
	division= {	# "6-i Mekhanizirovannyi Korpus"		
		name = "6-i Mekhanizirovannyi Korpus"	
		location = 11301 #Bialystok
		division_template = "Tankovaya Brigada" #Medium Tanks
		force_equipment_variants = { Medium_Tank_1936 = { owner = SOV } } #T-26
		start_experience_factor = 0.4
		start_equipment_factor = 0.5
		
	}

	##6-i Kavaleriiski Korpus##

	division= {	#6-ya Changarskaya Kavaleriiskaya Diviziya
		name = "6-ya Changarskaya Kav. Div."
		location = 11301 #Bialystok
		division_template = "Kavaleriyskaya Diviziya"
		start_experience_factor = 0.2
		start_equipment_factor = 0.6
		
	}
	
	division= {	#36-ya Kavaleriiskaya Diviziya
		division_name = { 
			is_name_ordered = yes
			name_order = 36
		}
		location = 290 #Bialystok
		division_template = "Kavaleriyskaya Diviziya"
		start_experience_factor = 0.2
		start_equipment_factor = 0.6
		
	}

	##5-i Strelkovyi Korpus##
	
	division= {	#86ya Strelk. Div.
		division_name = { 
			is_name_ordered = yes
			name_order = 86
		}
		location = 11274 #Lomza
		division_template = "Strelkovaya Diviziya"
		start_experience_factor = 0.2
		start_equipment_factor = 0.6
		
	}

	division= {	#13-ya Dagestanskaya Strelkovaya Diviziya
		name = "13-ya Dagestanskaya Strelk. Div."
		location = 290 #Bialystok
		division_template = "Strelkovaya Diviziya"
		start_experience_factor = 0.2
		start_equipment_factor = 0.6
		
	}

	division= {	#113ya Strelk. Div.
		division_name = { 
			is_name_ordered = yes
			name_order = 113
		}
		location = 290 #Bialystok
		division_template = "Strelkovaya Diviziya"
		start_experience_factor = 0.2
		start_equipment_factor = 0.5
		
	}
	division= {	# "13-i Mekhanizirovannyi Korpus"		
		name = "13-i Mekhanizirovannyi Korpus"	
		location = 12904 #Bialystok
		division_template = "Tankovaya Korpus" #Light Tanks
		force_equipment_variants = { Light_Tank_1936 = { owner = SOV } } #BT-7
		start_experience_factor = 0.4
		start_equipment_factor = 0.6
		
	}

	##13-ya Armiya##

	division= {	#161ya Strelk. Div.
		division_name = { 
			is_name_ordered = yes
			name_order = 161
		}
		location = 11271 #Mogilev
		division_template = "Strelkovaya Diviziya"
		start_experience_factor = 0.2
		start_equipment_factor = 0.5
		
	}
	division= {	#100ya Strelk. Div.
		division_name = { 
			is_name_ordered = yes
			name_order = 100
		}
		location = 11271 #Mogilev
		division_template = "Strelkovaya Diviziya"
		start_experience_factor = 0.2
		start_equipment_factor = 0.5
		
	}
	division= {	#64ya Strelk. Div.
		division_name = { 
			is_name_ordered = yes
			name_order = 64
		}
		location = 11271 #Mogilev
		division_template = "Strelkovaya Diviziya"
		start_experience_factor = 0.3
		start_equipment_factor = 0.5
		
	}
	division= {	#108ya Strelk. Div.
		division_name = { 
			is_name_ordered = yes
			name_order = 108
		}
		location = 11271 #Mogilev
		division_template = "Strelkovaya Diviziya"
		start_experience_factor = 0.3
		start_equipment_factor = 0.5
		
	}

	##31-i Strelkovyi Korpus##(kiev boys)

	division= {	#193ya Strelk. Div.
		division_name = { 
			is_name_ordered = yes
			name_order = 193
		}
		location = 525 #Kiev
		division_template = "Strelkovaya Diviziya"
		start_experience_factor = 0.3
		start_equipment_factor = 0.5
		
	}
	division= {	#195ya Strelk. Div.
		division_name = { 
			is_name_ordered = yes
			name_order = 195
		}
		location = 525 #Kiev
		division_template = "Strelkovaya Diviziya"
		start_experience_factor = 0.3
		start_equipment_factor = 0.5
		
	}
	division= {	#200ya Strelk. Div.
		division_name = { 
			is_name_ordered = yes
			name_order = 200
		}
		location = 525 #Kiev
		division_template = "Strelkovaya Diviziya"
		force_equipment_variants = { Small_Arms_1916 = { owner = SOV } }
		start_experience_factor = 0.3
		start_equipment_factor = 0.5
		
	}
	division= {	# "9-i Mekhanizirovannyi Korpus"		
		name = "9-i Mekhanizirovannyi Korpus"	
		location = 525 #Kiev
		division_template = "Tankovaya Korpus" #Light Tanks
		force_equipment_variants = { Light_Tank_1934 = { owner = SOV } } #BT-5
		start_experience_factor = 0.4
		start_equipment_factor = 0.6
		
	}

	##36-i Strelkovyi Korpus(more Kiev boys)##

	division= {	#140ya Strelk. Div.
		division_name = { 
			is_name_ordered = yes
			name_order = 140
		}
		location = 525 #Kiev
		division_template = "Strelkovaya Diviziya"
		force_equipment_variants = { Small_Arms_1935 = { owner = SOV } }
		start_experience_factor = 0.3
		start_equipment_factor = 0.5
		
	}
	division= {	#146ya Strelk. Div.
		division_name = { 
			is_name_ordered = yes
			name_order = 146
		}
		location = 525 #Kiev
		division_template = "Strelkovaya Diviziya"
		force_equipment_variants = { Small_Arms_1916 = { owner = SOV } }
		start_experience_factor = 0.3
		start_equipment_factor = 0.5
		
	}
	division= {	#228ya Strelk. Div.
		division_name = { 
			is_name_ordered = yes
			name_order = 228
		}
		location = 504 #Kiev Factory
		division_template = "Strelkovaya Diviziya"
		force_equipment_variants = { Small_Arms_1935 = { owner = SOV } }
		start_experience_factor = 0.3
		start_equipment_factor = 0.5
		
	}
	division= {	# "15-i Mekhanizirovannyi Korpus"		
		name = "15-i Mekhanizirovannyi Korpus"	
		location = 525 #Kiev
		division_template = "Tankovaya Korpus" #Light Tanks
		force_equipment_variants = { Light_Tank_1936 = { owner = SOV } } #BT-7
		start_experience_factor = 0.4
		start_equipment_factor = 0.6
		
	}

	####49-i Strelkovyi Korpus(so many Kiev boys)##


	division= {	#199ya Strelk. Div.
		division_name = { 
			is_name_ordered = yes
			name_order = 199
		}
		location = 525 #Kiev
		division_template = "Strelkovaya Diviziya"
		force_equipment_variants = { Small_Arms_1935 = { owner = SOV } }
		start_experience_factor = 0.3
		start_equipment_factor = 0.5
		
	}
	division= {	#197ya Strelk. Div.
		division_name = { 
			is_name_ordered = yes
			name_order = 197
		}
		location = 9543 #Kiev Airfield
		division_template = "Strelkovaya Diviziya"
		start_experience_factor = 0.3
		start_equipment_factor = 0.5
		
	}
	division= {	#190ya Strelk. Div.
		division_name = { 
			is_name_ordered = yes
			name_order = 190
		}
		location = 9543 #Kiev Airfield
		division_template = "Strelkovaya Diviziya"
		start_experience_factor = 0.3
		start_equipment_factor = 0.5
		
	}
	division= {	# "19-i Mekhanizirovannyi Korpus"		
		name = "19-i Mekhanizirovannyi Korpus"	
		location = 525 #Kiev
		division_template = "Tankovaya Korpus" #Light Tanks
		force_equipment_variants = { Light_Tank_1934 = { owner = SOV } } #BT-5
		start_experience_factor = 0.3
		start_equipment_factor = 0.6
		
	}

	######55-i Strelkovyi Korpus(how many Kiev boys are there?)##


	division= {	#189ya Strelk. Div.
		division_name = { 
			is_name_ordered = yes
			name_order = 189
		}
		location = 9543 #Kiev airfield
		division_template = "Strelkovaya Diviziya"
		force_equipment_variants = { Small_Arms_1935 = { owner = SOV } }
		start_experience_factor = 0.2
		start_equipment_factor = 0.6
		
	}
	division= {	#169ya Strelk. Div.
		division_name = { 
			is_name_ordered = yes
			name_order = 169
		}
		location = 504 #Kiev
		division_template = "Strelkovaya Diviziya"
		force_equipment_variants = { Small_Arms_1935 = { owner = SOV } }
		start_experience_factor = 0.3
		start_equipment_factor = 0.5
		
	}
	division= {	#130ya Strelk. Div.
		division_name = { 
			is_name_ordered = yes
			name_order = 130
		}
		location = 525 #Kiev
		division_template = "Strelkovaya Diviziya"
		start_experience_factor = 0.3
		start_equipment_factor = 0.5
		
	}
	division= {	# "24-i Mekhanizirovannyi Korpus"		
		name = "24-i Mekhanizirovannyi Korpus"	
		location = 525 #Kiev
		division_template = "Tankovaya Korpus" #Light Tanks
		force_equipment_variants = { Light_Tank_1934 = { owner = SOV } } #BT-5
		start_experience_factor = 0.3
		start_equipment_factor = 0.4
		
	}

	##5-ya Armiya##

	division= {	# "45-ya Volynskaya Strelkovaya Diviziya"		
		name = "45-ya Volynskaya Strelk. Div."	
		location = 6509 #Rowne
		division_template = "Strelkovaya Diviziya" 
		start_experience_factor = 0.3
		start_equipment_factor = 0.6
		
	}
	division= {	# "87-ya Strelkovaya Diviziya"		
		division_name = {
			is_name_ordered = yes
			name_order = 87
		}
		location = 3511 #Rowne
		division_template = "Strelkovaya Diviziya" 
		force_equipment_variants = { Small_Arms_1935 = { owner = GER } }
		start_experience_factor = 0.3
		start_equipment_factor = 0.6
		
	}
	division= {	# "62-ya Turkestanskaya Strelkovaya Diviziya"		
		name = "62-ya Turkestanskaya Strelk. Div."	
		location = 3470 #Rowne
		division_template = "Strelkovaya Diviziya" 
		start_experience_factor = 0.3
		start_equipment_factor = 0.6
		
	}
	division= {	# "124-ya Strelkovaya Diviziya"		
		division_name = {
			is_name_ordered = yes
			name_order = 124
		}
		location = 9493 #Rowne
		division_template = "Strelkovaya Diviziya" 
		force_equipment_variants = { Small_Arms_1935 = { owner = GER } }
		start_experience_factor = 0.3
		start_equipment_factor = 0.6
		
	}
	division= {	# "135-ya Strelkovaya Diviziya"		
		division_name = {
			is_name_ordered = yes
			name_order = 135
		}
		location = 9554 #Rowne
		division_template = "Strelkovaya Diviziya" 
		force_equipment_variants = { Small_Arms_1935 = { owner = GER } }
		start_experience_factor = 0.3
		start_equipment_factor = 0.7
		
	}
	division= {	# "22-i Mekhanizirovannyi Korpus"		
		name = "22-i Mekhanizirovannyi Korpus"	
		location = 3511 #Rowne
		division_template = "Tankovaya Korpus" #Light Tanks
		force_equipment_variants = { Light_Tank_1934 = { owner = SOV } } #BT-5
		start_experience_factor = 0.3
		start_equipment_factor = 0.6
		
	}

	##6-ya Armiya##

	division= {	#41-ya Volynskaya Strelkovaya Diviziya
		name = "41-ya Volynskaya Strelk. Div."
		location = 3392 #Brest-Litovsk
		division_template = "Strelkovaya Diviziya"
		start_experience_factor = 0.4
		start_equipment_factor = 0.6
		
	}
	division= {	# "97-ya Strelkovaya Diviziya"		
		division_name = {
			is_name_ordered = yes
			name_order = 97
		}
		location = 3392 #Brest-Litovsk
		division_template = "Strelkovaya Diviziya" 
		force_equipment_variants = { Small_Arms_1916 = { owner = GER } }
		start_experience_factor = 0.3
		start_equipment_factor = 0.5
		
	}
	division= {	# "159-ya Strelkovaya Diviziya"		
		division_name = {
			is_name_ordered = yes
			name_order = 159
		}
		location = 3392 #Brest-Litovsk
		division_template = "Strelkovaya Diviziya" 
		force_equipment_variants = { Small_Arms_1935 = { owner = GER } }
		start_experience_factor = 0.3
		start_equipment_factor = 0.5
		
	}
	division= {	# "4-i Mekhanizirovannyi Korpus"		
		name = "4-i Mekhanizirovannyi Korpus"	
		location = 3392 #Brest-Litovsk
		division_template = "Tankovaya Brigada" #medium Tanks
		force_equipment_variants = { Medium_Tank_1939 = { owner = SOV } } #T-34. YESSSS FINALLY
		start_experience_factor = 0.4
		start_equipment_factor = 0.5
		
	}

	##37-i Strelkovyi Korpus##

	division= {	# "80-ya Strelkovaya Diviziya"		
		division_name = {
			is_name_ordered = yes
			name_order = 80
		}
		location = 513 #Lutsk
		division_template = "Strelkovaya Diviziya" 
		start_experience_factor = 0.2
		start_equipment_factor = 0.6
		
	}

	division= {	# "139-ya Strelkovaya Diviziya"		
		division_name = {
			is_name_ordered = yes
			name_order = 139
		}
		location = 513 #Lutsk
		division_template = "Strelkovaya Diviziya" 
		force_equipment_variants = { Small_Arms_1935 = { owner = GER } }
		start_experience_factor = 0.3
		start_equipment_factor = 0.5
		
	}
	division= {	# "141-ya Strelkovaya Diviziya"		
		division_name = {
			is_name_ordered = yes
			name_order = 141
		}
		location = 513 #Lutsk
		division_template = "Strelkovaya Diviziya" 
		force_equipment_variants = { Small_Arms_1935 = { owner = GER } }
		start_experience_factor = 0.2
		start_equipment_factor = 0.5
		
	}

	##5-i Kavaleriiski Korpus##

	division= {	#6-ya Changarskaya Kavaleriiskaya Diviziya
		name = "6-ya Changarskaya Kav. Div."
		location = 11479 #Lwow
		division_template = "Kavaleriyskaya Diviziya"
		start_experience_factor = 0.2
		start_equipment_factor = 0.8
		
	}
	division= {	#14-ya Maykopskaya Kavaleriiskaya Diviziya
		name = "14-ya Maykopskaya Kav. Div."
		location = 11479 #Lwow
		division_template = "Kavaleriyskaya Diviziya"
		start_experience_factor = 0.2
		start_equipment_factor = 0.7
		
	}
	division= {	# "16-i Mekhanizirovannyi Korpus"		
		name = "16-i Mekhanizirovannyi Korpus"	
		location = 11479 #Lwow
		division_template = "Tankovaya Korpus" #light Tanks
		force_equipment_variants = { Light_Tank_1934 = { owner = SOV } } #BT-5
		start_experience_factor = 0.4
		start_equipment_factor = 0.4
		
	}

	##12-ya Armiya##

	division= {	# "44-ya Strelkovaya Diviziya"		
		division_name = {
			is_name_ordered = yes
			name_order = 44
		}
		location = 3457 #Kamenets-Podolsky
		division_template = "Strelkovaya Diviziya" 
		force_equipment_variants = { Small_Arms_1916 = { owner = GER } }
		start_experience_factor = 0.2
		start_equipment_factor = 0.5
		
	}
	division= {	# "192-ya Strelkovaya Diviziya"		
		division_name = {
			is_name_ordered = yes
			name_order = 192
		}
		location = 3511 #Kamenets-Podolsky
		division_template = "Strelkovaya Diviziya" 
		force_equipment_variants = { Small_Arms_1935 = { owner = GER } }
		start_experience_factor = 0.2
		start_equipment_factor = 0.5
		
	}

	##13-i Strelkovyi Korpus##

	division= {	# "58-ya Strelkovaya Diviziya"		
		division_name = {
			is_name_ordered = yes
			name_order = 58
		}
		location = 1411 #Stanislawow
		division_template = "Strelkovaya Diviziya" 
		start_experience_factor = 0.2
		start_equipment_factor = 0.6
		
	}

	##17-i Strelkovyi Korpus##

	division= {	# "60-ya Gornostrelkovaya Diviziya"		
		division_name = {
			is_name_ordered = yes
			name_order = 60
		}
		location = 3483 #Tarnopol
		division_template = "Gornostrelkovaya Diviziya" 
		start_experience_factor = 0.3
		start_equipment_factor = 0.85
		
	}

	##26-ya Armiya##

	division= {	# "99-ya Strelkovaya Diviziya"		
		division_name = {
			is_name_ordered = yes
			name_order = 99
		}
		location = 3470 #Przemysl
		division_template = "Strelkovaya Diviziya" 
		start_experience_factor = 0.2
		start_equipment_factor = 0.5
		
	}
	division= {	# "173-ya Strelkovaya Diviziya"		
		division_name = {
			is_name_ordered = yes
			name_order = 173
		}
		location = 9493 #Przemysl
		division_template = "Strelkovaya Diviziya" 
		start_experience_factor = 0.2
		start_equipment_factor = 0.5
		
	}
	division= {	# "8-i Mekhanizirovannyi Korpus"		
		name = "8-i Mekhanizirovannyi Korpus"	
		location = 3470 #Przemysl
		division_template = "Tankovaya Korpus" #light Tanks
		force_equipment_variants = { Light_Tank_1936 = { owner = SOV } } #BT-7
		start_experience_factor = 0.4
		start_equipment_factor = 0.7
		
	}

	##Odesskyi Osobyi Voennyi Okrug##

	division= {	# "47-ya Strelkovaya Diviziya"		
		division_name = {
			is_name_ordered = yes
			name_order = 48
		}
		location = 11670 #Odessa
		division_template = "Strelkovaya Diviziya" 
		start_experience_factor = 0.3
		start_equipment_factor = 0.7
		
	}

	##7-i Strelkovyi Korpus##

	division= {	# "47-ya Strelkovaya Diviziya"		
		division_name = {
			is_name_ordered = yes
			name_order = 48
		}
		location = 13676 #Tiraspol
		division_template = "Strelkovaya Diviziya" 
		force_equipment_variants = { Small_Arms_1935 = { owner = SOV } }
		start_experience_factor = 0.2
		start_equipment_factor = 0.6
		
	}
	division= {	# 	
		name = "196-ya Dnepropetrovsk Strelk. Div."
		location = 13676 #Tiraspol
		division_template = "Strelkovaya Diviziya" 
		start_experience_factor = 0.3
		start_equipment_factor = 0.75
		
	}
	division= {	# "206-ya Strelkovaya Diviziya"		
		division_name = {
			is_name_ordered = yes
			name_order = 206
		}
		location = 13676 #Tiraspol
		division_template = "Strelkovaya Diviziya" 
		start_experience_factor = 0.2
		start_equipment_factor = 0.6
		
	}

	##9-i Strelkovyi Korpus##

	division= {	# "156-ya Strelkovaya Diviziya"		
		division_name = {
			is_name_ordered = yes
			name_order = 156
		}
		location =  9423 #Mogilev-Poldosky
		division_template = "Strelkovaya Diviziya" 
		force_equipment_variants = { Small_Arms_1935 = { owner = SOV } }
		start_experience_factor = 0.2
		start_equipment_factor = 0.6
		
	}
	division= {	# "106-ya Strelkovaya Diviziya"		
		division_name = {
			is_name_ordered = yes
			name_order = 106
		}
		location = 6455 #Mogilev-Poldosky
		division_template = "Strelkovaya Diviziya" 
		start_experience_factor = 0.2
		start_equipment_factor = 0.7
		
	}
	
	division= {	# "206-ya Strelkovaya Diviziya"		
		division_name = {
			is_name_ordered = yes
			name_order = 206
		}
		location = 6455 #Mogilev-Poldosky
		division_template = "Kavaleriyskaya Diviziya" 
		start_experience_factor = 0.2
		start_equipment_factor = 0.6
		
	}

	##9-ya Armiya##

	division= {	# "25-ya Strelkovaya Diviziya"		
		division_name = {
			is_name_ordered = yes
			name_order = 25
		}
		location = 11670 #Odessa
		division_template = "Strelkovaya Diviziya" 
		start_experience_factor = 0.3
		start_equipment_factor = 0.8
		
	}
	division= {	# "51-ya Strelkovaya Diviziya"		
		division_name = {
			is_name_ordered = yes
			name_order = 51
		}
		location = 11670 #Odessa
		division_template = "Strelkovaya Diviziya" 
		force_equipment_variants = { Small_Arms_1935 = { owner = SOV } }
		start_experience_factor = 0.2
		start_equipment_factor = 0.5
		
	}

	division= {	# "18-i Mekhanizirovannyi Korpus"		
		name = "18-i Mekhanizirovannyi Korpus"	
		location = 11670 #Odessa
		division_template = "Tankovaya Korpus" #light Tanks
		force_equipment_variants = { Light_Tank_1934 = { owner = SOV } } #BT-5
		start_experience_factor = 0.3
		start_equipment_factor = 0.68
		
	}

	##35-i Strelkovyi Korpus##

	division= {	# 176-ya Strelkovaya Diviziya"		
		division_name = {
			is_name_ordered = yes
			name_order = 176
		}
		location = 13677 #Balta
		division_template = "Strelkovaya Diviziya" 
		force_equipment_variants = { Small_Arms_1935 = { owner = SOV } }
		start_experience_factor = 0.2
		start_equipment_factor = 0.5
		
	}
	division= {	# "95-ya Moldavskaya Strelkovaya Diviziya"		
		name = "95-ya Moldavskaya Gornostrelk. Div." # I use this to replicate historical names
		location = 13678 #Balta
		division_template = "Gornostrelkovaya Diviziya"  #Mountaineers, duh!
		start_experience_factor = 0.4
		start_equipment_factor = 0.9
		
	}
	division= {	# "2-i Mekhanizirovannyi Korpus"		
		name = "2-i Mekhanizirovannyi Korpus"	
		location = 741 #Balta
		division_template = "Tankovaya Brigada" #Medium Tanks
		force_equipment_variants = { Medium_Tank_1939 = { owner = SOV } } #T-34
		start_experience_factor = 0.3
		start_equipment_factor = 0.68
		
	}

	##Zakavkazskyi Voennyi Okrug## (basically Caucasus defence)

	division= {	# 63-ya Gornostrelkovaya Diviziya"		
		division_name = {
			is_name_ordered = yes
			name_order = 63
		}
		location = 3564 #Tbilisi
		division_template = "Gornostrelkovaya Diviziya" 
		start_experience_factor = 0.3
		start_equipment_factor = 0.7
		
	}
	division= {	# 76-ya Gornostrelkovaya Diviziya"		
	division_name = {
		is_name_ordered = yes
		name_order = 76
	}
	location = 6997 #Tbilisi
	division_template = "Gornostrelkovaya Diviziya" 
	start_experience_factor = 0.3
	start_equipment_factor = 0.65
	
	}
	division= {	# 77-ya Gornostrelkovaya Diviziya"		
	division_name = {
		is_name_ordered = yes
		name_order = 77
	}
	location = 4660 #Tbilisi
	division_template = "Gornostrelkovaya Diviziya" 
	start_experience_factor = 0.3
	start_equipment_factor = 0.7
	
	}
	division= {	# "4-ya Smolenskaya Strelkovaya Diviziya"		
		name = "4-ya Smolenskaya Strelk. Div."	
		location = 12320 #Tbilisi
		division_template = "Strelkovaya Diviziya"
		start_experience_factor = 0.4
		start_equipment_factor = 0.55
		
	}
	division= {	# 20-ya Gornostrelkovaya Diviziya"		
	division_name = {
		is_name_ordered = yes
		name_order = 20
	}
	location = 6669 #Tbilisi
	division_template = "Gornostrelkovaya Diviziya" 
	start_experience_factor = 0.3
	start_equipment_factor = 0.6
	
	}
	division= {	# 136-ya Strelkovaya Diviziya"		
	division_name = {
		is_name_ordered = yes
		name_order = 136
	}
	location =  7661 #Tbilisi
	division_template = "Strelkovaya Diviziya" 
	force_equipment_variants = { Small_Arms_1935 = { owner = SOV } }
	start_experience_factor = 0.2
	start_equipment_factor = 0.5
	
	}
	division= {	# 138-ya Gornostrelkovaya Diviziya"		
	division_name = {
		is_name_ordered = yes
		name_order = 138
	}
	location = 3653 #Tbilisi
	division_template = "Gornostrelkovaya Diviziya" 
	start_experience_factor = 0.3
	start_equipment_factor = 0.6
	
	}
	division= {	# 47-ya Gornostrelkovaya Diviziya"		
	division_name = {
		is_name_ordered = yes
		name_order = 47
	}
	location = 12441 #Tbilisi
	division_template = "Gornostrelkovaya Diviziya" 
	start_experience_factor = 0.3
	start_equipment_factor = 0.6
	
	}
	division= {	# 17-ya Gor'kovskaya Gornostrelkovaya Diviziya		
	name = "17-ya Gor'kovskaya Gornostrelk. Div."
	location = 1467 #Tbilisi
	division_template = "Gornostrelkovaya Diviziya" 
	start_experience_factor = 0.4
	start_equipment_factor = 0.7
	
	}
	division= {	# 24-ya Kavaleriyskaya Diviziya"		
	division_name = {
		is_name_ordered = yes
		name_order = 24
	}
	location = 3653 #Tbilisi
	division_template = "Kavaleriyskaya Diviziya" 
	start_experience_factor = 0.3
	start_equipment_factor = 0.6
	
	}
	division= {	# 31-ya Strelkovaya Diviziya"		
	division_name = {
		is_name_ordered = yes
		name_order = 31
	}
	location = 12320 #Tbilisi
	division_template = "Strelkovaya Diviziya" 
	force_equipment_variants = { Small_Arms_1935 = { owner = SOV } }
	start_experience_factor = 0.2
	start_equipment_factor = 0.6
	
	}
	division= {	# 9-ya Gornostrelkovaya Diviziya"		
	division_name = {
		is_name_ordered = yes
		name_order = 9
	}
	location = 3656 #Tbilisi
	division_template = "Gornostrelkovaya Diviziya" 
	start_experience_factor = 0.45
	start_equipment_factor = 0.8
	
	}

	##Arhangelskyi Voennyi Okrug##

	division= {	# 88-ya Strelkovaya Diviziya"		
	division_name = {
		is_name_ordered = yes
		name_order = 88
	}
	location = 3338 #Tbilisi
	division_template = "Strelkovaya Diviziya" 
	force_equipment_variants = { Small_Arms_1935 = { owner = SOV } }
	start_experience_factor = 0.2
	start_equipment_factor = 0.6
	
	}
	division= {	# 111-ya Strelkovaya Diviziya"		
	division_name = {
		is_name_ordered = yes
		name_order = 111
	}
	location = 3338 #Tbilisi
	division_template = "Strelkovaya Diviziya" 
	force_equipment_variants = { Small_Arms_1935 = { owner = SOV } }
	start_experience_factor = 0.2
	start_equipment_factor = 0.6
	
	}
	
	##Moskovskyi Voennyi Okrug## (Moscow) -

	division= {	# 118-ya Strelkovaya Diviziya"		
	division_name = {
		is_name_ordered = yes
		name_order = 118
	}
	location = 6380 #Moscow
	division_template = "Strelkovaya Diviziya" 
	start_experience_factor = 0.3
	start_equipment_factor = 0.6
	
	}
	division= {	# 235-ya Strelkovaya Diviziya"		
	division_name = {
		is_name_ordered = yes
		name_order = 235
	}
	location = 6380 #Moscow
	division_template = "Strelkovaya Diviziya" 
	start_experience_factor = 0.3
	start_equipment_factor = 0.6
	
	}

	##Severokavkazskyi Voennyi Okrug##

	division= {	# 175-ya Strelkovaya Diviziya"		
	division_name = {
		is_name_ordered = yes
		name_order = 175
	}
	location = 719 #Krasnodar
	division_template = "Strelkovaya Diviziya" 
	force_equipment_variants = { Small_Arms_1935 = { owner = SOV } }
	start_experience_factor = 0.2
	start_equipment_factor = 0.5
	
	}
	division= {	# 157-ya Strelkovaya Diviziya"		
	division_name = {
		is_name_ordered = yes
		name_order = 157
	}
	location = 3720 #Krasnodar
	division_template = "Strelkovaya Diviziya" 
	force_equipment_variants = { Small_Arms_1935 = { owner = SOV } }
	start_experience_factor = 0.2
	start_equipment_factor = 0.6
	
	}
	division= {	# 28-ya Gornostrelkovaya Diviziya"		
	division_name = {
		is_name_ordered = yes
		name_order = 28
	}
	location = 3734 #Krasnodar
	division_template = "Gornostrelkovaya Diviziya" 
	start_experience_factor = 0.4
	start_equipment_factor = 0.7
	
	}
	division= {	# "26-i Mekhanizirovannyi Korpus"		
		name = "26-i Mekhanizirovannyi Korpus"	
		location = 3734 #Krasnodar
		division_template = "Tankovaya Korpus" #light Tanks
		force_equipment_variants = { Light_Tank_1934 = { owner = SOV } } #BT-5
		start_experience_factor = 0.3
		start_equipment_factor = 0.6
		
	}

	##Orlovskyi Voennyi Okrug##

	division= {	# 19-ya Strelkovaya Diviziya"		
	name = "19ya Voronezhskaya Strelk. Div."
	location = 9355 #Orel
	division_template = "Strelkovaya Diviziya" 
	start_experience_factor = 0.4
	start_equipment_factor = 0.9
	
	}
	division= {	# 89-ya Strelkovaya Diviziya"		
	division_name = {
		is_name_ordered = yes
		name_order = 89
	}
	location = 9355 #Orel
	division_template = "Strelkovaya Diviziya" 
	start_experience_factor = 0.35
	start_equipment_factor = 0.8
	
	}
	division= {	# 217-ya Strelkovaya Diviziya"		
	division_name = {
		is_name_ordered = yes
		name_order = 217
	}
	location = 9328 #Orel
	division_template = "Strelkovaya Diviziya" 
	start_experience_factor = 0.3
	start_equipment_factor = 0.6
	
	}
	division= {	# 120-ya Strelkovaya Diviziya"		
	division_name = {
		is_name_ordered = yes
		name_order = 120
	}
	location = 9355 #Orel
	division_template = "Strelkovaya Diviziya" 
	start_experience_factor = 0.3
	start_equipment_factor = 0.7
	
	}
	division= {	# 145-ya Strelkovaya Diviziya"		
	division_name = {
		is_name_ordered = yes
		name_order = 145
	}
	location = 11368 #Orel
	division_template = "Strelkovaya Diviziya" 
	start_experience_factor = 0.3
	start_equipment_factor = 0.5
	
	}
	division= {	# 222-ya Strelkovaya Diviziya"		
	division_name = {
		is_name_ordered = yes
		name_order = 222
	}
	location = 11242 #Orel
	division_template = "Strelkovaya Diviziya" 
	start_experience_factor = 0.2
	start_equipment_factor = 0.6
	
	}
	division= {	# 149-ya Strelkovaya Diviziya"		
	division_name = {
		is_name_ordered = yes
		name_order = 149
	}
	location = 9260 #Orel
	division_template = "Strelkovaya Diviziya" 
	start_experience_factor = 0.2
	start_equipment_factor = 0.6
	
	}
	division= {	# "23-i Mekhanizirovannyi Korpus"		
		name = "23-i Mekhanizirovannyi Korpus"	
		location = 9355 #Orel
		division_template = "Tankovaya Korpus" #light Tanks
		force_equipment_variants = { Light_Tank_1934 = { owner = SOV } } #BT-5
		start_experience_factor = 0.3
		start_equipment_factor = 0.6
		
	}

	##Raboche-Krest'yanskaya Krasnaya Armiya##(more moscow)

	division= {	# 137-ya Strelkovaya Diviziya"		
	division_name = {
		is_name_ordered = yes
		name_order = 137
	}
	location = 6380 #Moscow
	division_template = "Strelkovaya Diviziya" 
	start_experience_factor = 0.3
	start_equipment_factor = 0.5
	
	}
	division= {	# 160-ya Strelkovaya Diviziya"		
	division_name = {
		is_name_ordered = yes
		name_order = 160
	}
	location = 6380 #Moscow
	division_template = "Strelkovaya Diviziya" 
	start_experience_factor = 0.3
	start_equipment_factor = 0.5
	
	}
	division= {	# 187-ya Strelkovaya Diviziya"		
	division_name = {
		is_name_ordered = yes
		name_order = 187
	}
	location = 6380 #Moscow
	division_template = "Strelkovaya Diviziya" 
	start_experience_factor = 0.3
	start_equipment_factor = 0.5
	
	}
	division= {	# 227-ya Strelkovaya Diviziya"		
	division_name = {
		is_name_ordered = yes
		name_order = 227
	}
	location = 6380 #Moscow
	division_template = "Strelkovaya Diviziya" 
	start_experience_factor = 0.3
	start_equipment_factor = 0.5
	
	}
	division= {	# 232-ya Strelkovaya Diviziya"		
	division_name = {
		is_name_ordered = yes
		name_order = 232
	}
	location = 6380 #Moscow
	division_template = "Strelkovaya Diviziya" 
	start_experience_factor = 0.3
	start_equipment_factor = 0.5
	
	}
	division= {	# 102-ya Strelkovaya Diviziya"		
	division_name = {
		is_name_ordered = yes
		name_order = 102
	}
	location = 6380 #Moscow
	division_template = "Strelkovaya Diviziya" 
	force_equipment_variants = { Small_Arms_1935 = { owner = SOV } }
	start_experience_factor = 0.3
	start_equipment_factor = 0.5
	
	}
	division= {	# 132-ya Strelkovaya Diviziya"		
	division_name = {
		is_name_ordered = yes
		name_order = 132
	}
	location = 6380 #Moscow
	division_template = "Strelkovaya Diviziya" 
	force_equipment_variants = { Small_Arms_1935 = { owner = SOV } }
	start_experience_factor = 0.3
	start_equipment_factor = 0.5
	
	}
	division= {	# 151-ya Strelkovaya Diviziya"		
	division_name = {
		is_name_ordered = yes
		name_order = 151
	}
	location = 6380 #Moscow
	division_template = "Strelkovaya Diviziya" 
	force_equipment_variants = { Small_Arms_1935 = { owner = SOV } }
	start_experience_factor = 0.3
	start_equipment_factor = 0.5
	
	}

	##16-ya Armiya##

	division= {	# 46-ya Strelkovaya Diviziya"		
	division_name = {
		is_name_ordered = yes
		name_order = 46
	}
	location = 9355 #Orel
	division_template = "Strelkovaya Diviziya" 
	force_equipment_variants = { Small_Arms_1935 = { owner = SOV } }
	start_experience_factor = 0.3
	start_equipment_factor = 0.6
	
	}
	division= {	# 152-ya Strelkovaya Diviziya"		
	division_name = {
		is_name_ordered = yes
		name_order = 152
	}
	location = 9355 #Orel
	division_template = "Strelkovaya Diviziya" 
	start_experience_factor = 0.3
	start_equipment_factor = 0.6
	
	}

	##19-ya Armiya##

	division= {	# 38-ya Strelkovaya Diviziya"		
	division_name = {
		is_name_ordered = yes
		name_order = 38
	}
	location = 9465 #Cherkasy
	division_template = "Strelkovaya Diviziya" 
	start_experience_factor = 0.3
	start_equipment_factor = 0.7
	
	}
	division= {	# 127-ya Strelkovaya Diviziya"		
	division_name = {
		is_name_ordered = yes
		name_order = 127
	}
	location = 9465 #Cherkasy
	division_template = "Strelkovaya Diviziya" 
	force_equipment_variants = { Small_Arms_1935 = { owner = SOV } }
	start_experience_factor = 0.3
	start_equipment_factor = 0.5
	
	}
	division= {	# 134-ya Strelkovaya Diviziya"		
	division_name = {
		is_name_ordered = yes
		name_order = 134
	}
	location = 11424 #Cherkasy
	division_template = "Strelkovaya Diviziya" 
	force_equipment_variants = { Small_Arms_1935 = { owner = SOV } }
	start_experience_factor = 0.3
	start_equipment_factor = 0.5
	
	}
	division= {	# 162-ya Strelkovaya Diviziya"		
	division_name = {
		is_name_ordered = yes
		name_order = 162
	}
	location = 434 #Cherkasy
	division_template = "Strelkovaya Diviziya" 
	force_equipment_variants = { Small_Arms_1935 = { owner = SOV } }
	start_experience_factor = 0.3
	start_equipment_factor = 0.6
	
	}
	division= {	# 12-ya Strelkovaya Diviziya"		
	division_name = {
		is_name_ordered = yes
		name_order = 129
	}
	location = 6597 #Cherkasy
	division_template = "Strelkovaya Diviziya" 
	force_equipment_variants = { Small_Arms_1935 = { owner = SOV } }
	start_experience_factor = 0.3
	start_equipment_factor = 0.5
	
	}
	division= {	# 158-ya Strelkovaya Diviziya"		
	division_name = {
		is_name_ordered = yes
		name_order = 158
	}
	location = 11530 #Cherkasy
	division_template = "Strelkovaya Diviziya" 
	force_equipment_variants = { Small_Arms_1935 = { owner = SOV } }
	start_experience_factor = 0.3
	start_equipment_factor = 0.6
	
	}
	division= {	# 171-ya Strelkovaya Diviziya"		
	division_name = {
		is_name_ordered = yes
		name_order = 171
	}
	location = 9491 #Cherkasy
	division_template = "Strelkovaya Diviziya" 
	force_equipment_variants = { Small_Arms_1935 = { owner = SOV } }
	start_experience_factor = 0.3
	start_equipment_factor = 0.6
	
	}

	##20-ya Armiya##

	division= {	# 18-ya Yaroslavskaya Strelkovaya Diviziya	
	name = "18ya Yaroslavskaya Strelk. Div."
	location = 3377 #Kaluga
	division_template = "Strelkovaya Diviziya" 
	start_experience_factor = 0.3
	start_equipment_factor = 0.7
	
	}
	division= {	# 110-ya Strelkovaya Diviziya"		
	division_name = {
		is_name_ordered = yes
		name_order = 110
	}
	location = 3308 #Kaluga
	division_template = "Strelkovaya Diviziya" 
	force_equipment_variants = { Small_Arms_1935 = { owner = SOV } }
	start_experience_factor = 0.3
	start_equipment_factor = 0.6
	
	}
	division= {	# 114-ya Strelkovaya Diviziya"		
	division_name = {
		is_name_ordered = yes
		name_order = 114
	}
	location = 382 #Kaluga
	division_template = "Strelkovaya Diviziya" 
	force_equipment_variants = { Small_Arms_1935 = { owner = SOV } }
	start_experience_factor = 0.3
	start_equipment_factor = 0.5
	
	}
	division= {	# 172-ya Strelkovaya Diviziya"		
	division_name = {
		is_name_ordered = yes
		name_order = 172
	}
	location = 246 #Kaluga
	division_template = "Strelkovaya Diviziya" 
	force_equipment_variants = { Small_Arms_1935 = { owner = SOV } }
	start_experience_factor = 0.3
	start_equipment_factor = 0.6
	
	}
	division= {	# 73-ya Strelkovaya Diviziya"		
	division_name = {
		is_name_ordered = yes
		name_order = 73
	}
	location = 352 #Kaluga
	division_template = "Strelkovaya Diviziya" 
	start_experience_factor = 0.3
	start_equipment_factor = 0.7
	
	}
	division= {	# 229-ya Strelkovaya Diviziya"		
	division_name = {
		is_name_ordered = yes
		name_order = 229
	}
	location = 3226 #Kaluga
	division_template = "Strelkovaya Diviziya" 
	force_equipment_variants = { Small_Arms_1935 = { owner = SOV } }
	start_experience_factor = 0.3
	start_equipment_factor = 0.6
	
	}
	division= {	# 233-ya Strelkovaya Diviziya"		
	division_name = {
		is_name_ordered = yes
		name_order = 233
	}
	location = 6243 #Kaluga
	division_template = "Strelkovaya Diviziya" 
	force_equipment_variants = { Small_Arms_1935 = { owner = SOV } }
	start_experience_factor = 0.3
	start_equipment_factor = 0.5
	
	}

	##21-ya Armiya##

	division= {	# 53-ya Strelkovaya Diviziya"		
	division_name = {
		is_name_ordered = yes
		name_order = 53
	}
	location = 9288 #Gomel
	division_template = "Strelkovaya Diviziya" 
	start_experience_factor = 0.3
	start_equipment_factor = 0.7
	
	}
	division= {	# 148-ya Strelkovaya Diviziya"		
	division_name = {
		is_name_ordered = yes
		name_order = 148
	}
	location = 9288 #Gomel
	division_template = "Strelkovaya Diviziya" 
	force_equipment_variants = { Small_Arms_1935 = { owner = SOV } }
	start_experience_factor = 0.3
	start_equipment_factor = 0.6
	
	}
	division= {	# 167-ya Strelkovaya Diviziya"		
	division_name = {
		is_name_ordered = yes
		name_order = 167
	}
	location = 13738 #Gomel
	division_template = "Strelkovaya Diviziya" 
	force_equipment_variants = { Small_Arms_1935 = { owner = SOV } }
	start_experience_factor = 0.3
	start_equipment_factor = 0.5
	
	}
	division= {	# 61-ya Strelkovaya Diviziya"		
	division_name = {
		is_name_ordered = yes
		name_order = 61
	}
	location = 546 #Gomel
	division_template = "Strelkovaya Diviziya" 
	start_experience_factor = 0.3
	start_equipment_factor = 0.6
	
	}
	division= {	# 117-ya Strelkovaya Diviziya"		
	division_name = {
		is_name_ordered = yes
		name_order = 117
	}
	location = 3568 #Gomel
	division_template = "Strelkovaya Diviziya" 
	force_equipment_variants = { Small_Arms_1935 = { owner = SOV } }
	start_experience_factor = 0.3
	start_equipment_factor = 0.6
	
	}
	division= {	# 154-ya Strelkovaya Diviziya"		
	division_name = {
		is_name_ordered = yes
		name_order = 154
	}
	location = 9288 #Gomel
	division_template = "Strelkovaya Diviziya" 
	force_equipment_variants = { Small_Arms_1935 = { owner = SOV } }
	start_experience_factor = 0.3
	start_equipment_factor = 0.5
	
	}

	##22-ya Armiya##

	division= {	# 98-ya Strelkovaya Diviziya"		
	division_name = {
		is_name_ordered = yes
		name_order = 98
	}
	location = 3235 #Velikiye Luki
	division_template = "Strelkovaya Diviziya" 
	force_equipment_variants = { Small_Arms_1935 = { owner = SOV } }
	start_experience_factor = 0.3
	start_equipment_factor = 0.6
	
	}
	division= {	# 112-ya Strelkovaya Diviziya"		
	division_name = {
		is_name_ordered = yes
		name_order = 112
	}
	location = 11272 #Velikiye Luki
	division_template = "Strelkovaya Diviziya" 
	force_equipment_variants = { Small_Arms_1935 = { owner = SOV } }
	start_experience_factor = 0.3
	start_equipment_factor = 0.5
	
	}
	division= {	# 153-ya Strelkovaya Diviziya"		
	division_name = {
		is_name_ordered = yes
		name_order = 153
	}
	location = 11224 #Velikiye Luki
	division_template = "Strelkovaya Diviziya" 
	force_equipment_variants = { Small_Arms_1935 = { owner = SOV } }
	start_experience_factor = 0.3
	start_equipment_factor = 0.6
	
	}
	division= {	# 186-ya Strelkovaya Diviziya"		
	division_name = {
		is_name_ordered = yes
		name_order = 186
	}
	location = 9265 #Velikiye Luki
	division_template = "Strelkovaya Diviziya" 
	force_equipment_variants = { Small_Arms_1935 = { owner = SOV } }
	start_experience_factor = 0.3
	start_equipment_factor = 0.6
	
	}
	division= {	# 170-ya Strelkovaya Diviziya"		
	division_name = {
		is_name_ordered = yes
		name_order = 170
	}
	location = 3313 #Velikiye Luki
	division_template = "Strelkovaya Diviziya" 
	force_equipment_variants = { Small_Arms_1935 = { owner = SOV } }
	start_experience_factor = 0.3
	start_equipment_factor = 0.5
	
	}
	division= {	# 174-ya Strelkovaya Diviziya"		
	division_name = {
		is_name_ordered = yes
		name_order = 174
	}
	location = 3247 #Velikiye Luki
	division_template = "Strelkovaya Diviziya" 
	force_equipment_variants = { Small_Arms_1935 = { owner = SOV } }
	start_experience_factor = 0.3
	start_equipment_factor = 0.6
	
	}

	##24-Armiya##

	division= {	# 91-ya Strelkovaya Diviziya"		
	division_name = {
		is_name_ordered = yes
		name_order = 91
	}
	location = 11349 #Velikiye Luki
	division_template = "Strelkovaya Diviziya" 
	force_equipment_variants = { Small_Arms_1935 = { owner = SOV } }
	start_experience_factor = 0.3
	start_equipment_factor = 0.6
	
	}
	division= {	# 119-ya Strelkovaya Diviziya"		
	division_name = {
		is_name_ordered = yes
		name_order = 119
	}
	location = 306 #Velikiye Luki
	division_template = "Strelkovaya Diviziya" 
	force_equipment_variants = { Small_Arms_1935 = { owner = SOV } }
	start_experience_factor = 0.3
	start_equipment_factor = 0.6
	
	}
	division= {	# 166-ya Strelkovaya Diviziya"		
	division_name = {
		is_name_ordered = yes
		name_order = 166
	}
	location = 11353 #Velikiye Luki
	division_template = "Strelkovaya Diviziya" 
	force_equipment_variants = { Small_Arms_1935 = { owner = SOV } }
	start_experience_factor = 0.3
	start_equipment_factor = 0.6
	
	}
	division= {	# 178ya Strelkovaya Diviziya"		
	division_name = {
		is_name_ordered = yes
		name_order = 178
	}
	location = 11241 #Velikiye Luki
	division_template = "Strelkovaya Diviziya" 
	force_equipment_variants = { Small_Arms_1935 = { owner = SOV } }
	start_experience_factor = 0.3
	start_equipment_factor = 0.5
	
	}
	division= {	# 107-ya Strelkovaya Diviziya"		
	division_name = {
		is_name_ordered = yes
		name_order = 107
	}
	location = 11220 #Velikiye Luki
	division_template = "Strelkovaya Diviziya" 
	force_equipment_variants = { Small_Arms_1935 = { owner = SOV } }
	start_experience_factor = 0.3
	start_equipment_factor = 0.5
	
	}
	division= {	# 133-ya Strelkovaya Diviziya"		
	division_name = {
		is_name_ordered = yes
		name_order = 133
	}
	location = 6354 #Velikiye Luki
	division_template = "Strelkovaya Diviziya" 
	force_equipment_variants = { Small_Arms_1935 = { owner = SOV } }
	start_experience_factor = 0.3
	start_equipment_factor = 0.5
	
	}

	



	##################EASTERN FRONT####################

	##Sredneaziatskyi Voennyi Okrug##

	division= {	# 68-ya Gornostrelkovaya Diviziya"		
	division_name = {
		is_name_ordered = yes
		name_order = 68
	}
	location = 7682 #Tashkent
	division_template = "Gornostrelkovaya Diviziya" 
	start_experience_factor = 0.3
	start_equipment_factor = 0.7
	
	}
	division= {	# 238-ya Strelkovaya Diviziya"		
	division_name = {
		is_name_ordered = yes
		name_order = 238
	}
	location = 7682 #Tashkent
	division_template = "Strelkovaya Diviziya" 
	start_experience_factor = 0.2
	start_equipment_factor = 0.6
	
	}

	##58-i Strelkovyi Korpus##

	division= {	# 83-ya Gornostrelkovaya Diviziya"		
	division_name = {
		is_name_ordered = yes
		name_order = 83
	}
	location = 10417 #Dushanbe
	division_template = "Gornostrelkovaya Diviziya" 
	start_experience_factor = 0.3
	start_equipment_factor = 0.6
	
	}

	division= {	# 194-ya Gornostrelkovaya Diviziya"		
	division_name = {
		is_name_ordered = yes
		name_order = 194
	}
	location = 12218 #Dushanbe
	division_template = "Gornostrelkovaya Diviziya" 
	start_experience_factor = 0.3
	start_equipment_factor = 0.5
	
	}

	division= {	# 18-ya Kav. Diviziya"		
	name = "18ya Turkmenskaya Kav. Div."
	location = 1384 #Dushanbe #Stalinabad
	division_template = "Kavaleriyskaya Diviziya" 
	start_experience_factor = 0.3
	start_equipment_factor = 0.6
	
	}
	division= {	# 20-ya Kav. Diviziya"		
	name = "20ya Tadzhikskaya Kav. Div."
	location = 1384 #Dushanbe
	division_template = "Kavaleriyskaya Diviziya" 
	force_equipment_variants = { Small_Arms_1935 = { owner = SOV } }
	start_experience_factor = 0.3
	start_equipment_factor = 0.6
	
	}

	division= {	# 21-ya Kav. Diviziya"		
	division_name = {
		is_name_ordered = yes
		name_order = 21
	}
	location = 756 #Dushanbe
	division_template = "Kavaleriyskaya Diviziya" 
	force_equipment_variants = { Small_Arms_1935 = { owner = SOV } }
	start_experience_factor = 0.3
	start_equipment_factor = 0.6
	
	}

	##12-i Strelkovyi Korpus##

	division= {	# 65-ya Strelkovaya Diviziya"		
	division_name = {
		is_name_ordered = yes
		name_order = 65
	}
	location = 4837 #Ulan Ude
	division_template = "Strelkovaya Diviziya" 
	start_experience_factor = 0.2
	start_equipment_factor = 0.5
	
	}

	division= {	#94-ya Strelkovaya Diviziya"		
	division_name = {
		is_name_ordered = yes
		name_order = 94
	}
	location = 12507 #Ulan Ude
	division_template = "Strelkovaya Diviziya" 
	force_equipment_variants = { Small_Arms_1935 = { owner = SOV } }
	start_experience_factor = 0.2
	start_equipment_factor = 0.6
	
	}

	##Zabaikalskyi Voennyi Okrug##

	division= {	#93-ya Strelkovaya Diviziya"		
	division_name = {
		is_name_ordered = yes
		name_order = 93
	}
	location = 4797 #Irkutsk
	division_template = "Strelkovaya Diviziya" 
	force_equipment_variants = { Small_Arms_1935 = { owner = SOV } }
	start_experience_factor = 0.2
	start_equipment_factor = 0.5
	
	}

	division= {	#114-ya Strelkovaya Diviziya"		
	division_name = {
		is_name_ordered = yes
		name_order = 114
	}
	location = 10683 #Chita
	division_template = "Strelkovaya Diviziya" 
	force_equipment_variants = { Small_Arms_1935 = { owner = SOV } }
	start_experience_factor = 0.2
	start_equipment_factor = 0.6
	
	}

	##Osobaya Krasnozamennaya Dalnevostochnaya Armiya##

	division= {	#35-ya Sibirskaya Strelkovaya Diviziya		
	name = "35ya Sibirskaya Strelk. Div."
	location = 3977 #Vladivostok
	division_template = "Strelkovaya Diviziya" 
	start_experience_factor = 0.4
	start_equipment_factor = 0.8
	
	}
	division= {	#66-ya Strelkovaya Diviziya"		
	division_name = {
		is_name_ordered = yes
		name_order = 66
	}
	location = 3843 #Vladivostok
	division_template = "Strelkovaya Diviziya" 
	force_equipment_variants = { Small_Arms_1935 = { owner = SOV } }
	start_experience_factor = 0.3
	start_equipment_factor = 0.6
	
	}
	division= {	#78-ya Strelkovaya Diviziya"		
	division_name = {
		is_name_ordered = yes
		name_order = 78
	}
	location = 957 #Vladivostok
	division_template = "Strelkovaya Diviziya" 
	start_experience_factor = 0.3
	start_equipment_factor = 0.6
	
	}
	division= {	#79-ya Strelkovaya Diviziya"		
	division_name = {
		is_name_ordered = yes
		name_order = 79
	}
	location = 11879 #Vladivostok
	division_template = "Strelkovaya Diviziya" 
	force_equipment_variants = { Small_Arms_1935 = { owner = SOV } }
	start_experience_factor = 0.3
	start_equipment_factor = 0.5
	
	}
	division= {	#101-ya Gornostrelkovaya Diviziya"		
	division_name = {
		is_name_ordered = yes
		name_order = 101
	}
	location = 11879 #Vladivostok
	division_template = "Gornostrelkovaya Diviziya" 
	start_experience_factor = 0.3
	start_equipment_factor = 0.7
	
	}

	##1-ya Armiya##

	division= {	#	26-ya Zlatoustovskaya	
	name = "26ya Zlatoustovskaya Strelk. Div."
	location = 6684 #Nikolsk-Ussuriysky
	division_template = "Strelkovaya Diviziya" 
	start_experience_factor = 0.4
	start_equipment_factor = 0.65
	
	}
	division= {	#	21-ya Permskaya Strelkovaya Diviziya	
	name = "21ya Permskaya Strelk. Div."
	location = 664 #Nikolsk-Ussuriysky
	division_template = "Strelkovaya Diviziya" 
	start_experience_factor = 0.4
	start_equipment_factor = 0.75
	
	}
	division= {	#	22-ya Krasnodarskaya Strelkovaya Diviziya	
	name = "22ya Krasnodarskaya Strelk. Div."
	location = 6686 #Nikolsk-Ussuriysky
	division_template = "Strelkovaya Diviziya" 
	start_experience_factor = 0.4
	start_equipment_factor = 0.65
	
	}
	division= {	#39-ya Strelkovaya Diviziya"		
	division_name = {
		is_name_ordered = yes
		name_order = 39
	}
	location = 11643 #Nikolsk-Ussuriysky
	division_template = "Strelkovaya Diviziya" 
	force_equipment_variants = { Small_Arms_1935 = { owner = SOV } }
	start_experience_factor = 0.3
	start_equipment_factor = 0.5
	
	}
	division= {	#59-ya Strelkovaya Diviziya"		
	division_name = {
		is_name_ordered = yes
		name_order = 59
	}
	location = 10466 #Nikolsk-Ussuriysky
	division_template = "Strelkovaya Diviziya" 
	start_experience_factor = 0.3
	start_equipment_factor = 0.7
	
	}
	division= {	#8-ya Kav. Diviziya"		
	name = "8-ya Dalnevostochnaya Kav. Div."
	location = 6684 #Nikolsk-Ussuriysky
	division_template = "Kavaleriyskaya Diviziya" 
	start_experience_factor = 0.3
	start_equipment_factor = 0.6
	
	}
	division= {	#	30-i Mekhanizirovannyi Korpus	
	name = "30-i Mekhanizirovannyi Korpus"
	location = 10466 #Nikolsk-Ussuriysky
	division_template = "Tankovaya Korpus"  #light tanks
	force_equipment_variants = { Light_Tank_1934 = { owner = SOV } } #BT-5
	start_experience_factor = 0.3
	start_equipment_factor = 0.65
	
	}

	##2ya Armiya##

	division= {	#12-ya Strelkovaya Diviziya"		
	division_name = {
		is_name_ordered = yes
		name_order = 12
	}
	location = 10722 #Birobhidzan
	division_template = "Strelkovaya Diviziya" 
	start_experience_factor = 0.3
	start_equipment_factor = 0.65
	
	}
	division= {	#3-ya Strelk. Diviziya"		
	name = "3ya Tihookeanskaya Strelk. Div."
	location = 4725 #Birobhidzan
	division_template = "Strelkovaya Diviziya" 
	start_experience_factor = 0.4
	start_equipment_factor = 0.7
	
	}

	##15-ya Armiya##

	division= {	#34-ya Strelk. Diviziya"		
	name = "34ya Srednevolzhskaya Strelk. Div."
	location = 1755 #Palana
	division_template = "Strelkovaya Diviziya" 
	start_experience_factor = 0.4
	start_equipment_factor = 0.8
	
	}

	##25-ya Armiya##

	division= {	#92-ya Strelkovaya Diviziya"		
	division_name = {
		is_name_ordered = yes
		name_order = 92
	}
	location = 12189 #Khabarovsk
	division_template = "Strelkovaya Diviziya" 
	start_experience_factor = 0.3
	start_equipment_factor = 0.6
	
	}
	division= {	#32-ya Strelk. Diviziya"		
	name = "32ya Saratovskaya Strelk. Div."
	location = 4805 #Khabarovsk
	division_template = "Strelkovaya Diviziya" 
	start_experience_factor = 0.3
	start_equipment_factor = 0.5
	
	}
	division= {	#40-ya Strelk. Diviziya"		
	name = "40-ya Bogucharskaya Strelk. Div."
	location = 7672 #Khabarovsk
	division_template = "Strelkovaya Diviziya" 
	start_experience_factor = 0.3
	start_equipment_factor = 0.5
	
	}
	division= {	#105-ya Strelkovaya Diviziya"		
	division_name = {
		is_name_ordered = yes
		name_order = 105
	}
	location = 10722 #Khabarovsk
	division_template = "Strelkovaya Diviziya" 
	force_equipment_variants = { Small_Arms_1935 = { owner = SOV } }
	start_experience_factor = 0.3
	start_equipment_factor = 0.6
	
	}

	###########NKVD GROUPS###############(the crappy garrisons)- all over the place

	division= {	#1-ya NKVD Pog. Diviziya"		
	division_name = {
		is_name_ordered = yes
		name_order = 11
	}
	location = 6174 #Leningrad
	division_template = "NKVD Pogranichnaya Diviziya" 
	force_equipment_variants = { Small_Arms_1935 = { owner = SOV } }
	start_experience_factor = 0.3
	start_equipment_factor = 0.3
	
	}
	division= {	#2ya NKVD Zashchite Zheleznykh Div		
	name = "2ya NKVD Zashchite Zheleznykh Pog. Div."
	location = 11370 #Minsk
	division_template = "NKVD Pogranichnaya Diviziya" 
	force_equipment_variants = { Small_Arms_1935 = { owner = SOV } }
	start_experience_factor = 0.3
	start_equipment_factor = 0.3
	
	}
	division= {	#3-ya NKVD Pog. Diviziya"		
	division_name = {
		is_name_ordered = yes
		name_order = 3
	}
	location = 11214 #Vitebsk
	division_template = "NKVD Pogranichnaya Diviziya" 
	force_equipment_variants = { Small_Arms_1935 = { owner = SOV } }
	start_experience_factor = 0.3
	start_equipment_factor = 0.3
	
	}
	division= {	#4-ya NKVD Pog. Diviziya"		
	division_name = {
		is_name_ordered = yes
		name_order = 4
	}
	location = 9340 #Tartu
	division_template = "NKVD Pogranichnaya Diviziya" 
	force_equipment_variants = { Small_Arms_1935 = { owner = SOV } }
	start_experience_factor = 0.3
	start_equipment_factor = 0.3
	
	}
	division= {	#5-ya NKVD Pog. Diviziya"		
	division_name = {
		is_name_ordered = yes
		name_order = 5
	}
	location = 418 #Kharkov
	division_template = "NKVD Pogranichnaya Diviziya" 
	force_equipment_variants = { Small_Arms_1935 = { owner = SOV } }
	start_experience_factor = 0.3
	start_equipment_factor = 0.3
	
	}
	division= {	#6-ya NKVD Pog. Diviziya"		
	division_name = {
		is_name_ordered = yes
		name_order = 6
	}
	location = 957 #Vladivostok
	division_template = "NKVD Pogranichnaya Diviziya" 
	force_equipment_variants = { Small_Arms_1935 = { owner = SOV } }
	start_experience_factor = 0.3
	start_equipment_factor = 0.3
	
	}
	division= {	#7-ya NKVD Pog. Diviziya"		
	division_name = {
		is_name_ordered = yes
		name_order = 7
	}
	location = 10547 #Abmolinsk
	division_template = "NKVD Pogranichnaya Diviziya" 
	force_equipment_variants = { Small_Arms_1935 = { owner = SOV } }
	start_experience_factor = 0.3
	start_equipment_factor = 0.3
	
	}
	division= {	#8-ya NKVD Pog. Diviziya"		
	division_name = {
		is_name_ordered = yes
		name_order = 8
	}
	location = 306 #Smolensk
	division_template = "NKVD Pogranichnaya Diviziya" 
	force_equipment_variants = { Small_Arms_1935 = { owner = SOV } }
	start_experience_factor = 0.3
	start_equipment_factor = 0.3
	
	}
	division= {	#9-ya NKVD Pog. Diviziya"		
	division_name = {
		is_name_ordered = yes
		name_order = 9
	}
	location = 1599 #Tblisi
	division_template = "NKVD Pogranichnaya Diviziya" 
	force_equipment_variants = { Small_Arms_1935 = { owner = SOV } }
	start_experience_factor = 0.3
	start_equipment_factor = 0.3
	
	}
	division= {	#11-ya NKVD Pog. Diviziya"		
	division_name = {
		is_name_ordered = yes
		name_order = 10
	}
	location = 525 #Kiev
	division_template = "NKVD Pogranichnaya Diviziya" 
	force_equipment_variants = { Small_Arms_1935 = { owner = SOV } }
	start_experience_factor = 0.3
	start_equipment_factor = 0.3
	
	}
	division= {	#12-ya NKVD Pog. Diviziya"		
	division_name = {
		is_name_ordered = yes
		name_order = 12
	}
	location = 9288 #Gomel
	division_template = "NKVD Pogranichnaya Diviziya" 
	force_equipment_variants = { Small_Arms_1935 = { owner = SOV } }
	start_experience_factor = 0.3
	start_equipment_factor = 0.3
	
	}
	division= {	#13-ya NKVD Pog. Diviziya"		
	division_name = {
		is_name_ordered = yes
		name_order = 13
	}
	location = 11464 #Zhytomir
	division_template = "NKVD Pogranichnaya Diviziya" 
	force_equipment_variants = { Small_Arms_1935 = { owner = SOV } }
	start_experience_factor = 0.3
	start_equipment_factor = 0.3
	
	}
	division= {	#14-ya NKVD Pog. Diviziya"		
	division_name = {
		is_name_ordered = yes
		name_order = 14
	}
	location = 6380 #Moscow
	division_template = "NKVD Pogranichnaya Diviziya" 
	force_equipment_variants = { Small_Arms_1935 = { owner = SOV } }
	start_experience_factor = 0.3
	start_equipment_factor = 0.3
	
	}
	division= {	#15-ya NKVD Pog. Diviziya"		
	name = "15ya NKVD SU Otdel Pog. Div."
	location = 9423 #Vinnytsia
	division_template = "NKVD Pogranichnaya Diviziya" 
	force_equipment_variants = { Small_Arms_1935 = { owner = SOV } }
	start_experience_factor = 0.3
	start_equipment_factor = 0.3
	
	}
	division= {	#16-ya NKVD Pog. Diviziya"		
	name = "16ya NKVD SU Otdel Pog. Div."
	location = 7682 #Tashkent
	division_template = "NKVD Pogranichnaya Diviziya" 
	force_equipment_variants = { Small_Arms_1935 = { owner = SOV } }
	start_experience_factor = 0.3
	start_equipment_factor = 0.3
	
	}
	division= {	#17-ya NKVD Pog. Diviziya"		
	division_name = {
		is_name_ordered = yes
		name_order = 17
	}
	location = 6380 #Moscow
	division_template = "NKVD Pogranichnaya Diviziya" 
	force_equipment_variants = { Small_Arms_1935 = { owner = SOV } }
	start_experience_factor = 0.3
	start_equipment_factor = 0.3
	
	}
	division= {	#18ya NKVD Zashchite Zheleznykh Div"		
	name = "18ya NKVD Zashchite Zheleznykh Pog. Div."
	location = 7786 #Mongolian Border
	division_template = "NKVD Pogranichnaya Diviziya" 
	force_equipment_variants = { Small_Arms_1935 = { owner = SOV } }
	start_experience_factor = 0.3
	start_equipment_factor = 0.3
	
	}
	division= {			
	name = "Dneiper Gruppa"
	location = 11370 #Minsk
	division_template = "NKVD Pogranichnaya Diviziya" 
	force_equipment_variants = { Small_Arms_1935 = { owner = SOV } }
	start_experience_factor = 0.3
	start_equipment_factor = 0.3
	
	}

	##MORE MOUNTAINEERS##(These are mountaineers not present in the Darkest Hour oob I sourced this)

	division= {	#79 Gornostrelk. Div		
	division_name = {
		is_name_ordered = yes
		name_order = 79 
	}
	location = 11312 #Salihorsk
	division_template = "Gornostrelkovaya Diviziya" 
	start_experience_factor = 0.4
	start_equipment_factor = 0.7
	
	}
	division= {	#58 Gornostrelk. Div		
	division_name = {
		is_name_ordered = yes
		name_order = 58
	}
	location = 3743 #Romanian Border
	division_template = "Gornostrelkovaya Diviziya" 
	start_experience_factor = 0.4
	start_equipment_factor = 0.7
	
	}
	division= {	#23 Gornostrelk. Div		
	division_name = {
		is_name_ordered = yes
		name_order = 23
	}
	location = 3562 #Romania
	division_template = "Gornostrelkovaya Diviziya" 
	start_experience_factor = 0.4
	start_equipment_factor = 0.7
	
	}
	division= {	#192 Gornostrelk. Div		
	division_name = {
		is_name_ordered = yes
		name_order = 192 
	}
	location = 9461 #Voroshilov
	division_template = "Gornostrelkovaya Diviziya" 
	start_experience_factor = 0.4
	start_equipment_factor = 0.5
	
	}
	division= {			
	name = "44ya Kievskaya Gornostrelk. Div."
	location = 11312 #Poland
	division_template = "Gornostrelkovaya Diviziya" 
	start_experience_factor = 0.4
	start_equipment_factor = 0.7
	
	}
	division= {			
		name = "60ya Kavkazskaya Gornostrelk. Div."
		location = 6314 #Poland
		division_template = "Gornostrelkovaya Diviziya" 
		start_experience_factor = 0.4
		start_equipment_factor = 0.7
		
	}
	division= {			
		name = "72ya Turkestanskaya Gornostrelk. Div."
		location = 3562 #Romania
		division_template = "Gornostrelkovaya Diviziya" 
		start_experience_factor = 0.4
		start_equipment_factor = 0.5
		
	}
	division= {			
		name = "30ya Irkutskaya Gornostrelk. Div."
		location = 3337 #Poland
		division_template = "Gornostrelkovaya Diviziya" 
		start_experience_factor = 0.4
		start_equipment_factor = 0.7
		
	}

	##RANDOM CAV##
	division= {			
		name = "10ya Kavaleriyskaya Diviziya"
		location = 9680 #Kerch
		division_template = "Kavaleriyskaya Diviziya" 
		start_experience_factor = 0.4
		start_equipment_factor = 0.7
		
	}

	##Paratroopers##

	division= {			
		name = "BVO Voz.-Desantnaya Voyska"
		location = 11370 #Minsk
		division_template = "Vozdushno-Desantnaya" 
		start_experience_factor = 0.45
		
	}
	division= {			
		name = "KOVO Voz.-Desantnaya Voyska"
		location = 525 #Kiev
		division_template = "Vozdushno-Desantnaya" 
		start_experience_factor = 0.45
		
	}
	division= {			
		name = "OdVO Voz.-Desantnaya Voyska"
		location = 3686 #Sevastopol
		division_template = "Vozdushno-Desantnaya" 
		start_experience_factor = 0.45
		
	}
	division= {			
		name = "MVO Voz.-Desantnaya Voyska"
		location = 6380 #Moscow
		division_template = "Vozdushno-Desantnaya" 
		start_experience_factor = 0.45
		
	}
	division= {			
		name = "LVO Voz.-Desantnaya Voyska"
		location = 3151 #Leningrad
		division_template = "Vozdushno-Desantnaya" 
		start_experience_factor = 0.45
		
	}

	##Motorized Divisions##
	
	division= {			
		name = "109ya Motostreolkovaya Diviziya"
		location = 4719 #Chita
		division_template = "Motostrelkovaya Diviziya" 
		force_equipment_variants = { Light_Tank_1936 = { owner = SOV } }
		start_equipment_factor = 0.5
		start_experience_factor = 0.4
		
	}
	division= {			
		name = "185ya Motostreolkovaya Diviziya"
		location = 9355 #Orel
		division_template = "Motostrelkovaya Diviziya" 
		force_equipment_variants = { Light_Tank_1936 = { owner = SOV } } #BT-7
		start_equipment_factor = 0.7
		start_experience_factor = 0.4
		
	}
	division= {			
		name = "15ya Sivashskaya Motostreolkovaya Div."
		location = 3562 #Romania
		division_template = "Motostrelkovaya Diviziya" 
		force_equipment_variants = { Light_Tank_1936 = { owner = SOV } } #BT-7
		start_equipment_factor = 0.7
		start_experience_factor = 0.5
		
	}
	division= {			
		name = "131ya Motostreolkovaya Diviziya"
		location = 9423 #Romania
		division_template = "Motostrelkovaya Diviziya" 
		force_equipment_variants = { Light_Tank_1936 = { owner = SOV } }
		start_equipment_factor = 0.7
		start_experience_factor = 0.4
		
	}
	division= {			
		name = "103ya Motostreolkovaya Diviziya"
		location = 9417 #Rostov
		division_template = "Motostrelkovaya Diviziya" 
		force_equipment_variants = { Light_Tank_1936 = { owner = SOV } }
		start_equipment_factor = 0.7
		start_experience_factor = 0.4
		
	}
	
	

}